,device,state
0,low-cbf/allocator/0,ON
1,low-cbf/connector/0,ON
2,low-cbf/control/0,ON
3,low-cbf/delaypoly/0,DISABLE
4,low-cbf/processor/0.0.1,ON
5,low-cbf/processor/0.0.2,ON
6,low-cbf/processor/0.0.3,ON
7,low-cbf/processor/0.0.4,ON
8,low-cbf/subarray/01,ON
9,low-cbf/subarray/02,ON
10,low-cbf/subarray/03,ON
11,low-cbf/subarray/04,ON
12,low-csp/control/0,ON
13,low-csp/subarray/01,ON
14,low-csp/subarray/02,ON
15,low-csp/subarray/03,ON
16,low-csp/subarray/04,ON
17,low-mccs/beam/itf1-01,ON
18,low-mccs/beam/itf1-02,ON
19,low-mccs/beam/itf1-03,ON
20,low-mccs/beam/itf1-04,ON
21,low-mccs/beam/itf1-05,ON
22,low-mccs/beam/itf1-06,ON
23,low-mccs/beam/itf2-01,ON
24,low-mccs/beam/itf2-02,ON
25,low-mccs/beam/itf2-03,ON
26,low-mccs/beam/itf2-04,ON
27,low-mccs/beam/itf2-05,ON
28,low-mccs/beam/itf2-06,ON
29,low-mccs/cabinetbank/itf,UNKNOWN
30,low-mccs/control/control,UNKNOWN
31,low-mccs/daqreceiver/itf1,ON
32,low-mccs/daqreceiver/itf2,ON
33,low-mccs/fieldstation/itf1,ON
34,low-mccs/fieldstation/itf2,ON
35,low-mccs/fndh/itf1,ON
36,low-mccs/fndh/itf2,ON
37,low-mccs/pasdbus/itf,ON
38,low-mccs/pasdbus/itf,ON
39,low-mccs/smartbox/itf1-sb01,ON
40,low-mccs/smartbox/itf2-sb01,ON
41,low-mccs/spsstation/itf1,STANDBY
42,low-mccs/spsstation/itf2,ON
43,low-mccs/station/itf1,UNKNOWN
44,low-mccs/station/itf2,ON
45,low-mccs/subarray/01,ON
46,low-mccs/subarray/02,ON
47,low-mccs/subarray/03,ON
48,low-mccs/subarray/04,ON
49,low-mccs/subarraybeam/01,ON
50,low-mccs/subarraybeam/02,ON
51,low-mccs/subarraybeam/03,ON
52,low-mccs/subarraybeam/04,ON
53,low-mccs/subarraybeam/05,ON
54,low-mccs/subarraybeam/06,ON
55,low-mccs/subrack/itf1-sr1,ON
56,low-mccs/subrack/itf2-sr1,ON
60,low-mccs/tile/itf2-tpm02,ALARM
62,low-sdp/queueconnector/01,STANDBY
63,low-sdp/queueconnector/02,STANDBY
64,low-sdp/queueconnector/03,STANDBY
65,low-sdp/queueconnector/04,STANDBY
70,ska_low/tm_central/central_node,ON
71,ska_low/tm_leaf_node/csp_master,ON
72,ska_low/tm_leaf_node/csp_subarray01,ON
73,ska_low/tm_leaf_node/csp_subarray02,ON
74,ska_low/tm_leaf_node/csp_subarray03,ON
75,ska_low/tm_leaf_node/csp_subarray04,ON
76,ska_low/tm_leaf_node/mccs_master,ON
77,ska_low/tm_leaf_node/mccs_subarray01,ON
78,ska_low/tm_leaf_node/mccs_subarray02,ON
79,ska_low/tm_leaf_node/mccs_subarray03,ON
80,ska_low/tm_leaf_node/mccs_subarray04,ON
81,ska_low/tm_leaf_node/sdp_master,ON
82,ska_low/tm_leaf_node/sdp_subarray01,ON
83,ska_low/tm_leaf_node/sdp_subarray02,ON
84,ska_low/tm_leaf_node/sdp_subarray03,ON
85,ska_low/tm_leaf_node/sdp_subarray04,ON
86,ska_low/tm_subarray_node/1,ON
87,ska_low/tm_subarray_node/2,ON
88,ska_low/tm_subarray_node/3,ON
89,ska_low/tm_subarray_node/4,ON
