2024-10-04-14-21-28, [36mSUCCESS
PDU ID 1 : OUTLET 24 power Feature
voltage       : 236.7V
current	      : 0.3A
activepower   : 52.6W
apparentpower : 59.6VA
powerfactor   : 0.88
energy        : 240.046kWh [37m
EN2.0>
