! FILETYPE CSV
! VERSION 3.0,1
! TIMESTAMP Wednesday, 09 August 2023 16:07:45
! TIMEZONE (UTC+08:00) Kuala Lumpur, Singapore
! NAME Keysight Technologies
! MODEL N9913B
! SERIAL MY63185203
! FIRMWARE_VERSION A.12.45
! CORRECTION 
! Application SA
! SA Frequency Scan
!  CenterFreq 255000000
!  SpanFreq 490000000
!  Num TracePoints 401
!  ResolutionBW 1000000
!  VideoBW 10000
!  RF Attenuation 35
!  Preamp OFF
!  External Gain 0
!  Detector Sample
!  TraceAvgCount 100 / 100
! Trace TIMESTAMP: 2023-08-09 16:07:44Z
! Trace GPS Info...
! GPS Latitude: 
! GPS Longitude: 
! GPS Elevation (m): 
! GPS Seconds Since Last Read: 
! CHECKSUM 0978177602
! DATA Freq,SA Average,SA Blank,SA Blank,SA Blank
! FREQ UNIT Hz
! DATA UNIT dBm
BEGIN
10000000,-49.365257943837,0,0,0
11225000,-49.391506941417,0,0,0
12450000,-49.4389193976079,0,0,0
13675000,-49.4791510494176,0,0,0
14900000,-49.5825791974322,0,0,0
16125000,-53.4107667655717,0,0,0
17350000,-53.6048698668738,0,0,0
18575000,-53.6070938785869,0,0,0
19800000,-53.5962436288449,0,0,0
21025000,-53.3123544821508,0,0,0
22250000,-52.9329531328083,0,0,0
23475000,-52.7138062060714,0,0,0
24700000,-52.3179467469634,0,0,0
25925000,-51.0776108462492,0,0,0
27150000,-47.419042973855,0,0,0
28375000,-39.1425944421019,0,0,0
29600000,-32.392281033784,0,0,0
30825000,-28.9175990562008,0,0,0
32050000,-25.5866526874483,0,0,0
33275000,-23.3978906674402,0,0,0
34500000,-22.08993413499,0,0,0
35725000,-21.4892285409345,0,0,0
36950000,-21.1272578251173,0,0,0
38175000,-21.047399546121,0,0,0
39400000,-20.9627619104782,0,0,0
40625000,-20.7985462277093,0,0,0
41850000,-20.3309823766589,0,0,0
43075000,-19.9290391719845,0,0,0
44300000,-19.6548367822819,0,0,0
45525000,-19.3090708502459,0,0,0
46750000,-19.4298828289466,0,0,0
47975000,-19.399521082259,0,0,0
49200000,-19.3979305202781,0,0,0
50425000,-19.3330724873156,0,0,0
51650000,-19.1681786833944,0,0,0
52875000,-18.9165145964886,0,0,0
54100000,-18.7450280424547,0,0,0
55325000,-18.6500140395152,0,0,0
56550000,-18.7085549135975,0,0,0
57775000,-18.8739501742262,0,0,0
59000000,-18.6999885179191,0,0,0
60225000,-18.7715927498116,0,0,0
61450000,-18.7518468760077,0,0,0
62675000,-18.5330741116293,0,0,0
63900000,-18.4980583679119,0,0,0
65125000,-18.3910932658276,0,0,0
66350000,-18.2764294178464,0,0,0
67575000,-18.2667848296908,0,0,0
68800000,-18.3715735777516,0,0,0
70025000,-18.2888875787939,0,0,0
71250000,-18.27836267459,0,0,0
72475000,-18.1404383136532,0,0,0
73700000,-18.1318582554159,0,0,0
74925000,-18.03105107779,0,0,0
76150000,-17.9408582478814,0,0,0
77375000,-17.9184076864863,0,0,0
78600000,-17.9680334166318,0,0,0
79825000,-17.9232493418581,0,0,0
81050000,-17.9059063919366,0,0,0
82275000,-17.8819201084225,0,0,0
83500000,-17.930635048015,0,0,0
84725000,-17.8980679661476,0,0,0
85950000,-17.8626350935713,0,0,0
87175000,-17.7535954090278,0,0,0
88400000,-17.7148848118857,0,0,0
89625000,-17.6626576179942,0,0,0
90850000,-17.7354661113706,0,0,0
92075000,-17.7196310766217,0,0,0
93300000,-17.5911057997524,0,0,0
94525000,-17.7311653536904,0,0,0
95750000,-17.7791559954756,0,0,0
96975000,-17.7235201504663,0,0,0
98200000,-17.6774182140165,0,0,0
99425000,-17.6916513253889,0,0,0
100650000,-17.6514877830357,0,0,0
101875000,-17.5967320388024,0,0,0
103100000,-17.6993093419919,0,0,0
104325000,-17.5803157279733,0,0,0
105550000,-17.6990686535307,0,0,0
106775000,-17.7313835070811,0,0,0
108000000,-17.751760559737,0,0,0
109225000,-17.7904870433406,0,0,0
110450000,-17.7863588309588,0,0,0
111675000,-17.6176233656338,0,0,0
112900000,-17.8003737294881,0,0,0
114125000,-17.7600763885128,0,0,0
115350000,-17.7856221637277,0,0,0
116575000,-17.7340516250894,0,0,0
117800000,-17.7309056653187,0,0,0
119025000,-17.9140346084923,0,0,0
120250000,-17.9455166580432,0,0,0
121475000,-17.884193064094,0,0,0
122700000,-17.9093481400401,0,0,0
123925000,-17.9111807485941,0,0,0
125150000,-17.8507188926895,0,0,0
126375000,-17.8945724022139,0,0,0
127600000,-18.0352364398513,0,0,0
128825000,-17.9018660074257,0,0,0
130050000,-18.0790694408581,0,0,0
131275000,-18.0665747859131,0,0,0
132500000,-18.1752941848645,0,0,0
133725000,-18.1621685474206,0,0,0
134950000,-18.0696972844744,0,0,0
136175000,-18.1520247184591,0,0,0
137400000,-18.0686454033732,0,0,0
138625000,-18.0992687625484,0,0,0
139850000,-18.0063206800505,0,0,0
141075000,-18.09837403969,0,0,0
142300000,-18.1091858645398,0,0,0
143525000,-18.2063065906151,0,0,0
144750000,-18.2196094876604,0,0,0
145975000,-18.1463086169086,0,0,0
147200000,-18.2032146292265,0,0,0
148425000,-18.2838351294963,0,0,0
149650000,-18.1931717194664,0,0,0
150875000,-18.1529717054392,0,0,0
152100000,-18.0959989425399,0,0,0
153325000,-18.234925469841,0,0,0
154550000,-18.3227069097183,0,0,0
155775000,-18.2649266258286,0,0,0
157000000,-18.2836250024308,0,0,0
158225000,-18.429067130242,0,0,0
159450000,-18.2702225175187,0,0,0
160675000,-18.2995813788401,0,0,0
161900000,-18.3461534699523,0,0,0
163125000,-18.2616463630083,0,0,0
164350000,-18.2880369724367,0,0,0
165575000,-18.3761278724074,0,0,0
166800000,-18.4368518275701,0,0,0
168025000,-18.3712407291323,0,0,0
169250000,-18.4878244368386,0,0,0
170475000,-18.5382087508778,0,0,0
171700000,-18.4972122863929,0,0,0
172925000,-18.4305700578013,0,0,0
174150000,-18.4393749191743,0,0,0
175375000,-18.3157935340307,0,0,0
176600000,-18.3851591071881,0,0,0
177825000,-18.3763128572115,0,0,0
179050000,-18.4369904083944,0,0,0
180275000,-18.4215533889448,0,0,0
181500000,-18.5022282608753,0,0,0
182725000,-18.6414385281122,0,0,0
183950000,-18.5327002509549,0,0,0
185175000,-18.6564448946447,0,0,0
186400000,-18.6821469082497,0,0,0
187625000,-18.5260630800428,0,0,0
188850000,-18.5381819547423,0,0,0
190075000,-18.4724788325487,0,0,0
191300000,-18.5701284182142,0,0,0
192525000,-18.5939687443293,0,0,0
193750000,-18.6092017488904,0,0,0
194975000,-18.7390408638615,0,0,0
196200000,-18.6572567268284,0,0,0
197425000,-18.7359627301105,0,0,0
198650000,-18.7241580203144,0,0,0
199875000,-18.7341361917878,0,0,0
201100000,-18.6147874213915,0,0,0
202325000,-18.5768207084485,0,0,0
203550000,-18.6667567823774,0,0,0
204775000,-18.7890298679516,0,0,0
206000000,-18.6827194745814,0,0,0
207225000,-18.7118616128537,0,0,0
208450000,-18.9253347086342,0,0,0
209675000,-18.9341428455361,0,0,0
210900000,-18.8278445205678,0,0,0
212125000,-18.8573049097876,0,0,0
213350000,-18.8703285741607,0,0,0
214575000,-18.9129068824755,0,0,0
215800000,-18.8454639641936,0,0,0
217025000,-18.9892742047361,0,0,0
218250000,-18.9788942158525,0,0,0
219475000,-19.1101662415853,0,0,0
220700000,-19.0291044421392,0,0,0
221925000,-19.0841584034313,0,0,0
223150000,-19.0865765321063,0,0,0
224375000,-19.0610194904199,0,0,0
225600000,-19.031975656136,0,0,0
226825000,-18.9380855876866,0,0,0
228050000,-19.0558399103116,0,0,0
229275000,-19.0920520652083,0,0,0
230500000,-19.1598438563614,0,0,0
231725000,-19.2061909050504,0,0,0
232950000,-19.3025935500529,0,0,0
234175000,-19.3238549572189,0,0,0
235400000,-19.4105549057096,0,0,0
236625000,-19.364883582968,0,0,0
237850000,-19.2929992523837,0,0,0
239075000,-19.2732671576731,0,0,0
240300000,-19.4100104823399,0,0,0
241525000,-19.2138593245846,0,0,0
242750000,-19.4920753656184,0,0,0
243975000,-19.4725229066332,0,0,0
245200000,-19.541004886639,0,0,0
246425000,-19.6422392926091,0,0,0
247650000,-19.543524732215,0,0,0
248875000,-19.5953284120813,0,0,0
250100000,-19.5519089976927,0,0,0
251325000,-19.4174926763039,0,0,0
252550000,-19.4487884691549,0,0,0
253775000,-19.5137199047902,0,0,0
255000000,-19.5471641375277,0,0,0
256225000,-19.5636809262093,0,0,0
257450000,-19.7234467894782,0,0,0
258675000,-19.7706934936857,0,0,0
259900000,-19.7764600490601,0,0,0
261125000,-19.9014366317528,0,0,0
262350000,-19.866030044737,0,0,0
263575000,-19.8074857983827,0,0,0
264800000,-19.7623429431918,0,0,0
266025000,-19.7949035603689,0,0,0
267250000,-19.9690503119182,0,0,0
268475000,-19.9497299954607,0,0,0
269700000,-20.0480635985088,0,0,0
270925000,-20.1555640948615,0,0,0
272150000,-20.2053173436184,0,0,0
273375000,-20.2135240793704,0,0,0
274600000,-20.0544774606645,0,0,0
275825000,-20.2475840995096,0,0,0
277050000,-20.1688490081957,0,0,0
278275000,-20.1606453613643,0,0,0
279500000,-20.1756064138149,0,0,0
280725000,-20.3002577431943,0,0,0
281950000,-20.3865165004199,0,0,0
283175000,-20.4658304845887,0,0,0
284400000,-20.499605441352,0,0,0
285625000,-20.5526027191151,0,0,0
286850000,-20.5449943430157,0,0,0
288075000,-20.658621712474,0,0,0
289300000,-20.6375397916719,0,0,0
290525000,-20.5991368590775,0,0,0
291750000,-20.6577288724333,0,0,0
292975000,-20.7827031444455,0,0,0
294200000,-20.8170515032586,0,0,0
295425000,-20.8978581879599,0,0,0
296650000,-20.8991602885698,0,0,0
297875000,-21.0937229727768,0,0,0
299100000,-21.0108107216354,0,0,0
300325000,-21.0099940428282,0,0,0
301550000,-21.1224428948459,0,0,0
302775000,-21.0984053112788,0,0,0
304000000,-21.0289050132295,0,0,0
305225000,-21.1242774990616,0,0,0
306450000,-21.2688263254807,0,0,0
307675000,-21.2706855642869,0,0,0
308900000,-21.3328601031146,0,0,0
310125000,-21.4622500656992,0,0,0
311350000,-21.5076660911574,0,0,0
312575000,-21.5749961350954,0,0,0
313800000,-21.4318429615111,0,0,0
315025000,-21.3909295494485,0,0,0
316250000,-21.5936929452839,0,0,0
317475000,-21.4526315099389,0,0,0
318700000,-21.419465468916,0,0,0
319925000,-21.7060115538453,0,0,0
321150000,-21.748648314252,0,0,0
322375000,-21.8464833608253,0,0,0
323600000,-21.8829917313812,0,0,0
324825000,-21.9422052068081,0,0,0
326050000,-21.9023498223471,0,0,0
327275000,-21.7895395097048,0,0,0
328500000,-21.8993579332187,0,0,0
329725000,-21.8717737335416,0,0,0
330950000,-21.9351963255161,0,0,0
332175000,-22.1968601230006,0,0,0
333400000,-22.1277109968396,0,0,0
334625000,-22.3316449473247,0,0,0
335850000,-22.386459127859,0,0,0
337075000,-22.3722776223838,0,0,0
338300000,-22.4930172761981,0,0,0
339525000,-22.4010205204425,0,0,0
340750000,-22.4630576793382,0,0,0
341975000,-22.3907112949633,0,0,0
343200000,-22.5603362587521,0,0,0
344425000,-22.5095908174311,0,0,0
345650000,-22.7346047188995,0,0,0
346875000,-22.8161239360092,0,0,0
348100000,-22.9552407076683,0,0,0
349325000,-23.1073661629588,0,0,0
350550000,-23.0116968760681,0,0,0
351775000,-23.0244194809305,0,0,0
353000000,-23.0123913646893,0,0,0
354225000,-23.0648961563568,0,0,0
355450000,-23.165405219426,0,0,0
356675000,-23.237788784521,0,0,0
357900000,-23.2729172548258,0,0,0
359125000,-23.4679627525498,0,0,0
360350000,-23.6816527017458,0,0,0
361575000,-23.7577447352027,0,0,0
362800000,-23.8297791622016,0,0,0
364025000,-23.8790085392187,0,0,0
365250000,-23.9660870509819,0,0,0
366475000,-23.8276121893203,0,0,0
367700000,-23.9931993000548,0,0,0
368925000,-24.0889954575426,0,0,0
370150000,-24.3422055063036,0,0,0
371375000,-24.4210881544844,0,0,0
372600000,-24.7441188690554,0,0,0
373825000,-24.9627383599485,0,0,0
375050000,-24.9726150543078,0,0,0
376275000,-25.2105939255943,0,0,0
377500000,-25.3418566587524,0,0,0
378725000,-25.3271425366323,0,0,0
379950000,-25.5904300199147,0,0,0
381175000,-25.8321024533824,0,0,0
382400000,-26.0513191128541,0,0,0
383625000,-26.5497231673829,0,0,0
384850000,-27.0009065558647,0,0,0
386075000,-27.422863760487,0,0,0
387300000,-27.992887894329,0,0,0
388525000,-28.6720734233414,0,0,0
389750000,-29.3567379865295,0,0,0
390975000,-29.9876870092321,0,0,0
392200000,-30.9288929805471,0,0,0
393425000,-31.8773987797096,0,0,0
394650000,-32.6971944846705,0,0,0
395875000,-33.981550501571,0,0,0
397100000,-35.2658226457972,0,0,0
398325000,-36.198515279826,0,0,0
399550000,-37.4730762036406,0,0,0
400775000,-38.8434053258891,0,0,0
402000000,-39.7534125598901,0,0,0
403225000,-40.9712009204257,0,0,0
404450000,-42.1702685492281,0,0,0
405675000,-43.1057787499985,0,0,0
406900000,-44.4397552345949,0,0,0
408125000,-45.6997743714306,0,0,0
409350000,-46.6166489861882,0,0,0
410575000,-47.9102683525205,0,0,0
411800000,-48.9382866665544,0,0,0
413025000,-49.69779701981,0,0,0
414250000,-50.4672117142527,0,0,0
415475000,-51.3043899319707,0,0,0
416700000,-51.7070843716987,0,0,0
417925000,-52.2348343281734,0,0,0
419150000,-52.8205725833303,0,0,0
420375000,-53.0579631654818,0,0,0
421600000,-53.3190135400401,0,0,0
422825000,-53.4877530505977,0,0,0
424050000,-53.6251650929574,0,0,0
425275000,-53.7144582483953,0,0,0
426500000,-53.7237110543936,0,0,0
427725000,-53.7777450981365,0,0,0
428950000,-53.8222413308276,0,0,0
430175000,-53.8817272345179,0,0,0
431400000,-53.9101033523285,0,0,0
432625000,-53.7761297765996,0,0,0
433850000,-54.0291376475071,0,0,0
435075000,-54.1006580167704,0,0,0
436300000,-53.9401529413515,0,0,0
437525000,-53.9534890288025,0,0,0
438750000,-53.9169823498146,0,0,0
439975000,-53.7757232697572,0,0,0
441200000,-53.7513941542695,0,0,0
442425000,-54.0367713293395,0,0,0
443650000,-53.8846341672529,0,0,0
444875000,-53.8813172896663,0,0,0
446100000,-53.932391282803,0,0,0
447325000,-53.9894304398748,0,0,0
448550000,-53.7678341724555,0,0,0
449775000,-53.6830004891432,0,0,0
451000000,-54.01495288461,0,0,0
452225000,-53.9228096584942,0,0,0
453450000,-53.8671898304812,0,0,0
454675000,-53.8427249706904,0,0,0
455900000,-53.9848047620073,0,0,0
457125000,-53.7392978184832,0,0,0
458350000,-53.847695965634,0,0,0
459575000,-53.6029906631584,0,0,0
460800000,-53.878544780989,0,0,0
462025000,-53.8653065470231,0,0,0
463250000,-53.7368564507839,0,0,0
464475000,-53.8202085093063,0,0,0
465700000,-53.8806205323394,0,0,0
466925000,-53.907239739074,0,0,0
468150000,-53.680175755715,0,0,0
469375000,-53.852914493824,0,0,0
470600000,-53.8448563206191,0,0,0
471825000,-53.829585573192,0,0,0
473050000,-53.879696407383,0,0,0
474275000,-53.8923125589131,0,0,0
475500000,-53.7820224804923,0,0,0
476725000,-53.7750090048722,0,0,0
477950000,-53.7824401561831,0,0,0
479175000,-53.8375016866035,0,0,0
480400000,-53.7313109405114,0,0,0
481625000,-53.7491993967534,0,0,0
482850000,-53.9182718420838,0,0,0
484075000,-53.9318331134198,0,0,0
485300000,-53.8489772867089,0,0,0
486525000,-53.6483924523937,0,0,0
487750000,-53.9177649163079,0,0,0
488975000,-53.7513463455451,0,0,0
490200000,-53.7457791031938,0,0,0
491425000,-53.9307396783588,0,0,0
492650000,-53.8978655812512,0,0,0
493875000,-53.8061146551293,0,0,0
495100000,-53.6554811207374,0,0,0
496325000,-53.9207585606121,0,0,0
497550000,-53.9011319267369,0,0,0
498775000,-53.7568041147694,0,0,0
500000000,-53.8424831276086,0,0,0
END
