! FILETYPE CSV
! VERSION 3.0,1
! TIMESTAMP Wednesday, 09 August 2023 15:43:13
! TIMEZONE (UTC+08:00) Kuala Lumpur, Singapore
! NAME Keysight Technologies
! MODEL N9913B
! SERIAL MY63185203
! FIRMWARE_VERSION A.12.45
! CORRECTION 
! Application SA
! SA Frequency Scan
!  CenterFreq 255000000
!  SpanFreq 490000000
!  Num TracePoints 401
!  ResolutionBW 1000000
!  VideoBW 10000
!  RF Attenuation 35
!  Preamp OFF
!  External Gain 0
!  Detector Sample
!  TraceAvgCount 100 / 100
! Missing Trace TIMESTAMP... measurement incomplete... try using Single Sweep
! CHECKSUM 1869163824
! DATA Freq,SA Average,SA Blank,SA Blank,SA Blank
! FREQ UNIT Hz
! DATA UNIT dBm
BEGIN
10000000,-50.100837353141,0,0,0
11225000,-50.1790652300477,0,0,0
12450000,-50.1566645086893,0,0,0
13675000,-50.2254739529523,0,0,0
14900000,-50.1797566614672,0,0,0
16125000,-54.5482028774289,0,0,0
17350000,-54.185873609987,0,0,0
18575000,-53.9296946546718,0,0,0
19800000,-53.769798090256,0,0,0
21025000,-53.4167822769053,0,0,0
22250000,-53.2845382195092,0,0,0
23475000,-53.0330093941416,0,0,0
24700000,-52.6739345076894,0,0,0
25925000,-52.2105607563549,0,0,0
27150000,-49.9852562105721,0,0,0
28375000,-43.3538879235399,0,0,0
29600000,-37.5575974672961,0,0,0
30825000,-34.389521192966,0,0,0
32050000,-31.0445609985823,0,0,0
33275000,-28.815844062348,0,0,0
34500000,-27.7615047676355,0,0,0
35725000,-27.1915554130311,0,0,0
36950000,-26.7260877531323,0,0,0
38175000,-26.7753119417254,0,0,0
39400000,-26.6421322177111,0,0,0
40625000,-26.4672972100026,0,0,0
41850000,-26.1243807764387,0,0,0
43075000,-25.6135652004473,0,0,0
44300000,-25.3182381289074,0,0,0
45525000,-25.117857942832,0,0,0
46750000,-25.1935314315469,0,0,0
47975000,-25.3684551811205,0,0,0
49200000,-25.2392429589841,0,0,0
50425000,-24.9860256583218,0,0,0
51650000,-24.89771774305,0,0,0
52875000,-24.5886369874477,0,0,0
54100000,-24.5128546104416,0,0,0
55325000,-24.4686214056916,0,0,0
56550000,-24.5737847953743,0,0,0
57775000,-24.5346077857109,0,0,0
59000000,-24.6042147624467,0,0,0
60225000,-24.4804981060652,0,0,0
61450000,-24.4294426443824,0,0,0
62675000,-24.3203194134112,0,0,0
63900000,-24.2347700543015,0,0,0
65125000,-24.1402833916732,0,0,0
66350000,-24.0255551035703,0,0,0
67575000,-24.1158440185828,0,0,0
68800000,-24.0871214612787,0,0,0
70025000,-24.1274437174711,0,0,0
71250000,-24.1455794972154,0,0,0
72475000,-24.0476404218358,0,0,0
73700000,-23.9733267210438,0,0,0
74925000,-23.9749825006631,0,0,0
76150000,-23.9194289376569,0,0,0
77375000,-23.7359189686212,0,0,0
78600000,-23.8879260873405,0,0,0
79825000,-23.8426718922391,0,0,0
81050000,-23.7909757451687,0,0,0
82275000,-23.7998760736558,0,0,0
83500000,-23.7396404944886,0,0,0
84725000,-23.8254798451198,0,0,0
85950000,-23.7216067359003,0,0,0
87175000,-23.6399145670173,0,0,0
88400000,-23.7000748903974,0,0,0
89625000,-23.6820154286062,0,0,0
90850000,-23.7446084408288,0,0,0
92075000,-23.5157027579072,0,0,0
93300000,-23.6518936955165,0,0,0
94525000,-23.5977027527047,0,0,0
95750000,-23.6284677765966,0,0,0
96975000,-23.6267272647337,0,0,0
98200000,-23.6206184887016,0,0,0
99425000,-23.5754116177356,0,0,0
100650000,-23.4668150405917,0,0,0
101875000,-23.337505739832,0,0,0
103100000,-23.4731688511411,0,0,0
104325000,-23.4483018649423,0,0,0
105550000,-23.4890834927373,0,0,0
106775000,-23.4084645467622,0,0,0
108000000,-23.3159760792064,0,0,0
109225000,-23.5831623131271,0,0,0
110450000,-23.3147894271745,0,0,0
111675000,-23.4004808677226,0,0,0
112900000,-23.3753022987489,0,0,0
114125000,-23.3469457032467,0,0,0
115350000,-23.3097748185264,0,0,0
116575000,-23.2744227209308,0,0,0
117800000,-23.3775368196155,0,0,0
119025000,-23.3338323363767,0,0,0
120250000,-23.3058028539098,0,0,0
121475000,-23.2799845802817,0,0,0
122700000,-23.2592142922852,0,0,0
123925000,-23.2609222062191,0,0,0
125150000,-23.1727795711523,0,0,0
126375000,-23.2455297998679,0,0,0
127600000,-23.2384938184747,0,0,0
128825000,-23.2316975402792,0,0,0
130050000,-23.2450501399677,0,0,0
131275000,-23.3361390592418,0,0,0
132500000,-23.3627523380595,0,0,0
133725000,-23.3248346498623,0,0,0
134950000,-23.2258910238882,0,0,0
136175000,-23.2156877136094,0,0,0
137400000,-23.2672732003976,0,0,0
138625000,-23.270378376812,0,0,0
139850000,-23.3020137671331,0,0,0
141075000,-23.2352650462969,0,0,0
142300000,-23.3184707029369,0,0,0
143525000,-23.2601199714086,0,0,0
144750000,-23.3491899263415,0,0,0
145975000,-23.3576805428711,0,0,0
147200000,-23.2168617716504,0,0,0
148425000,-23.2040123662856,0,0,0
149650000,-23.1956928332507,0,0,0
150875000,-23.1794064241478,0,0,0
152100000,-23.1348192018416,0,0,0
153325000,-23.1477206056063,0,0,0
154550000,-23.2226042420707,0,0,0
155775000,-23.2626132615135,0,0,0
157000000,-23.2463648025496,0,0,0
158225000,-23.4747015703002,0,0,0
159450000,-23.1502376515025,0,0,0
160675000,-23.214719636716,0,0,0
161900000,-23.1847893344124,0,0,0
163125000,-23.1940102739238,0,0,0
164350000,-23.2613617266465,0,0,0
165575000,-23.172725983964,0,0,0
166800000,-23.2930298716604,0,0,0
168025000,-23.221430596423,0,0,0
169250000,-23.2501871425911,0,0,0
170475000,-23.3619748142949,0,0,0
171700000,-23.2699930070583,0,0,0
172925000,-23.2456561384401,0,0,0
174150000,-23.2453292502592,0,0,0
175375000,-23.2194990804943,0,0,0
176600000,-23.3911009117493,0,0,0
177825000,-23.3099644097265,0,0,0
179050000,-23.3612835889241,0,0,0
180275000,-23.3392217444145,0,0,0
181500000,-23.3647127860315,0,0,0
182725000,-23.4077805922211,0,0,0
183950000,-23.3481099983337,0,0,0
185175000,-23.3427661968015,0,0,0
186400000,-23.3550502690216,0,0,0
187625000,-23.3323105767235,0,0,0
188850000,-23.4323999675331,0,0,0
190075000,-23.3200556056638,0,0,0
191300000,-23.369226906484,0,0,0
192525000,-23.5306282835302,0,0,0
193750000,-23.4998930260005,0,0,0
194975000,-23.4959907267782,0,0,0
196200000,-23.541169078696,0,0,0
197425000,-23.6310227572747,0,0,0
198650000,-23.4146404360022,0,0,0
199875000,-23.4259540323078,0,0,0
201100000,-23.3545548287717,0,0,0
202325000,-23.5130419386894,0,0,0
203550000,-23.5479918130544,0,0,0
204775000,-23.6661416719482,0,0,0
206000000,-23.6258352464317,0,0,0
207225000,-23.7260247584472,0,0,0
208450000,-23.7742676700027,0,0,0
209675000,-23.7060131462353,0,0,0
210900000,-23.6764196323105,0,0,0
212125000,-23.6985043280392,0,0,0
213350000,-23.7024505731929,0,0,0
214575000,-23.6228127596081,0,0,0
215800000,-23.5914725305729,0,0,0
217025000,-23.7819585983226,0,0,0
218250000,-23.8870701816852,0,0,0
219475000,-23.84649202828,0,0,0
220700000,-23.9351399295906,0,0,0
221925000,-23.929884378874,0,0,0
223150000,-23.8731863640196,0,0,0
224375000,-23.8864101047357,0,0,0
225600000,-23.7500960034971,0,0,0
226825000,-23.9159557807901,0,0,0
228050000,-23.8637731640805,0,0,0
229275000,-23.9017408663355,0,0,0
230500000,-23.9947559673852,0,0,0
231725000,-24.0207887476283,0,0,0
232950000,-24.1285956502721,0,0,0
234175000,-24.0057463440333,0,0,0
235400000,-24.0730297732294,0,0,0
236625000,-24.0614938342854,0,0,0
237850000,-24.024345973007,0,0,0
239075000,-24.0685549684053,0,0,0
240300000,-24.1261536315744,0,0,0
241525000,-24.1352743384646,0,0,0
242750000,-24.12694406466,0,0,0
243975000,-24.4607805964256,0,0,0
245200000,-24.2856519699779,0,0,0
246425000,-24.2926191542343,0,0,0
247650000,-24.3186155859933,0,0,0
248875000,-24.3244552283404,0,0,0
250100000,-24.2641988180066,0,0,0
251325000,-24.1961062836438,0,0,0
252550000,-24.3420481547165,0,0,0
253775000,-24.32827381441,0,0,0
255000000,-24.4918773783066,0,0,0
256225000,-24.5050307958801,0,0,0
257450000,-24.6218214916251,0,0,0
258675000,-24.6774872627678,0,0,0
259900000,-24.666506817111,0,0,0
261125000,-24.5707726834839,0,0,0
262350000,-24.6132026365386,0,0,0
263575000,-24.5585433898091,0,0,0
264800000,-24.5466492545813,0,0,0
266025000,-24.6091014998199,0,0,0
267250000,-24.7128749885699,0,0,0
268475000,-24.7329049571003,0,0,0
269700000,-24.7711914590157,0,0,0
270925000,-24.9617399567035,0,0,0
272150000,-24.9818603871127,0,0,0
273375000,-24.8445275234336,0,0,0
274600000,-24.9147784411352,0,0,0
275825000,-24.9011096375362,0,0,0
277050000,-24.8557542397844,0,0,0
278275000,-24.822422829593,0,0,0
279500000,-24.9409983538161,0,0,0
280725000,-25.1186530007037,0,0,0
281950000,-25.1340109147246,0,0,0
283175000,-25.1287121192223,0,0,0
284400000,-25.2358034992489,0,0,0
285625000,-25.3090234318556,0,0,0
286850000,-25.2118197486402,0,0,0
288075000,-25.1265818167899,0,0,0
289300000,-25.2419551457489,0,0,0
290525000,-25.2464926712724,0,0,0
291750000,-25.2081726267338,0,0,0
292975000,-25.3693129834067,0,0,0
294200000,-25.567175545352,0,0,0
295425000,-25.5901292919262,0,0,0
296650000,-25.5028721839771,0,0,0
297875000,-25.5902630317972,0,0,0
299100000,-25.7357384898972,0,0,0
300325000,-25.6558524123601,0,0,0
301550000,-25.5394344526228,0,0,0
302775000,-25.4330886571438,0,0,0
304000000,-25.5800438034484,0,0,0
305225000,-25.5634821883856,0,0,0
306450000,-25.7722170505105,0,0,0
307675000,-25.7645287165033,0,0,0
308900000,-25.843927205067,0,0,0
310125000,-26.0022109877249,0,0,0
311350000,-26.0404552308218,0,0,0
312575000,-25.8658298766667,0,0,0
313800000,-26.0070506969883,0,0,0
315025000,-25.7489828250029,0,0,0
316250000,-25.8334281682236,0,0,0
317475000,-25.95611432505,0,0,0
318700000,-25.9956037857868,0,0,0
319925000,-26.1256752751203,0,0,0
321150000,-26.3185452487376,0,0,0
322375000,-26.3674910056501,0,0,0
323600000,-26.441345431572,0,0,0
324825000,-26.3354095951015,0,0,0
326050000,-26.2388106076207,0,0,0
327275000,-26.3393152231689,0,0,0
328500000,-26.3185137298737,0,0,0
329725000,-26.4361285298642,0,0,0
330950000,-26.493687782642,0,0,0
332175000,-26.496235455492,0,0,0
333400000,-26.6835856343308,0,0,0
334625000,-26.7587068535651,0,0,0
335850000,-26.7851031892629,0,0,0
337075000,-26.8146387431062,0,0,0
338300000,-26.6649805269945,0,0,0
339525000,-26.6330062042417,0,0,0
340750000,-26.7646500337875,0,0,0
341975000,-26.7356329090664,0,0,0
343200000,-26.9172562832792,0,0,0
344425000,-26.8027413879408,0,0,0
345650000,-27.0587165502075,0,0,0
346875000,-27.10387707459,0,0,0
348100000,-27.29263120627,0,0,0
349325000,-27.3378769849406,0,0,0
350550000,-27.3449132123776,0,0,0
351775000,-27.2593312248163,0,0,0
353000000,-27.1939032305057,0,0,0
354225000,-27.2676136371573,0,0,0
355450000,-27.4294950532893,0,0,0
356675000,-27.4846083621143,0,0,0
357900000,-27.4449927276767,0,0,0
359125000,-27.7611187726552,0,0,0
360350000,-27.9342456303724,0,0,0
361575000,-27.9750699602341,0,0,0
362800000,-27.9475181524397,0,0,0
364025000,-28.0265421162454,0,0,0
365250000,-28.0110601636639,0,0,0
366475000,-28.0410857188085,0,0,0
367700000,-28.1345605609063,0,0,0
368925000,-28.3111553038209,0,0,0
370150000,-28.5149833418384,0,0,0
371375000,-28.688350955173,0,0,0
372600000,-28.9421579896628,0,0,0
373825000,-29.0672840134537,0,0,0
375050000,-29.2129528648704,0,0,0
376275000,-29.281411960513,0,0,0
377500000,-29.3320007792217,0,0,0
378725000,-29.4999736001265,0,0,0
379950000,-29.6490805940179,0,0,0
381175000,-29.9058154171448,0,0,0
382400000,-30.1029116873946,0,0,0
383625000,-30.7369887463566,0,0,0
384850000,-31.1179017983845,0,0,0
386075000,-31.4610181990903,0,0,0
387300000,-32.0125816459142,0,0,0
388525000,-32.5257108137394,0,0,0
389750000,-33.19217559484,0,0,0
390975000,-33.6824754863145,0,0,0
392200000,-34.5068383574742,0,0,0
393425000,-35.5506363014676,0,0,0
394650000,-36.419352340545,0,0,0
395875000,-37.5011218158099,0,0,0
397100000,-38.9038544058476,0,0,0
398325000,-39.9508495931597,0,0,0
399550000,-41.1619181396057,0,0,0
400775000,-42.4787452588515,0,0,0
402000000,-43.334347720224,0,0,0
403225000,-44.405185422356,0,0,0
404450000,-45.5264109478184,0,0,0
405675000,-46.4741181195314,0,0,0
406900000,-47.664958998997,0,0,0
408125000,-48.8354585294852,0,0,0
409350000,-49.6048225583367,0,0,0
410575000,-50.4565541602444,0,0,0
411800000,-51.3679254557425,0,0,0
413025000,-51.9281409035051,0,0,0
414250000,-52.3557654774296,0,0,0
415475000,-52.8600843106055,0,0,0
416700000,-53.1948356352183,0,0,0
417925000,-53.4241615677772,0,0,0
419150000,-53.8243443134032,0,0,0
420375000,-53.7931755605129,0,0,0
421600000,-53.9864499576034,0,0,0
422825000,-53.9112231151207,0,0,0
424050000,-54.0783871172717,0,0,0
425275000,-54.1763214605861,0,0,0
426500000,-54.032097694558,0,0,0
427725000,-54.1163225926205,0,0,0
428950000,-54.1867256099534,0,0,0
430175000,-54.1620127084642,0,0,0
431400000,-54.0518322201802,0,0,0
432625000,-53.9901264637587,0,0,0
433850000,-54.1094332145513,0,0,0
435075000,-54.1578254965005,0,0,0
436300000,-53.971433962797,0,0,0
437525000,-54.1739656008477,0,0,0
438750000,-54.1006025678855,0,0,0
439975000,-54.1385804588929,0,0,0
441200000,-54.0398475258129,0,0,0
442425000,-54.1747177044855,0,0,0
443650000,-54.2163696188264,0,0,0
444875000,-53.9779233968717,0,0,0
446100000,-54.147873134015,0,0,0
447325000,-53.9955943176422,0,0,0
448550000,-54.0846605058141,0,0,0
449775000,-53.9593178706468,0,0,0
451000000,-54.1308416466719,0,0,0
452225000,-54.0799381591822,0,0,0
453450000,-53.9637455868757,0,0,0
454675000,-53.9588147974311,0,0,0
455900000,-54.1151056187032,0,0,0
457125000,-54.0570448838583,0,0,0
458350000,-53.9372806367475,0,0,0
459575000,-53.8519736057,0,0,0
460800000,-54.0597541418352,0,0,0
462025000,-54.0408724209761,0,0,0
463250000,-53.9510077289167,0,0,0
464475000,-54.1044101597895,0,0,0
465700000,-54.1128356089453,0,0,0
466925000,-53.9849875640022,0,0,0
468150000,-53.9573257211797,0,0,0
469375000,-54.0599886519756,0,0,0
470600000,-53.9517186434509,0,0,0
471825000,-53.9185363730267,0,0,0
473050000,-53.9769913503736,0,0,0
474275000,-54.0318893536975,0,0,0
475500000,-53.9412897639997,0,0,0
476725000,-53.8757842186265,0,0,0
477950000,-53.9463507288201,0,0,0
479175000,-54.0750589556857,0,0,0
480400000,-54.0020943277061,0,0,0
481625000,-53.9409585274225,0,0,0
482850000,-54.0434322053996,0,0,0
484075000,-53.9508046122904,0,0,0
485300000,-53.9286548811925,0,0,0
486525000,-53.7970059605795,0,0,0
487750000,-54.0637705606497,0,0,0
488975000,-53.8775023045413,0,0,0
490200000,-53.9060959889611,0,0,0
491425000,-54.059672791233,0,0,0
492650000,-53.9670601410286,0,0,0
493875000,-53.9337944308372,0,0,0
495100000,-53.8731485107535,0,0,0
496325000,-53.9239364008649,0,0,0
497550000,-53.9993394939204,0,0,0
498775000,-53.9453353613611,0,0,0
500000000,-54.0869386824561,0,0,0
END
