! FILETYPE CSV
! VERSION 3.0,1
! TIMESTAMP Monday, 07 August 2023 11:10:42
! TIMEZONE (UTC+08:00) Kuala Lumpur, Singapore
! NAME Keysight Technologies
! MODEL N9913B
! SERIAL MY63185203
! FIRMWARE_VERSION A.12.45
! CORRECTION 
! Application SA
! SA Frequency Scan
!  CenterFreq 255000000
!  SpanFreq 490000000
!  Num TracePoints 401
!  ResolutionBW 1000000
!  VideoBW 10000
!  RF Attenuation 35
!  Preamp ON
!  External Gain 0
!  Detector Sample
!  TraceAvgCount 100 / 100
! Trace TIMESTAMP: 2023-08-07 11:10:42Z
! Trace GPS Info...
! GPS Latitude: 
! GPS Longitude: 
! GPS Elevation (m): 
! GPS Seconds Since Last Read: 
! CHECKSUM 1268042148
! DATA Freq,SA Average,SA Blank,SA Blank,SA Blank
! FREQ UNIT Hz
! DATA UNIT dBm
BEGIN
10000000,-62.1000762483536,0,0,0
11225000,-62.6958567723708,0,0,0
12450000,-62.8933942635984,0,0,0
13675000,-62.6882422392475,0,0,0
14900000,-61.5975468076717,0,0,0
16125000,-60.9826575479243,0,0,0
17350000,-59.536965725604,0,0,0
18575000,-58.3571039982527,0,0,0
19800000,-57.5953519847093,0,0,0
21025000,-56.8876814001451,0,0,0
22250000,-56.382502937414,0,0,0
23475000,-56.0911392822389,0,0,0
24700000,-55.8894247882278,0,0,0
25925000,-54.0556137747858,0,0,0
27150000,-47.7290428792388,0,0,0
28375000,-37.8881961205412,0,0,0
29600000,-31.7499887438611,0,0,0
30825000,-29.0751752423476,0,0,0
32050000,-26.6304703773132,0,0,0
33275000,-25.0123479050722,0,0,0
34500000,-24.1506883934715,0,0,0
35725000,-23.6541811195716,0,0,0
36950000,-23.413318151428,0,0,0
38175000,-23.2972618067647,0,0,0
39400000,-23.2289383234509,0,0,0
40625000,-23.2316239152791,0,0,0
41850000,-23.0059371816183,0,0,0
43075000,-22.8599617968022,0,0,0
44300000,-22.6309153752674,0,0,0
45525000,-22.6407324710771,0,0,0
46750000,-22.654639298771,0,0,0
47975000,-22.672056628552,0,0,0
49200000,-22.6416893190293,0,0,0
50425000,-22.6134081533868,0,0,0
51650000,-22.4622785425484,0,0,0
52875000,-22.4042770697019,0,0,0
54100000,-22.310289701057,0,0,0
55325000,-22.5547095645825,0,0,0
56550000,-22.6706066184361,0,0,0
57775000,-22.7334792308457,0,0,0
59000000,-22.6257735557186,0,0,0
60225000,-22.4935500978505,0,0,0
61450000,-22.4113414508052,0,0,0
62675000,-22.4452888406107,0,0,0
63900000,-22.5242925605758,0,0,0
65125000,-22.6945689466402,0,0,0
66350000,-22.6225714116595,0,0,0
67575000,-22.74149451481,0,0,0
68800000,-22.7729901572465,0,0,0
70025000,-22.6440350513875,0,0,0
71250000,-22.5262085048591,0,0,0
72475000,-22.5221122450876,0,0,0
73700000,-22.5506806821371,0,0,0
74925000,-22.7219640470704,0,0,0
76150000,-22.7681086158774,0,0,0
77375000,-22.7094012298489,0,0,0
78600000,-22.7647544172878,0,0,0
79825000,-22.8226332732764,0,0,0
81050000,-22.6057158795932,0,0,0
82275000,-22.5553318574619,0,0,0
83500000,-22.6883725582425,0,0,0
84725000,-22.7282982773204,0,0,0
85950000,-22.8539192285529,0,0,0
87175000,-22.9243040314427,0,0,0
88400000,-22.7938091245783,0,0,0
89625000,-22.8659040055138,0,0,0
90850000,-22.7649023112652,0,0,0
92075000,-22.8469018495805,0,0,0
93300000,-22.7647748518735,0,0,0
94525000,-22.9508817953155,0,0,0
95750000,-22.9542765394622,0,0,0
96975000,-22.935228423042,0,0,0
98200000,-23.057787067634,0,0,0
99425000,-22.9093920337705,0,0,0
100650000,-22.8355723463443,0,0,0
101875000,-22.8919543067499,0,0,0
103100000,-22.9376087137704,0,0,0
104325000,-22.8852976869385,0,0,0
105550000,-23.0136280220581,0,0,0
106775000,-23.0188526968002,0,0,0
108000000,-23.0074451509863,0,0,0
109225000,-23.1028518738523,0,0,0
110450000,-23.0023538829615,0,0,0
111675000,-23.0093957395791,0,0,0
112900000,-22.9186948095662,0,0,0
114125000,-23.0715440556574,0,0,0
115350000,-23.1207725082357,0,0,0
116575000,-23.1986787552249,0,0,0
117800000,-23.1919072692307,0,0,0
119025000,-23.1617130277355,0,0,0
120250000,-23.1581175047485,0,0,0
121475000,-23.0344181995522,0,0,0
122700000,-23.1170031057179,0,0,0
123925000,-23.1496329213426,0,0,0
125150000,-23.2226585476061,0,0,0
126375000,-23.2739868800042,0,0,0
127600000,-23.4388331678076,0,0,0
128825000,-23.2859972067714,0,0,0
130050000,-23.2736311314765,0,0,0
131275000,-23.2868077618711,0,0,0
132500000,-23.2383871253544,0,0,0
133725000,-23.1686073499334,0,0,0
134950000,-23.2629317271224,0,0,0
136175000,-23.3852275988997,0,0,0
137400000,-23.4657763026406,0,0,0
138625000,-23.5095039788802,0,0,0
139850000,-23.6048917834419,0,0,0
141075000,-23.54420544308,0,0,0
142300000,-23.3220962464871,0,0,0
143525000,-23.3619958647348,0,0,0
144750000,-23.2167315760809,0,0,0
145975000,-23.3865979221647,0,0,0
147200000,-23.4875765963611,0,0,0
148425000,-23.6577977759981,0,0,0
149650000,-23.6334233655289,0,0,0
150875000,-23.5860523530187,0,0,0
152100000,-23.4261277647369,0,0,0
153325000,-23.3914924152793,0,0,0
154550000,-23.4829206032191,0,0,0
155775000,-23.469497474563,0,0,0
157000000,-23.4756970330029,0,0,0
158225000,-23.684497185099,0,0,0
159450000,-23.6115959531182,0,0,0
160675000,-23.6183632809987,0,0,0
161900000,-23.5916181531479,0,0,0
163125000,-23.5718331615594,0,0,0
164350000,-23.421958934685,0,0,0
165575000,-23.572175580779,0,0,0
166800000,-23.6088513218222,0,0,0
168025000,-23.5599016114085,0,0,0
169250000,-23.7736175033134,0,0,0
170475000,-23.7850134946979,0,0,0
171700000,-23.7138258930973,0,0,0
172925000,-23.7532049050806,0,0,0
174150000,-23.5131867782843,0,0,0
175375000,-23.6205562970565,0,0,0
176600000,-23.647285467075,0,0,0
177825000,-23.7486508266168,0,0,0
179050000,-23.7698050672359,0,0,0
180275000,-23.8085103947126,0,0,0
181500000,-23.7147411384207,0,0,0
182725000,-23.7749993875685,0,0,0
183950000,-23.7107325552738,0,0,0
185175000,-23.7145452556972,0,0,0
186400000,-23.7364477917032,0,0,0
187625000,-23.753151453669,0,0,0
188850000,-23.8387126653642,0,0,0
190075000,-23.9270409921405,0,0,0
191300000,-24.017541147218,0,0,0
192525000,-24.0056001677495,0,0,0
193750000,-23.9155265173416,0,0,0
194975000,-23.8461146993364,0,0,0
196200000,-23.8408287908794,0,0,0
197425000,-23.7864512130518,0,0,0
198650000,-23.9063319885881,0,0,0
199875000,-23.9626229313068,0,0,0
201100000,-23.9496993022079,0,0,0
202325000,-23.9653391658645,0,0,0
203550000,-24.025056096619,0,0,0
204775000,-24.0367934131178,0,0,0
206000000,-23.9627741519794,0,0,0
207225000,-23.9967601449813,0,0,0
208450000,-23.9488100828422,0,0,0
209675000,-24.0164964837265,0,0,0
210900000,-23.9883144369548,0,0,0
212125000,-24.0605123547145,0,0,0
213350000,-24.2311379489863,0,0,0
214575000,-24.0900184849179,0,0,0
215800000,-24.0202143891116,0,0,0
217025000,-24.0584534860366,0,0,0
218250000,-24.0393108204611,0,0,0
219475000,-24.0408376101922,0,0,0
220700000,-24.0821901690471,0,0,0
221925000,-24.1633847406616,0,0,0
223150000,-24.1040324485592,0,0,0
224375000,-24.053900157334,0,0,0
225600000,-24.1483323518461,0,0,0
226825000,-24.0645524441436,0,0,0
228050000,-23.9784327721041,0,0,0
229275000,-24.0275915741389,0,0,0
230500000,-24.015274844675,0,0,0
231725000,-24.0392566330773,0,0,0
232950000,-24.131250428527,0,0,0
234175000,-24.0556801889478,0,0,0
235400000,-24.0617161719366,0,0,0
236625000,-24.0283532509435,0,0,0
237850000,-23.8923410575103,0,0,0
239075000,-24.0255982893229,0,0,0
240300000,-24.0551449186833,0,0,0
241525000,-23.9811489986322,0,0,0
242750000,-24.117897860873,0,0,0
243975000,-24.1348142199079,0,0,0
245200000,-24.0634457078726,0,0,0
246425000,-24.0636509292631,0,0,0
247650000,-24.0884527762794,0,0,0
248875000,-24.0211621556097,0,0,0
250100000,-24.0376502489042,0,0,0
251325000,-24.0628435204314,0,0,0
252550000,-24.043341552824,0,0,0
253775000,-24.1460018652778,0,0,0
255000000,-24.2082660773628,0,0,0
256225000,-24.0858325257204,0,0,0
257450000,-24.1359721569886,0,0,0
258675000,-24.0332802391197,0,0,0
259900000,-23.9181706377498,0,0,0
261125000,-24.0617845043364,0,0,0
262350000,-24.1488887369295,0,0,0
263575000,-24.1960346385774,0,0,0
264800000,-24.2946405800621,0,0,0
266025000,-24.3626076285903,0,0,0
267250000,-24.34485068827,0,0,0
268475000,-24.1641399519482,0,0,0
269700000,-24.1117876543196,0,0,0
270925000,-24.015623910272,0,0,0
272150000,-24.1243485956998,0,0,0
273375000,-24.1859892124218,0,0,0
274600000,-24.2356524388615,0,0,0
275825000,-24.3087977966548,0,0,0
277050000,-24.3226928858093,0,0,0
278275000,-24.3128142168658,0,0,0
279500000,-24.2246609185584,0,0,0
280725000,-24.1956524791553,0,0,0
281950000,-24.1578554972981,0,0,0
283175000,-24.1102859252071,0,0,0
284400000,-24.2999083826497,0,0,0
285625000,-24.3584838064952,0,0,0
286850000,-24.530242216547,0,0,0
288075000,-24.4754406228596,0,0,0
289300000,-24.4670246398836,0,0,0
290525000,-24.3471913556812,0,0,0
291750000,-24.3205384017619,0,0,0
292975000,-24.3484915841822,0,0,0
294200000,-24.4355642085708,0,0,0
295425000,-24.5467132274071,0,0,0
296650000,-24.5529369571944,0,0,0
297875000,-24.791887501598,0,0,0
299100000,-24.7132766074533,0,0,0
300325000,-24.5999444253953,0,0,0
301550000,-24.4503129891987,0,0,0
302775000,-24.5155046943227,0,0,0
304000000,-24.5674969676318,0,0,0
305225000,-24.6649388009454,0,0,0
306450000,-24.7680287474835,0,0,0
307675000,-24.952298569922,0,0,0
308900000,-24.989295023966,0,0,0
310125000,-24.960783359986,0,0,0
311350000,-25.0374168729656,0,0,0
312575000,-24.8234818832388,0,0,0
313800000,-24.8493951285199,0,0,0
315025000,-24.8015192937629,0,0,0
316250000,-24.9000143464218,0,0,0
317475000,-25.0311156414469,0,0,0
318700000,-25.1712768470581,0,0,0
319925000,-25.1704281924054,0,0,0
321150000,-25.3118878724948,0,0,0
322375000,-25.1614065616224,0,0,0
323600000,-25.0572275804261,0,0,0
324825000,-25.128594288251,0,0,0
326050000,-25.0948594946698,0,0,0
327275000,-25.120173737655,0,0,0
328500000,-25.3610785162128,0,0,0
329725000,-25.5430921660853,0,0,0
330950000,-25.5230643538902,0,0,0
332175000,-25.5123607793514,0,0,0
333400000,-25.4079884750341,0,0,0
334625000,-25.3499822681589,0,0,0
335850000,-25.3983853499205,0,0,0
337075000,-25.31220999877,0,0,0
338300000,-25.5781064955299,0,0,0
339525000,-25.6096764201061,0,0,0
340750000,-25.6744707443377,0,0,0
341975000,-25.8870962758094,0,0,0
343200000,-25.744045192493,0,0,0
344425000,-25.7652054972769,0,0,0
345650000,-25.7469205642031,0,0,0
346875000,-25.7292036028429,0,0,0
348100000,-25.7203886578469,0,0,0
349325000,-25.7582241720214,0,0,0
350550000,-25.9424514504154,0,0,0
351775000,-26.0801995141689,0,0,0
353000000,-26.1243703394296,0,0,0
354225000,-26.0999445320888,0,0,0
355450000,-26.2203983762085,0,0,0
356675000,-26.220135989695,0,0,0
357900000,-26.096055985384,0,0,0
359125000,-26.236110557519,0,0,0
360350000,-26.2949443714219,0,0,0
361575000,-26.4701327023919,0,0,0
362800000,-26.5243782130443,0,0,0
364025000,-26.524576441593,0,0,0
365250000,-26.7219575665722,0,0,0
366475000,-26.7359945548896,0,0,0
367700000,-26.8762509807241,0,0,0
368925000,-26.8430546171284,0,0,0
370150000,-27.0615130032117,0,0,0
371375000,-27.128921894293,0,0,0
372600000,-27.2821744248253,0,0,0
373825000,-27.3399019307148,0,0,0
375050000,-27.3570220121012,0,0,0
376275000,-27.586012445172,0,0,0
377500000,-27.6281733128784,0,0,0
378725000,-27.7444116669417,0,0,0
379950000,-27.917587537284,0,0,0
381175000,-28.2298390700002,0,0,0
382400000,-28.4450717943882,0,0,0
383625000,-28.8335974283941,0,0,0
384850000,-29.1536908544024,0,0,0
386075000,-29.5179352355342,0,0,0
387300000,-29.9754546144359,0,0,0
388525000,-30.5539977137977,0,0,0
389750000,-31.3108251258784,0,0,0
390975000,-31.8727090788811,0,0,0
392200000,-32.9058876999778,0,0,0
393425000,-33.9870288756042,0,0,0
394650000,-34.7515893628183,0,0,0
395875000,-35.8783818453454,0,0,0
397100000,-37.0438319521717,0,0,0
398325000,-37.8942058778695,0,0,0
399550000,-39.1703974651023,0,0,0
400775000,-40.4570048088539,0,0,0
402000000,-41.442194042298,0,0,0
403225000,-42.7901745819965,0,0,0
404450000,-44.1974130087507,0,0,0
405675000,-45.203610803821,0,0,0
406900000,-46.5913109813791,0,0,0
408125000,-47.7614206918911,0,0,0
409350000,-48.8089743628073,0,0,0
410575000,-50.2212152639663,0,0,0
411800000,-51.4870986208774,0,0,0
413025000,-52.495346550579,0,0,0
414250000,-53.9705117687841,0,0,0
415475000,-55.4270901139211,0,0,0
416700000,-56.3284456460087,0,0,0
417925000,-57.5407242307032,0,0,0
419150000,-58.9447137234076,0,0,0
420375000,-59.6244673058589,0,0,0
421600000,-60.8355386196786,0,0,0
422825000,-61.9158792428243,0,0,0
424050000,-62.617708400542,0,0,0
425275000,-63.5166970935365,0,0,0
426500000,-64.1930229200249,0,0,0
427725000,-64.4487030027555,0,0,0
428950000,-64.9728401722786,0,0,0
430175000,-65.3002651099024,0,0,0
431400000,-65.5629224470885,0,0,0
432625000,-65.5641364942056,0,0,0
433850000,-65.7855999344124,0,0,0
435075000,-65.9245188905312,0,0,0
436300000,-65.893901920167,0,0,0
437525000,-66.0280347322039,0,0,0
438750000,-65.9606968993604,0,0,0
439975000,-66.0202828350874,0,0,0
441200000,-66.0339707675726,0,0,0
442425000,-65.9940006793748,0,0,0
443650000,-66.0556964825229,0,0,0
444875000,-66.007359452987,0,0,0
446100000,-66.1077354024426,0,0,0
447325000,-66.1230403387289,0,0,0
448550000,-66.0650009083549,0,0,0
449775000,-65.9691798856856,0,0,0
451000000,-66.1197175322327,0,0,0
452225000,-66.0836558473898,0,0,0
453450000,-66.1137070613522,0,0,0
454675000,-66.1018607607106,0,0,0
455900000,-66.1471902473879,0,0,0
457125000,-66.1419376263151,0,0,0
458350000,-66.0304405302965,0,0,0
459575000,-66.1331279421924,0,0,0
460800000,-66.1334485228827,0,0,0
462025000,-66.2275053905942,0,0,0
463250000,-66.151553643708,0,0,0
464475000,-66.1916340349434,0,0,0
465700000,-66.1212306660454,0,0,0
466925000,-66.231710867862,0,0,0
468150000,-66.105683424783,0,0,0
469375000,-66.212189085711,0,0,0
470600000,-66.1436688191512,0,0,0
471825000,-66.2433648312716,0,0,0
473050000,-66.2824086334048,0,0,0
474275000,-66.1844788026679,0,0,0
475500000,-66.1942289831354,0,0,0
476725000,-66.2127907370321,0,0,0
477950000,-66.2261447740305,0,0,0
479175000,-66.2316538722623,0,0,0
480400000,-66.2782625532376,0,0,0
481625000,-66.1694551089403,0,0,0
482850000,-66.3235676270862,0,0,0
484075000,-66.2683653119331,0,0,0
485300000,-66.2143754318612,0,0,0
486525000,-66.2872195467425,0,0,0
487750000,-66.2447308307198,0,0,0
488975000,-66.3508667437902,0,0,0
490200000,-66.2901039238373,0,0,0
491425000,-66.3944082580789,0,0,0
492650000,-66.2662752725728,0,0,0
493875000,-66.2813673124467,0,0,0
495100000,-66.2867146137426,0,0,0
496325000,-66.3572719386228,0,0,0
497550000,-66.4126811845779,0,0,0
498775000,-66.3234262604806,0,0,0
500000000,-66.4397737726734,0,0,0
END
