! FILETYPE CSV
! VERSION 3.0,1
! TIMESTAMP Monday, 07 August 2023 12:08:05
! TIMEZONE (UTC+10:00) Canberra, Melbourne, Sydney
! NAME Keysight Technologies
! MODEL N9914A
! SERIAL MY61272638
! FIRMWARE_VERSION A.12.45
! CORRECTION 
! Application SA
! SA Frequency Scan
!  CenterFreq 255000000
!  SpanFreq 490000000
!  Num TracePoints 601
!  ResolutionBW 1000000
!  VideoBW 10000
!  RF Attenuation 0
!  Preamp ON
!  External Gain 0
!  Detector Average
!  TraceAvgCount 100 / 100
! Trace TIMESTAMP: 2023-08-07 12:08:05Z
! Trace GPS Info...
! GPS Latitude: 
! GPS Longitude: 
! GPS Elevation (m): 
! GPS Seconds Since Last Read: 
! CHECKSUM 1909548977
! DATA Freq,SA Average,SA Blank,SA Blank,SA Blank
! FREQ UNIT Hz
! DATA UNIT dBm
BEGIN
10000000,-68.0392638574,0,0,0
10816666.6666667,-67.8943065757791,0,0,0
11633333.3333333,-67.8766298653421,0,0,0
12450000,-67.9605449597709,0,0,0
13266666.6666667,-68.2197133032016,0,0,0
14083333.3333333,-68.2733160622449,0,0,0
14900000,-68.4461490325515,0,0,0
15716666.6666667,-68.4087284579755,0,0,0
16533333.3333333,-68.4008844274278,0,0,0
17350000,-68.3420922125607,0,0,0
18166666.6666667,-68.1609544620457,0,0,0
18983333.3333333,-68.0245965749637,0,0,0
19800000,-67.9119026384509,0,0,0
20616666.6666667,-67.8600229508332,0,0,0
21433333.3333333,-67.846721902566,0,0,0
22250000,-67.8379850951188,0,0,0
23066666.6666667,-67.9039027393192,0,0,0
23883333.3333333,-67.985876659113,0,0,0
24700000,-68.1470373643268,0,0,0
25516666.6666667,-68.2259194069107,0,0,0
26333333.3333333,-68.2448816888992,0,0,0
27150000,-68.2860584631679,0,0,0
27966666.6666667,-68.2707567999063,0,0,0
28783333.3333333,-68.0343995188692,0,0,0
29600000,-67.9401300510872,0,0,0
30416666.6666667,-67.8917666406718,0,0,0
31233333.3333334,-67.671366180116,0,0,0
32050000,-67.8039630456821,0,0,0
32866666.6666667,-67.7916876047338,0,0,0
33683333.3333334,-67.8243460425578,0,0,0
34500000,-68.0767347692757,0,0,0
35316666.6666667,-68.2255574668819,0,0,0
36133333.3333333,-68.3049343941909,0,0,0
36950000,-68.3000545755059,0,0,0
37766666.6666667,-68.3231417428817,0,0,0
38583333.3333333,-68.2140632629587,0,0,0
39400000,-67.9188171133388,0,0,0
40216666.6666667,-67.8878982031979,0,0,0
41033333.3333333,-67.7418388197852,0,0,0
41850000,-67.7232083579257,0,0,0
42666666.6666667,-67.7518888731908,0,0,0
43483333.3333333,-67.8047172613534,0,0,0
44300000,-67.9504335704212,0,0,0
45116666.6666666,-68.1153941260806,0,0,0
45933333.3333333,-68.3164563140751,0,0,0
46750000,-68.3955294735029,0,0,0
47566666.6666666,-68.3803177635493,0,0,0
48383333.3333333,-68.2952331252415,0,0,0
49200000,-68.2874771581453,0,0,0
50016666.6666666,-68.076003509908,0,0,0
50833333.3333333,-67.9013457285942,0,0,0
51650000,-67.6992572852462,0,0,0
52466666.6666666,-67.6749824804436,0,0,0
53283333.3333333,-67.6215044833977,0,0,0
54100000,-67.7569927342986,0,0,0
54916666.6666666,-67.8432233544159,0,0,0
55733333.3333333,-68.025278457555,0,0,0
56549999.9999999,-68.2225863339282,0,0,0
57366666.6666666,-68.3774177732126,0,0,0
58183333.3333333,-68.3828199201945,0,0,0
58999999.9999999,-68.2970799376689,0,0,0
59816666.6666666,-68.2003518028874,0,0,0
60633333.3333333,-68.0920273557453,0,0,0
61449999.9999999,-67.8980708784502,0,0,0
62266666.6666666,-67.7161674146987,0,0,0
63083333.3333333,-67.6008066204524,0,0,0
63899999.9999999,-67.4164012754464,0,0,0
64716666.6666666,-67.5611094484354,0,0,0
65533333.3333333,-67.7553545684377,0,0,0
66349999.9999999,-67.8882045220534,0,0,0
67166666.6666666,-68.1275231013718,0,0,0
67983333.3333333,-68.2002308669562,0,0,0
68799999.9999999,-68.3415697520697,0,0,0
69616666.6666666,-68.3435111204969,0,0,0
70433333.3333333,-68.2964954797361,0,0,0
71249999.9999999,-68.1306022986786,0,0,0
72066666.6666666,-67.9174069440406,0,0,0
72883333.3333333,-67.7661537255668,0,0,0
73700000,-67.5227844642553,0,0,0
74516666.6666666,-67.5333435816023,0,0,0
75333333.3333333,-67.5214155943323,0,0,0
76150000,-67.5924991636995,0,0,0
76966666.6666666,-67.7683295788139,0,0,0
77783333.3333333,-68.1239547993883,0,0,0
78600000,-68.1351642596278,0,0,0
79416666.6666667,-68.325899940319,0,0,0
80233333.3333333,-68.35254978678,0,0,0
81050000,-68.2796764660402,0,0,0
81866666.6666667,-68.20911312492,0,0,0
82683333.3333333,-68.1447795446752,0,0,0
83500000,-67.8722026979271,0,0,0
84316666.6666667,-67.6275225677422,0,0,0
85133333.3333334,-67.5239914366386,0,0,0
85950000,-67.5200010945011,0,0,0
86766666.6666667,-67.6263121792719,0,0,0
87583333.3333334,-67.757491555838,0,0,0
88400000,-68.0402106032485,0,0,0
89216666.6666667,-68.2378254342006,0,0,0
90033333.3333334,-68.3647678208316,0,0,0
90850000.0000001,-68.3594564009217,0,0,0
91666666.6666667,-68.5276857348937,0,0,0
92483333.3333334,-68.3283971720692,0,0,0
93300000.0000001,-68.2342193252849,0,0,0
94116666.6666667,-67.9301122246435,0,0,0
94933333.3333334,-67.8351418261875,0,0,0
95750000.0000001,-67.6923409339376,0,0,0
96566666.6666668,-67.6816465523078,0,0,0
97383333.3333334,-67.798256681109,0,0,0
98200000.0000001,-67.9330597230513,0,0,0
99016666.6666668,-68.0179919247969,0,0,0
99833333.3333334,-68.2445882212121,0,0,0
100650000,-68.4002536116087,0,0,0
101466666.666667,-68.4677870956779,0,0,0
102283333.333333,-68.5281553170022,0,0,0
103100000,-68.2690487739776,0,0,0
103916666.666667,-68.2619828804919,0,0,0
104733333.333333,-68.1206498219469,0,0,0
105550000,-67.8085711920593,0,0,0
106366666.666667,-67.7742198227992,0,0,0
107183333.333333,-67.7467923408455,0,0,0
108000000,-67.7892436075347,0,0,0
108816666.666667,-67.9430055945712,0,0,0
109633333.333334,-68.0799726742343,0,0,0
110450000,-68.1511536296728,0,0,0
111266666.666667,-68.4694146406122,0,0,0
112083333.333334,-68.5285929746163,0,0,0
112900000,-68.5082563496765,0,0,0
113716666.666667,-68.3912858544464,0,0,0
114533333.333334,-68.2313709930248,0,0,0
115350000,-68.1766305193046,0,0,0
116166666.666667,-68.0031083291637,0,0,0
116983333.333334,-67.7999924642625,0,0,0
117800000,-67.8395457444398,0,0,0
118616666.666667,-67.9182288832619,0,0,0
119433333.333334,-67.936810439408,0,0,0
120250000,-68.1140238780249,0,0,0
121066666.666667,-68.4343465242255,0,0,0
121883333.333334,-68.6567528487073,0,0,0
122700000,-68.6585521978676,0,0,0
123516666.666667,-68.7906668197991,0,0,0
124333333.333334,-68.6611530421791,0,0,0
125150000,-68.6376168793459,0,0,0
125966666.666667,-68.3623644526355,0,0,0
126783333.333334,-68.2625801711071,0,0,0
127600000,-68.002090315014,0,0,0
128416666.666667,-67.9402271444034,0,0,0
129233333.333334,-67.9168014823309,0,0,0
130050000,-68.0593162456198,0,0,0
130866666.666667,-68.15827346287,0,0,0
131683333.333334,-68.3630342055151,0,0,0
132500000,-68.5797137660812,0,0,0
133316666.666667,-68.8070052367833,0,0,0
134133333.333334,-68.7853642748551,0,0,0
134950000,-68.8344052150044,0,0,0
135766666.666667,-68.7932741016255,0,0,0
136583333.333334,-68.6334795066278,0,0,0
137400000,-68.378372230187,0,0,0
138216666.666667,-68.1581835893696,0,0,0
139033333.333334,-68.051937550976,0,0,0
139850000,-68.0606388066083,0,0,0
140666666.666667,-67.9137043778632,0,0,0
141483333.333334,-68.103102329526,0,0,0
142300000,-68.2260379112056,0,0,0
143116666.666667,-68.5010990926621,0,0,0
143933333.333334,-68.6488951254828,0,0,0
144750000,-68.7253408968342,0,0,0
145566666.666667,-68.8314917723103,0,0,0
146383333.333334,-68.7161524622963,0,0,0
147200000,-68.6550923680712,0,0,0
148016666.666667,-68.5069176977877,0,0,0
148833333.333333,-68.2605522603371,0,0,0
149650000,-68.213607942672,0,0,0
150466666.666667,-68.1306355614656,0,0,0
151283333.333333,-68.1634744672423,0,0,0
152100000,-68.1209668978256,0,0,0
152916666.666667,-68.3069027090309,0,0,0
153733333.333333,-68.4740917293774,0,0,0
154550000,-68.5937757156037,0,0,0
155366666.666667,-68.7157449513278,0,0,0
156183333.333333,-68.7644450810035,0,0,0
157000000,-68.6536965411378,0,0,0
157816666.666667,-68.6454408555907,0,0,0
158633333.333333,-68.5354172723618,0,0,0
159450000,-68.4505968899361,0,0,0
160266666.666667,-68.3224043330607,0,0,0
161083333.333333,-68.3066736300605,0,0,0
161900000,-68.2143557145484,0,0,0
162716666.666667,-68.2872792410007,0,0,0
163533333.333333,-68.4582893078109,0,0,0
164350000,-68.5064789912527,0,0,0
165166666.666667,-68.5986130362761,0,0,0
165983333.333333,-68.5917306419056,0,0,0
166800000,-68.691248252661,0,0,0
167616666.666667,-68.7255393847134,0,0,0
168433333.333333,-68.7023266958669,0,0,0
169250000,-68.6129981701449,0,0,0
170066666.666667,-68.4322984440656,0,0,0
170883333.333333,-68.4748560333412,0,0,0
171700000,-68.3770881648559,0,0,0
172516666.666667,-68.4032057851545,0,0,0
173333333.333333,-68.3831618477568,0,0,0
174150000,-68.6178055993402,0,0,0
174966666.666667,-68.6440904569604,0,0,0
175783333.333333,-68.6841770845731,0,0,0
176600000,-68.7732087158615,0,0,0
177416666.666666,-68.7698211248173,0,0,0
178233333.333333,-68.7553528540873,0,0,0
179050000,-68.7585752380932,0,0,0
179866666.666666,-68.6206255542413,0,0,0
180683333.333333,-68.5499146693747,0,0,0
181500000,-68.4699237893352,0,0,0
182316666.666666,-68.5474835075554,0,0,0
183133333.333333,-68.5754641182329,0,0,0
183950000,-68.5410084639428,0,0,0
184766666.666666,-68.7189982548489,0,0,0
185583333.333333,-68.845374782976,0,0,0
186400000,-68.8995540938682,0,0,0
187216666.666666,-68.8926521913433,0,0,0
188033333.333333,-68.8876673967929,0,0,0
188850000,-68.8714750149667,0,0,0
189666666.666666,-68.8372433978166,0,0,0
190483333.333333,-68.8495933252831,0,0,0
191300000,-68.6385118351366,0,0,0
192116666.666666,-68.6121996155439,0,0,0
192933333.333333,-68.6167801393327,0,0,0
193750000,-68.5306159005175,0,0,0
194566666.666666,-68.6218539889271,0,0,0
195383333.333333,-68.7872096951421,0,0,0
196200000,-68.7470255527328,0,0,0
197016666.666666,-68.8651363053984,0,0,0
197833333.333333,-68.9288947210187,0,0,0
198650000,-68.9429062911027,0,0,0
199466666.666666,-68.937361593102,0,0,0
200283333.333333,-68.9058260804533,0,0,0
201100000,-68.8241568423408,0,0,0
201916666.666666,-68.8289903496737,0,0,0
202733333.333333,-68.8296236961409,0,0,0
203549999.999999,-68.7105905925524,0,0,0
204366666.666666,-68.714165980949,0,0,0
205183333.333333,-68.7122945012516,0,0,0
205999999.999999,-68.8366239690936,0,0,0
206816666.666666,-68.9217174736131,0,0,0
207633333.333333,-68.9388859306226,0,0,0
208449999.999999,-68.9266778910983,0,0,0
209266666.666666,-68.9776492966859,0,0,0
210083333.333333,-68.9725219683676,0,0,0
210899999.999999,-68.9224340771433,0,0,0
211716666.666666,-68.7972965854532,0,0,0
212533333.333333,-68.8893931069856,0,0,0
213349999.999999,-68.8358896565036,0,0,0
214166666.666666,-68.7388421224506,0,0,0
214983333.333333,-68.6570927335176,0,0,0
215799999.999999,-68.7115656237978,0,0,0
216616666.666666,-68.8295584936141,0,0,0
217433333.333333,-68.8898036390323,0,0,0
218249999.999999,-68.8710149858,0,0,0
219066666.666666,-69.0274160230475,0,0,0
219883333.333333,-68.9446706420139,0,0,0
220699999.999999,-68.9793250659789,0,0,0
221516666.666666,-68.8136035096265,0,0,0
222333333.333333,-68.7912394933962,0,0,0
223149999.999999,-68.802107619882,0,0,0
223966666.666666,-68.7047260281219,0,0,0
224783333.333333,-68.7961943692672,0,0,0
225599999.999999,-68.7049259682484,0,0,0
226416666.666666,-68.7752440267603,0,0,0
227233333.333333,-68.81946940984,0,0,0
228049999.999999,-68.7828796778448,0,0,0
228866666.666666,-68.9000530435128,0,0,0
229683333.333333,-68.8449463520243,0,0,0
230499999.999999,-68.9864600407002,0,0,0
231316666.666666,-68.8316221372858,0,0,0
232133333.333332,-68.863865611391,0,0,0
232949999.999999,-68.7450113840743,0,0,0
233766666.666666,-68.6622466365562,0,0,0
234583333.333332,-68.6597782337957,0,0,0
235399999.999999,-68.6871422282791,0,0,0
236216666.666666,-68.7346619280961,0,0,0
237033333.333332,-68.6428142396307,0,0,0
237849999.999999,-68.8323720746278,0,0,0
238666666.666666,-68.8844009876125,0,0,0
239483333.333332,-68.9383871995026,0,0,0
240299999.999999,-68.9051572231533,0,0,0
241116666.666666,-68.9280379671017,0,0,0
241933333.333332,-68.8931125526744,0,0,0
242749999.999999,-68.7177688631916,0,0,0
243566666.666666,-68.7128822916816,0,0,0
244383333.333332,-68.6797449736352,0,0,0
245199999.999999,-68.6031486236477,0,0,0
246016666.666666,-68.5319198024749,0,0,0
246833333.333332,-68.5679684513549,0,0,0
247649999.999999,-68.702799581107,0,0,0
248466666.666666,-68.6784677977373,0,0,0
249283333.333332,-68.7943345961114,0,0,0
250099999.999999,-68.8263303433119,0,0,0
250916666.666666,-68.9776147824383,0,0,0
251733333.333332,-68.9272779690728,0,0,0
252549999.999999,-68.9144610177838,0,0,0
253366666.666666,-68.8556234095821,0,0,0
254183333.333332,-68.7459821497409,0,0,0
254999999.999999,-68.6799634036736,0,0,0
255816666.666666,-68.4744197320365,0,0,0
256633333.333332,-68.4145181955894,0,0,0
257449999.999999,-68.5382420027978,0,0,0
258266666.666665,-68.5321695068124,0,0,0
259083333.333332,-68.6048258916773,0,0,0
259899999.999999,-68.8133191974139,0,0,0
260716666.666665,-68.8995413263839,0,0,0
261533333.333332,-68.9750510359795,0,0,0
262349999.999999,-69.0670295775828,0,0,0
263166666.666665,-69.0109639291882,0,0,0
263983333.333332,-69.0328657395917,0,0,0
264799999.999999,-68.8743750389954,0,0,0
265616666.666665,-68.7862677482104,0,0,0
266433333.333332,-68.6837391365104,0,0,0
267249999.999999,-68.446194296053,0,0,0
268066666.666665,-68.4394180552518,0,0,0
268883333.333332,-68.4441463848532,0,0,0
269699999.999999,-68.417817453615,0,0,0
270516666.666665,-68.6412397246663,0,0,0
271333333.333332,-68.7829687588531,0,0,0
272149999.999999,-68.8841328628522,0,0,0
272966666.666665,-68.9546719154175,0,0,0
273783333.333332,-68.9259927161726,0,0,0
274599999.999999,-68.9642632220429,0,0,0
275416666.666666,-68.7787113416969,0,0,0
276233333.333332,-68.6525915960006,0,0,0
277049999.999999,-68.6910811459546,0,0,0
277866666.666666,-68.6013972198944,0,0,0
278683333.333332,-68.4095756792092,0,0,0
279499999.999999,-68.5457783793473,0,0,0
280316666.666666,-68.5529996011724,0,0,0
281133333.333332,-68.6794838469147,0,0,0
281949999.999999,-68.824482936273,0,0,0
282766666.666666,-68.8945178258148,0,0,0
283583333.333332,-69.0506541053493,0,0,0
284399999.999999,-69.0874490645173,0,0,0
285216666.666666,-68.9863623865203,0,0,0
286033333.333332,-68.9123222381938,0,0,0
286849999.999999,-68.7429206039298,0,0,0
287666666.666666,-68.720984205268,0,0,0
288483333.333333,-68.6026836624775,0,0,0
289299999.999999,-68.6235007314008,0,0,0
290116666.666666,-68.5237101647351,0,0,0
290933333.333333,-68.6943180797042,0,0,0
291749999.999999,-68.8240183801373,0,0,0
292566666.666666,-68.8167740779583,0,0,0
293383333.333333,-69.0195758583962,0,0,0
294199999.999999,-68.9409976978099,0,0,0
295016666.666666,-69.0250859056149,0,0,0
295833333.333333,-69.0087978315483,0,0,0
296649999.999999,-69.0282829057275,0,0,0
297466666.666666,-68.9940666867268,0,0,0
298283333.333333,-68.7741273189539,0,0,0
299099999.999999,-68.7416518584611,0,0,0
299916666.666666,-68.6949437396677,0,0,0
300733333.333333,-68.7394537031959,0,0,0
301550000,-68.7802821330751,0,0,0
302366666.666666,-68.8821758170093,0,0,0
303183333.333333,-68.9998335167795,0,0,0
304000000,-69.1310456927863,0,0,0
304816666.666666,-69.1520478491104,0,0,0
305633333.333333,-69.2628563996816,0,0,0
306450000,-69.3143680296306,0,0,0
307266666.666666,-69.1897910200313,0,0,0
308083333.333333,-69.1445699996333,0,0,0
308900000,-69.0071541656493,0,0,0
309716666.666666,-68.9589993526103,0,0,0
310533333.333333,-68.901197465708,0,0,0
311350000,-68.8256775485946,0,0,0
312166666.666666,-68.8583927022258,0,0,0
312983333.333333,-69.0798393618141,0,0,0
313800000,-69.1352298408459,0,0,0
314616666.666667,-69.318937526194,0,0,0
315433333.333333,-69.4171289935548,0,0,0
316250000,-69.411425543385,0,0,0
317066666.666667,-69.3632668442057,0,0,0
317883333.333333,-69.458991939747,0,0,0
318700000,-69.4217906317355,0,0,0
319516666.666667,-69.2919291840751,0,0,0
320333333.333333,-69.2211812091645,0,0,0
321150000,-69.0811108487209,0,0,0
321966666.666667,-69.1192171561432,0,0,0
322783333.333333,-69.214664566489,0,0,0
323600000,-69.1929368907993,0,0,0
324416666.666667,-69.2394311517037,0,0,0
325233333.333333,-69.4244513489693,0,0,0
326050000,-69.4633308043377,0,0,0
326866666.666667,-69.5440951015388,0,0,0
327683333.333333,-69.6391882152086,0,0,0
328500000,-69.6319987329961,0,0,0
329316666.666667,-69.6272754039201,0,0,0
330133333.333334,-69.5611342163609,0,0,0
330950000,-69.4947263289245,0,0,0
331766666.666667,-69.3730190305601,0,0,0
332583333.333334,-69.3216859885987,0,0,0
333400000,-69.348203863246,0,0,0
334216666.666667,-69.2656817236604,0,0,0
335033333.333334,-69.4368548468218,0,0,0
335850000,-69.5721128127487,0,0,0
336666666.666667,-69.6223634970441,0,0,0
337483333.333334,-69.6437802697125,0,0,0
338300000,-69.789851525205,0,0,0
339116666.666667,-69.767235070716,0,0,0
339933333.333334,-69.7181000643812,0,0,0
340750000,-69.7994377971345,0,0,0
341566666.666667,-69.653903203119,0,0,0
342383333.333334,-69.6579600210263,0,0,0
343200000.000001,-69.5414985456278,0,0,0
344016666.666667,-69.5489686397371,0,0,0
344833333.333334,-69.4746804473878,0,0,0
345650000.000001,-69.5437991208795,0,0,0
346466666.666667,-69.5335455728758,0,0,0
347283333.333334,-69.5816829281735,0,0,0
348100000.000001,-69.7593592282027,0,0,0
348916666.666667,-69.7808357272787,0,0,0
349733333.333334,-69.7787063193923,0,0,0
350550000.000001,-69.8169863779788,0,0,0
351366666.666667,-69.8726439423902,0,0,0
352183333.333334,-69.7940454175725,0,0,0
353000000.000001,-69.7377637135589,0,0,0
353816666.666667,-69.7386892036134,0,0,0
354633333.333334,-69.7201114317865,0,0,0
355450000.000001,-69.5740749479688,0,0,0
356266666.666668,-69.6853160680189,0,0,0
357083333.333334,-69.6949202534172,0,0,0
357900000.000001,-69.6693579686364,0,0,0
358716666.666668,-69.7678078448706,0,0,0
359533333.333334,-69.8145231908458,0,0,0
360350000.000001,-69.9380931796259,0,0,0
361166666.666668,-69.8773960248409,0,0,0
361983333.333334,-69.860810481946,0,0,0
362800000.000001,-69.9234411209097,0,0,0
363616666.666668,-69.8809247133256,0,0,0
364433333.333334,-69.8613213662828,0,0,0
365250000.000001,-69.7306132685452,0,0,0
366066666.666668,-69.7509509430879,0,0,0
366883333.333334,-69.710195533132,0,0,0
367700000.000001,-69.658822121444,0,0,0
368516666.666668,-69.7619224824582,0,0,0
369333333.333335,-69.8718235620443,0,0,0
370150000.000001,-69.8088726857166,0,0,0
370966666.666668,-69.874944475518,0,0,0
371783333.333335,-69.9067305154849,0,0,0
372600000.000001,-69.8408574884996,0,0,0
373416666.666668,-69.9241061963357,0,0,0
374233333.333335,-69.822689459972,0,0,0
375050000.000001,-69.9105186976676,0,0,0
375866666.666668,-69.8437254416681,0,0,0
376683333.333335,-69.8022265023109,0,0,0
377500000.000001,-69.8250427088096,0,0,0
378316666.666668,-69.8186994610518,0,0,0
379133333.333335,-69.8908730242878,0,0,0
379950000.000001,-69.8080718385049,0,0,0
380766666.666668,-69.9108325298802,0,0,0
381583333.333335,-69.9138423643923,0,0,0
382400000.000001,-69.8977693168536,0,0,0
383216666.666668,-69.9845329771392,0,0,0
384033333.333335,-69.891622397284,0,0,0
384850000.000002,-69.7559208181848,0,0,0
385666666.666668,-69.7694430249005,0,0,0
386483333.333335,-69.7422434595438,0,0,0
387300000.000002,-69.8344556502115,0,0,0
388116666.666668,-69.839077828477,0,0,0
388933333.333335,-69.8665222574992,0,0,0
389750000.000002,-69.985849050423,0,0,0
390566666.666668,-69.9468426961389,0,0,0
391383333.333335,-69.951347568806,0,0,0
392200000.000002,-70.0104648042657,0,0,0
393016666.666668,-69.9949697240539,0,0,0
393833333.333335,-69.9344699829238,0,0,0
394650000.000002,-69.9288523393427,0,0,0
395466666.666668,-69.8832970680467,0,0,0
396283333.333335,-69.9077926953641,0,0,0
397100000.000002,-69.9178993845618,0,0,0
397916666.666669,-69.8622390728995,0,0,0
398733333.333335,-69.9145809532183,0,0,0
399550000.000002,-69.8905791989177,0,0,0
400366666.666669,-69.8861625938359,0,0,0
401183333.333335,-69.9614163218895,0,0,0
402000000.000002,-69.938818551311,0,0,0
402816666.666669,-70.0025208158832,0,0,0
403633333.333335,-69.9341296463199,0,0,0
404450000.000002,-69.9434592904623,0,0,0
405266666.666669,-69.9606667936425,0,0,0
406083333.333335,-69.98327031793,0,0,0
406900000.000002,-69.8105065823073,0,0,0
407716666.666669,-69.8475342897432,0,0,0
408533333.333335,-69.8351098413695,0,0,0
409350000.000002,-69.8272303866022,0,0,0
410166666.666669,-69.9212555053682,0,0,0
410983333.333336,-69.9081804246813,0,0,0
411800000.000002,-69.9580533392082,0,0,0
412616666.666669,-70.0211157435862,0,0,0
413433333.333336,-70.0382324482228,0,0,0
414250000.000002,-69.9266351158058,0,0,0
415066666.666669,-69.9064745410232,0,0,0
415883333.333336,-69.8879429832932,0,0,0
416700000.000002,-69.9719138724272,0,0,0
417516666.666669,-69.7961052932508,0,0,0
418333333.333336,-69.9354190202894,0,0,0
419150000.000002,-70.0403714222359,0,0,0
419966666.666669,-70.0039724058962,0,0,0
420783333.333336,-69.9955904167729,0,0,0
421600000.000002,-70.0600084295586,0,0,0
422416666.666669,-70.0502066197527,0,0,0
423233333.333336,-70.0566086466338,0,0,0
424050000.000003,-70.1002894039579,0,0,0
424866666.666669,-69.9965608245523,0,0,0
425683333.333336,-69.9192048647072,0,0,0
426500000.000003,-70.0126893109782,0,0,0
427316666.666669,-69.920315076765,0,0,0
428133333.333336,-69.8994874953462,0,0,0
428950000.000003,-69.9257044560227,0,0,0
429766666.666669,-70.015253763329,0,0,0
430583333.333336,-69.9638093831708,0,0,0
431400000.000003,-70.0058671001364,0,0,0
432216666.666669,-70.1301256444829,0,0,0
433033333.333336,-70.1348433964297,0,0,0
433850000.000003,-70.1706565492245,0,0,0
434666666.666669,-70.0940348554817,0,0,0
435483333.333336,-70.2022071108478,0,0,0
436300000.000003,-70.0974760376994,0,0,0
437116666.666669,-70.0570878747652,0,0,0
437933333.333336,-70.0841854520714,0,0,0
438750000.000003,-69.9950275428985,0,0,0
439566666.66667,-70.017288587323,0,0,0
440383333.333336,-70.012278605951,0,0,0
441200000.000003,-69.9889663603145,0,0,0
442016666.66667,-70.2355245855805,0,0,0
442833333.333336,-70.1481850604977,0,0,0
443650000.000003,-70.3020718419859,0,0,0
444466666.66667,-70.3240052411562,0,0,0
445283333.333336,-70.2669633226553,0,0,0
446100000.000003,-70.3084559061304,0,0,0
446916666.66667,-70.2892095349461,0,0,0
447733333.333336,-70.1891490642162,0,0,0
448550000.000003,-70.2787013006637,0,0,0
449366666.66667,-70.1326224869634,0,0,0
450183333.333336,-70.2361005362548,0,0,0
451000000.000003,-70.1265295112681,0,0,0
451816666.66667,-70.1598701779857,0,0,0
452633333.333337,-70.2125220135028,0,0,0
453450000.000003,-70.2966824751573,0,0,0
454266666.66667,-70.3721335821414,0,0,0
455083333.333337,-70.4642338089886,0,0,0
455900000.000003,-70.4479964749894,0,0,0
456716666.66667,-70.5378365908488,0,0,0
457533333.333337,-70.4616688155074,0,0,0
458350000.000003,-70.4606683773737,0,0,0
459166666.66667,-70.4405106201677,0,0,0
459983333.333337,-70.315608656783,0,0,0
460800000.000003,-70.2745091327983,0,0,0
461616666.66667,-70.2702334695166,0,0,0
462433333.333337,-70.3169766238303,0,0,0
463250000.000003,-70.4594056692401,0,0,0
464066666.66667,-70.3087301814009,0,0,0
464883333.333337,-70.5013444806459,0,0,0
465700000.000004,-70.6151937919378,0,0,0
466516666.66667,-70.5575758712593,0,0,0
467333333.333337,-70.7417128317348,0,0,0
468150000.000004,-70.6250841410205,0,0,0
468966666.66667,-70.6603713418137,0,0,0
469783333.333337,-70.5486967539954,0,0,0
470600000.000004,-70.4819457213505,0,0,0
471416666.66667,-70.5215934051849,0,0,0
472233333.333337,-70.5206444976893,0,0,0
473050000.000004,-70.4626994322215,0,0,0
473866666.66667,-70.4729444616323,0,0,0
474683333.333337,-70.4604807146716,0,0,0
475500000.000004,-70.5481167308447,0,0,0
476316666.66667,-70.6281320564,0,0,0
477133333.333337,-70.6207259198714,0,0,0
477950000.000004,-70.5800528216962,0,0,0
478766666.666671,-70.7262804414572,0,0,0
479583333.333337,-70.7044615761415,0,0,0
480400000.000004,-70.7450420278852,0,0,0
481216666.666671,-70.665952202332,0,0,0
482033333.333337,-70.6599778921601,0,0,0
482850000.000004,-70.5754469195116,0,0,0
483666666.666671,-70.5607125740001,0,0,0
484483333.333337,-70.5125165173081,0,0,0
485300000.000004,-70.6886830168233,0,0,0
486116666.666671,-70.6065158757582,0,0,0
486933333.333337,-70.6721392018748,0,0,0
487750000.000004,-70.6057584166835,0,0,0
488566666.666671,-70.6976854648033,0,0,0
489383333.333337,-70.8483891833535,0,0,0
490200000.000004,-70.8294254304442,0,0,0
491016666.666671,-70.7611445697667,0,0,0
491833333.333337,-70.7829474847937,0,0,0
492650000.000004,-70.7382035670797,0,0,0
493466666.666671,-70.7038609252477,0,0,0
494283333.333338,-70.6761564966249,0,0,0
495100000.000004,-70.6459369679918,0,0,0
495916666.666671,-70.6368423689327,0,0,0
496733333.333338,-70.7699934655855,0,0,0
497550000.000004,-70.752964992693,0,0,0
498366666.666671,-70.7951380327791,0,0,0
499183333.333338,-70.7731496219658,0,0,0
500000000.000004,-70.8111500720275,0,0,0
END
