! FILETYPE CSV
! VERSION 3.0,1
! TIMESTAMP Monday, 07 August 2023 12:17:22
! TIMEZONE (UTC+10:00) Canberra, Melbourne, Sydney
! NAME Keysight Technologies
! MODEL N9914A
! SERIAL MY61272638
! FIRMWARE_VERSION A.12.45
! CORRECTION 
! Application SA
! SA Frequency Scan
!  CenterFreq 255000000
!  SpanFreq 490000000
!  Num TracePoints 601
!  ResolutionBW 1000000
!  VideoBW 10000
!  RF Attenuation 0
!  Preamp ON
!  External Gain 0
!  Detector Average
!  TraceAvgCount 100 / 100
! Missing Trace TIMESTAMP... measurement incomplete... try using Single Sweep
! CHECKSUM 1861215491
! DATA Freq,SA Average,SA Blank,SA Blank,SA Blank
! FREQ UNIT Hz
! DATA UNIT dBm
BEGIN
10000000,-67.9415603853254,0,0,0
10816666.6666667,-67.9591386385407,0,0,0
11633333.3333333,-67.9896327819004,0,0,0
12450000,-68.0497969891956,0,0,0
13266666.6666667,-68.1161632495023,0,0,0
14083333.3333333,-68.2673456588879,0,0,0
14900000,-68.5126086833898,0,0,0
15716666.6666667,-68.5223420101783,0,0,0
16533333.3333333,-68.6185947054686,0,0,0
17350000,-68.4196222766301,0,0,0
18166666.6666667,-68.2473281483223,0,0,0
18983333.3333333,-68.0658989349581,0,0,0
19800000,-68.0251834992308,0,0,0
20616666.6666667,-67.8481284210685,0,0,0
21433333.3333333,-67.8687475941243,0,0,0
22250000,-67.9486005051071,0,0,0
23066666.6666667,-68.0363481877261,0,0,0
23883333.3333333,-68.2642864123956,0,0,0
24700000,-68.3697946581892,0,0,0
25516666.6666667,-68.5022866892066,0,0,0
26333333.3333333,-68.389012131331,0,0,0
27150000,-68.3805233470565,0,0,0
27966666.6666667,-68.3686970675258,0,0,0
28783333.3333333,-68.1401568403075,0,0,0
29600000,-67.9559323514061,0,0,0
30416666.6666667,-68.0122619175733,0,0,0
31233333.3333334,-67.9041952461561,0,0,0
32050000,-67.9159191940655,0,0,0
32866666.6666667,-67.9599983847212,0,0,0
33683333.3333334,-68.0580090251818,0,0,0
34500000,-68.2456004986294,0,0,0
35316666.6666667,-68.3862342353549,0,0,0
36133333.3333333,-68.5128199589218,0,0,0
36950000,-68.5001463918093,0,0,0
37766666.6666667,-68.3583140232171,0,0,0
38583333.3333333,-68.2253042623603,0,0,0
39400000,-68.1907071658552,0,0,0
40216666.6666667,-68.0194575348053,0,0,0
41033333.3333333,-67.8154979447634,0,0,0
41850000,-67.829484910515,0,0,0
42666666.6666667,-67.8276395600738,0,0,0
43483333.3333333,-67.9562497071603,0,0,0
44300000,-68.0591582819528,0,0,0
45116666.6666666,-68.2869556174624,0,0,0
45933333.3333333,-68.3996376950358,0,0,0
46750000,-68.5454860558479,0,0,0
47566666.6666666,-68.5682382351053,0,0,0
48383333.3333333,-68.4458880583703,0,0,0
49200000,-68.3665524021372,0,0,0
50016666.6666666,-68.1489132643649,0,0,0
50833333.3333333,-67.9359046550779,0,0,0
51650000,-67.7821168237725,0,0,0
52466666.6666666,-67.6949925657427,0,0,0
53283333.3333333,-67.7012155084313,0,0,0
54100000,-67.7434612363486,0,0,0
54916666.6666666,-67.901650942923,0,0,0
55733333.3333333,-68.0456715002221,0,0,0
56549999.9999999,-68.3537884298817,0,0,0
57366666.6666666,-68.4729894701718,0,0,0
58183333.3333333,-68.5060608464754,0,0,0
58999999.9999999,-68.4532143997695,0,0,0
59816666.6666666,-68.3862473588319,0,0,0
60633333.3333333,-68.1742595367382,0,0,0
61449999.9999999,-67.954470129443,0,0,0
62266666.6666666,-67.757336498855,0,0,0
63083333.3333333,-67.6020388916039,0,0,0
63899999.9999999,-67.4715476229005,0,0,0
64716666.6666666,-67.6232865659148,0,0,0
65533333.3333333,-67.7483313129479,0,0,0
66349999.9999999,-67.9855634976617,0,0,0
67166666.6666666,-68.1448252606233,0,0,0
67983333.3333333,-68.25337798564,0,0,0
68799999.9999999,-68.4629745405154,0,0,0
69616666.6666666,-68.4818979894148,0,0,0
70433333.3333333,-68.4156279573278,0,0,0
71249999.9999999,-68.1447940090668,0,0,0
72066666.6666666,-68.0213710254303,0,0,0
72883333.3333333,-67.7927133383074,0,0,0
73700000,-67.5389047129745,0,0,0
74516666.6666666,-67.5390324298617,0,0,0
75333333.3333333,-67.5728931418761,0,0,0
76150000,-67.7017322782449,0,0,0
76966666.6666666,-67.8716442850396,0,0,0
77783333.3333333,-68.116839085518,0,0,0
78600000,-68.1586349016021,0,0,0
79416666.6666667,-68.4799397178013,0,0,0
80233333.3333333,-68.4575885723933,0,0,0
81050000,-68.3595251392054,0,0,0
81866666.6666667,-68.2914352073236,0,0,0
82683333.3333333,-68.1619567354161,0,0,0
83500000,-67.8324306458421,0,0,0
84316666.6666667,-67.7333154316413,0,0,0
85133333.3333334,-67.566192857238,0,0,0
85950000,-67.6218280555818,0,0,0
86766666.6666667,-67.7357699262185,0,0,0
87583333.3333334,-67.817791753152,0,0,0
88400000,-68.0544295168331,0,0,0
89216666.6666667,-68.2595718884417,0,0,0
90033333.3333334,-68.4354822138159,0,0,0
90850000.0000001,-68.5189663993086,0,0,0
91666666.6666667,-68.4592645743541,0,0,0
92483333.3333334,-68.3232091373036,0,0,0
93300000.0000001,-68.2001237436467,0,0,0
94116666.6666667,-67.9883675226199,0,0,0
94933333.3333334,-67.6822889977119,0,0,0
95750000.0000001,-67.669936646235,0,0,0
96566666.6666668,-67.612867558574,0,0,0
97383333.3333334,-67.7052894519581,0,0,0
98200000.0000001,-68.0418259954446,0,0,0
99016666.6666668,-68.1911298397717,0,0,0
99833333.3333334,-68.356308067945,0,0,0
100650000,-68.4904134314245,0,0,0
101466666.666667,-68.6013336425984,0,0,0
102283333.333333,-68.6457144701082,0,0,0
103100000,-68.4548477088041,0,0,0
103916666.666667,-68.3231669857522,0,0,0
104733333.333333,-68.0994040187755,0,0,0
105550000,-67.8289603799123,0,0,0
106366666.666667,-67.7932160291984,0,0,0
107183333.333333,-67.7569908171393,0,0,0
108000000,-67.6852745731001,0,0,0
108816666.666667,-67.876423773332,0,0,0
109633333.333334,-68.1299442088105,0,0,0
110450000,-68.2305485835445,0,0,0
111266666.666667,-68.4507422753337,0,0,0
112083333.333334,-68.5215186308581,0,0,0
112900000,-68.647297492464,0,0,0
113716666.666667,-68.5514844185019,0,0,0
114533333.333334,-68.2470395311278,0,0,0
115350000,-68.1125582808004,0,0,0
116166666.666667,-68.0382007853917,0,0,0
116983333.333334,-67.7751206338078,0,0,0
117800000,-67.7079616099756,0,0,0
118616666.666667,-67.8685850487054,0,0,0
119433333.333334,-67.9842352207348,0,0,0
120250000,-68.2690203029628,0,0,0
121066666.666667,-68.4552445874214,0,0,0
121883333.333334,-68.6536427239024,0,0,0
122700000,-68.8003564635494,0,0,0
123516666.666667,-68.7985880535433,0,0,0
124333333.333334,-68.8446628934631,0,0,0
125150000,-68.5624252962401,0,0,0
125966666.666667,-68.3655924654854,0,0,0
126783333.333334,-68.1786864674538,0,0,0
127600000,-67.9898244298625,0,0,0
128416666.666667,-67.9998947575812,0,0,0
129233333.333334,-67.9469121177136,0,0,0
130050000,-68.0191304155296,0,0,0
130866666.666667,-68.2192074825931,0,0,0
131683333.333334,-68.4323384990765,0,0,0
132500000,-68.6977248441302,0,0,0
133316666.666667,-68.8578908822477,0,0,0
134133333.333334,-68.8536425123768,0,0,0
134950000,-68.7886129929791,0,0,0
135766666.666667,-68.7194806897436,0,0,0
136583333.333334,-68.6052896157841,0,0,0
137400000,-68.2480992262737,0,0,0
138216666.666667,-68.13123683642,0,0,0
139033333.333334,-68.0606452850544,0,0,0
139850000,-67.9575536687906,0,0,0
140666666.666667,-68.0890922016808,0,0,0
141483333.333334,-68.2344602485629,0,0,0
142300000,-68.3383945305945,0,0,0
143116666.666667,-68.5904260005205,0,0,0
143933333.333334,-68.6767791013983,0,0,0
144750000,-68.8775251263496,0,0,0
145566666.666667,-68.8636809538167,0,0,0
146383333.333334,-68.7957654717632,0,0,0
147200000,-68.7027767866586,0,0,0
148016666.666667,-68.4285783179403,0,0,0
148833333.333333,-68.3487360121441,0,0,0
149650000,-68.0513577205064,0,0,0
150466666.666667,-68.0689428471661,0,0,0
151283333.333333,-68.084897449474,0,0,0
152100000,-68.2500584347676,0,0,0
152916666.666667,-68.4253632181246,0,0,0
153733333.333333,-68.5246985921636,0,0,0
154550000,-68.6899907616767,0,0,0
155366666.666667,-68.7482491775439,0,0,0
156183333.333333,-68.8473355368801,0,0,0
157000000,-68.7794441238977,0,0,0
157816666.666667,-68.6833487176899,0,0,0
158633333.333333,-68.630363021824,0,0,0
159450000,-68.4082484339131,0,0,0
160266666.666667,-68.4007266661599,0,0,0
161083333.333333,-68.3424196478868,0,0,0
161900000,-68.258666393938,0,0,0
162716666.666667,-68.3784959122339,0,0,0
163533333.333333,-68.4883228894833,0,0,0
164350000,-68.6585568804379,0,0,0
165166666.666667,-68.7418816206543,0,0,0
165983333.333333,-68.7991400979444,0,0,0
166800000,-68.9435063685228,0,0,0
167616666.666667,-68.9014199285245,0,0,0
168433333.333333,-68.7553765449091,0,0,0
169250000,-68.6889513064019,0,0,0
170066666.666667,-68.6388625803012,0,0,0
170883333.333333,-68.4588005308006,0,0,0
171700000,-68.4258194482081,0,0,0
172516666.666667,-68.6298888087285,0,0,0
173333333.333333,-68.5890467714382,0,0,0
174150000,-68.7274324965483,0,0,0
174966666.666667,-68.7745879814383,0,0,0
175783333.333333,-68.9773884818536,0,0,0
176600000,-69.0450143828872,0,0,0
177416666.666666,-68.9964262214638,0,0,0
178233333.333333,-68.9011455479895,0,0,0
179050000,-68.9408502256101,0,0,0
179866666.666666,-68.7613305014197,0,0,0
180683333.333333,-68.6792064825904,0,0,0
181500000,-68.5869043705795,0,0,0
182316666.666666,-68.7293625580294,0,0,0
183133333.333333,-68.6643584098833,0,0,0
183950000,-68.5809618719792,0,0,0
184766666.666666,-68.82926882582,0,0,0
185583333.333333,-68.8731593025862,0,0,0
186400000,-68.8202447108568,0,0,0
187216666.666666,-68.968564616485,0,0,0
188033333.333333,-69.0653386890517,0,0,0
188850000,-68.9604157498625,0,0,0
189666666.666666,-68.9229629523683,0,0,0
190483333.333333,-68.737132068609,0,0,0
191300000,-68.8469349365826,0,0,0
192116666.666666,-68.7091636697916,0,0,0
192933333.333333,-68.7940994749178,0,0,0
193750000,-68.7484517498071,0,0,0
194566666.666666,-68.8601351738746,0,0,0
195383333.333333,-68.8129784111248,0,0,0
196200000,-68.8776414505886,0,0,0
197016666.666666,-68.981414355493,0,0,0
197833333.333333,-68.9584173829413,0,0,0
198650000,-69.0838584331913,0,0,0
199466666.666666,-69.1328457983966,0,0,0
200283333.333333,-68.9785720381884,0,0,0
201100000,-68.8076250743726,0,0,0
201916666.666666,-68.8405943495248,0,0,0
202733333.333333,-68.7637548139229,0,0,0
203549999.999999,-68.7324411371845,0,0,0
204366666.666666,-68.760201737709,0,0,0
205183333.333333,-68.7248221991608,0,0,0
205999999.999999,-68.8204787836929,0,0,0
206816666.666666,-68.9994771438733,0,0,0
207633333.333333,-68.9232083494379,0,0,0
208449999.999999,-69.0550136042698,0,0,0
209266666.666666,-69.1064870408988,0,0,0
210083333.333333,-69.0541955124502,0,0,0
210899999.999999,-69.0761713984004,0,0,0
211716666.666666,-69.039165852372,0,0,0
212533333.333333,-68.8818556916265,0,0,0
213349999.999999,-68.8375749342978,0,0,0
214166666.666666,-68.9340869469949,0,0,0
214983333.333333,-68.7607049563895,0,0,0
215799999.999999,-68.8883551850972,0,0,0
216616666.666666,-68.8622930423024,0,0,0
217433333.333333,-68.803649273438,0,0,0
218249999.999999,-68.9858140942815,0,0,0
219066666.666666,-69.0107299453465,0,0,0
219883333.333333,-69.060701404578,0,0,0
220699999.999999,-68.9993570158177,0,0,0
221516666.666666,-68.8899947428652,0,0,0
222333333.333333,-68.9198950631568,0,0,0
223149999.999999,-68.831629705468,0,0,0
223966666.666666,-68.8509889966452,0,0,0
224783333.333333,-68.872129698574,0,0,0
225599999.999999,-68.7646326072163,0,0,0
226416666.666666,-68.755061177061,0,0,0
227233333.333333,-68.9103668172405,0,0,0
228049999.999999,-68.8705028837363,0,0,0
228866666.666666,-68.9069162755405,0,0,0
229683333.333333,-69.0573475207735,0,0,0
230499999.999999,-68.9658497245489,0,0,0
231316666.666666,-68.8799116920883,0,0,0
232133333.333332,-68.9132385211327,0,0,0
232949999.999999,-68.769656455617,0,0,0
233766666.666666,-68.630697358361,0,0,0
234583333.333332,-68.7602076295589,0,0,0
235399999.999999,-68.7098184365627,0,0,0
236216666.666666,-68.7532327765193,0,0,0
237033333.333332,-68.6639855854691,0,0,0
237849999.999999,-69.0572877613925,0,0,0
238666666.666666,-68.9081644834497,0,0,0
239483333.333332,-68.9551294468445,0,0,0
240299999.999999,-68.9905540466702,0,0,0
241116666.666666,-69.0390278329465,0,0,0
241933333.333332,-68.9573706792374,0,0,0
242749999.999999,-68.8484156966739,0,0,0
243566666.666666,-68.6914783503236,0,0,0
244383333.333332,-68.6449948968392,0,0,0
245199999.999999,-68.6003421070875,0,0,0
246016666.666666,-68.5366275741971,0,0,0
246833333.333332,-68.5918389151254,0,0,0
247649999.999999,-68.7284831878682,0,0,0
248466666.666666,-68.777288334857,0,0,0
249283333.333332,-68.8741349984475,0,0,0
250099999.999999,-69.0355824412064,0,0,0
250916666.666666,-69.081061161591,0,0,0
251733333.333332,-69.0563306860995,0,0,0
252549999.999999,-69.0117399576873,0,0,0
253366666.666666,-68.8516896348829,0,0,0
254183333.333332,-68.6831305724352,0,0,0
254999999.999999,-68.6440584658048,0,0,0
255816666.666666,-68.5582805690608,0,0,0
256633333.333332,-68.4724801614878,0,0,0
257449999.999999,-68.4757357545954,0,0,0
258266666.666665,-68.5755262520951,0,0,0
259083333.333332,-68.6544428193823,0,0,0
259899999.999999,-68.826622813446,0,0,0
260716666.666665,-68.8222298809952,0,0,0
261533333.333332,-68.9292244239158,0,0,0
262349999.999999,-69.0747176362303,0,0,0
263166666.666665,-68.9052580554415,0,0,0
263983333.333332,-68.942617459772,0,0,0
264799999.999999,-68.8108000956596,0,0,0
265616666.666665,-68.7352741143354,0,0,0
266433333.333332,-68.5248321810557,0,0,0
267249999.999999,-68.4964291055691,0,0,0
268066666.666665,-68.4592213940741,0,0,0
268883333.333332,-68.4920702449184,0,0,0
269699999.999999,-68.7265588543873,0,0,0
270516666.666665,-68.8854035006425,0,0,0
271333333.333332,-68.8957300762514,0,0,0
272149999.999999,-69.0673029619125,0,0,0
272966666.666665,-69.0765520809945,0,0,0
273783333.333332,-69.0367124114041,0,0,0
274599999.999999,-69.0158218526221,0,0,0
275416666.666666,-68.9683412009758,0,0,0
276233333.333332,-68.7608666982618,0,0,0
277049999.999999,-68.7456205233332,0,0,0
277866666.666666,-68.5649245447493,0,0,0
278683333.333332,-68.4617376634112,0,0,0
279499999.999999,-68.5497831571702,0,0,0
280316666.666666,-68.6626131427558,0,0,0
281133333.333332,-68.7126020391846,0,0,0
281949999.999999,-68.9036237629397,0,0,0
282766666.666666,-68.9175237223955,0,0,0
283583333.333332,-69.1039072639411,0,0,0
284399999.999999,-69.0532884743311,0,0,0
285216666.666666,-69.0765743930433,0,0,0
286033333.333332,-68.9857256834424,0,0,0
286849999.999999,-68.8466362989047,0,0,0
287666666.666666,-68.7881352782477,0,0,0
288483333.333333,-68.7358284303196,0,0,0
289299999.999999,-68.5548891207944,0,0,0
290116666.666666,-68.7145549010362,0,0,0
290933333.333333,-68.7628788159127,0,0,0
291749999.999999,-68.8174090507735,0,0,0
292566666.666666,-68.9974186785269,0,0,0
293383333.333333,-69.0318677699506,0,0,0
294199999.999999,-69.2155774359374,0,0,0
295016666.666666,-69.1961075571473,0,0,0
295833333.333333,-69.1874902312864,0,0,0
296649999.999999,-69.0548045220321,0,0,0
297466666.666666,-68.8923397681226,0,0,0
298283333.333333,-68.9347865765802,0,0,0
299099999.999999,-68.7221364798408,0,0,0
299916666.666666,-68.7569812457155,0,0,0
300733333.333333,-68.7157143310073,0,0,0
301550000,-68.9320498138556,0,0,0
302366666.666666,-68.9166579633143,0,0,0
303183333.333333,-69.0910850794747,0,0,0
304000000,-69.3260572405582,0,0,0
304816666.666666,-69.2528302094429,0,0,0
305633333.333333,-69.3558872469267,0,0,0
306450000,-69.3781528255545,0,0,0
307266666.666666,-69.2706991458522,0,0,0
308083333.333333,-69.2472678212807,0,0,0
308900000,-69.1128800480394,0,0,0
309716666.666666,-69.1002921161736,0,0,0
310533333.333333,-68.8865020471281,0,0,0
311350000,-68.9040254206625,0,0,0
312166666.666666,-68.9628999008294,0,0,0
312983333.333333,-69.127907442847,0,0,0
313800000,-69.3099210598563,0,0,0
314616666.666667,-69.4026371681957,0,0,0
315433333.333333,-69.4688491106756,0,0,0
316250000,-69.5646875449979,0,0,0
317066666.666667,-69.7059048200766,0,0,0
317883333.333333,-69.6457238617388,0,0,0
318700000,-69.4272314848388,0,0,0
319516666.666667,-69.3586196929844,0,0,0
320333333.333333,-69.1700605470402,0,0,0
321150000,-69.1084612971973,0,0,0
321966666.666667,-69.1353067279491,0,0,0
322783333.333333,-69.1457870839118,0,0,0
323600000,-69.1667582337848,0,0,0
324416666.666667,-69.4583544532808,0,0,0
325233333.333333,-69.6141571673767,0,0,0
326050000,-69.668227409111,0,0,0
326866666.666667,-69.7044086489743,0,0,0
327683333.333333,-69.7860215427281,0,0,0
328500000,-69.7842136809483,0,0,0
329316666.666667,-69.6966832676633,0,0,0
330133333.333334,-69.5975405791861,0,0,0
330950000,-69.5445001920808,0,0,0
331766666.666667,-69.4384904364799,0,0,0
332583333.333334,-69.3118437583934,0,0,0
333400000,-69.3980717857943,0,0,0
334216666.666667,-69.4208142485271,0,0,0
335033333.333334,-69.4404688626737,0,0,0
335850000,-69.5536605164355,0,0,0
336666666.666667,-69.726830177838,0,0,0
337483333.333334,-69.6821544482055,0,0,0
338300000,-69.8410393728667,0,0,0
339116666.666667,-69.8344578639957,0,0,0
339933333.333334,-69.8869147459569,0,0,0
340750000,-69.8309879074814,0,0,0
341566666.666667,-69.7703341983046,0,0,0
342383333.333334,-69.7226922864724,0,0,0
343200000.000001,-69.5814515053264,0,0,0
344016666.666667,-69.4958980265598,0,0,0
344833333.333334,-69.5227483959067,0,0,0
345650000.000001,-69.6062472047385,0,0,0
346466666.666667,-69.6805088483556,0,0,0
347283333.333334,-69.6439716341005,0,0,0
348100000.000001,-69.8405151276963,0,0,0
348916666.666667,-69.8571865136191,0,0,0
349733333.333334,-69.9117077654544,0,0,0
350550000.000001,-69.9209599127186,0,0,0
351366666.666667,-69.8744688602811,0,0,0
352183333.333334,-69.8189280159709,0,0,0
353000000.000001,-69.8289262479731,0,0,0
353816666.666667,-69.8448238122283,0,0,0
354633333.333334,-69.7147990529142,0,0,0
355450000.000001,-69.7409670637381,0,0,0
356266666.666668,-69.654053526138,0,0,0
357083333.333334,-69.7501834292557,0,0,0
357900000.000001,-69.8547445934912,0,0,0
358716666.666668,-69.7998418470712,0,0,0
359533333.333334,-69.8483706137258,0,0,0
360350000.000001,-70.0053024624279,0,0,0
361166666.666668,-70.0687874097686,0,0,0
361983333.333334,-69.8695025106842,0,0,0
362800000.000001,-69.9887219737593,0,0,0
363616666.666668,-69.9438456156678,0,0,0
364433333.333334,-69.8642754968727,0,0,0
365250000.000001,-69.835619298535,0,0,0
366066666.666668,-69.8317093376166,0,0,0
366883333.333334,-69.7163609793893,0,0,0
367700000.000001,-69.7997715488798,0,0,0
368516666.666668,-69.9080235816796,0,0,0
369333333.333335,-69.8141091336083,0,0,0
370150000.000001,-70.0397920074916,0,0,0
370966666.666668,-69.9644838638988,0,0,0
371783333.333335,-70.061589383659,0,0,0
372600000.000001,-69.9796639015062,0,0,0
373416666.666668,-69.9933537686111,0,0,0
374233333.333335,-69.8227841318283,0,0,0
375050000.000001,-69.9374118303137,0,0,0
375866666.666668,-69.9561162125411,0,0,0
376683333.333335,-69.8909489185204,0,0,0
377500000.000001,-69.9104160873091,0,0,0
378316666.666668,-69.8986329715007,0,0,0
379133333.333335,-69.964525789539,0,0,0
379950000.000001,-69.9551529048458,0,0,0
380766666.666668,-70.0262177857726,0,0,0
381583333.333335,-69.9908014657056,0,0,0
382400000.000001,-69.9730245321495,0,0,0
383216666.666668,-69.9610797082863,0,0,0
384033333.333335,-69.9523463976596,0,0,0
384850000.000002,-69.9245081731946,0,0,0
385666666.666668,-69.9557006050872,0,0,0
386483333.333335,-69.7629713294189,0,0,0
387300000.000002,-69.7906921323433,0,0,0
388116666.666668,-69.8488718791926,0,0,0
388933333.333335,-69.9111093338692,0,0,0
389750000.000002,-69.9964783025415,0,0,0
390566666.666668,-69.9313982241613,0,0,0
391383333.333335,-69.9875410008601,0,0,0
392200000.000002,-69.9746514429832,0,0,0
393016666.666668,-70.0156046083845,0,0,0
393833333.333335,-70.0770791097194,0,0,0
394650000.000002,-70.006989947892,0,0,0
395466666.666668,-69.9904671840127,0,0,0
396283333.333335,-69.8905191738058,0,0,0
397100000.000002,-69.8516881617602,0,0,0
397916666.666669,-69.9452802689984,0,0,0
398733333.333335,-69.9361601828682,0,0,0
399550000.000002,-70.0574944624255,0,0,0
400366666.666669,-69.9912955089494,0,0,0
401183333.333335,-69.9453418310685,0,0,0
402000000.000002,-70.0414815420165,0,0,0
402816666.666669,-70.0581526272816,0,0,0
403633333.333335,-69.9934811704097,0,0,0
404450000.000002,-69.9517061409387,0,0,0
405266666.666669,-69.9668571692882,0,0,0
406083333.333335,-69.9762102453278,0,0,0
406900000.000002,-69.925094594491,0,0,0
407716666.666669,-69.9518704642416,0,0,0
408533333.333335,-69.8934679110073,0,0,0
409350000.000002,-69.9971552579912,0,0,0
410166666.666669,-70.0810179864434,0,0,0
410983333.333336,-69.9941271915547,0,0,0
411800000.000002,-70.0805679772229,0,0,0
412616666.666669,-69.9936918630702,0,0,0
413433333.333336,-70.0684417536874,0,0,0
414250000.000002,-69.998687250253,0,0,0
415066666.666669,-70.0180745593899,0,0,0
415883333.333336,-70.0400468848364,0,0,0
416700000.000002,-69.9340187881593,0,0,0
417516666.666669,-69.9678417920144,0,0,0
418333333.333336,-69.9858726208093,0,0,0
419150000.000002,-70.0150493165155,0,0,0
419966666.666669,-70.0646896602013,0,0,0
420783333.333336,-70.0370174480421,0,0,0
421600000.000002,-70.145422095938,0,0,0
422416666.666669,-70.1405127397893,0,0,0
423233333.333336,-70.150686114122,0,0,0
424050000.000003,-70.1444410494159,0,0,0
424866666.666669,-70.0889628428443,0,0,0
425683333.333336,-69.9891023167398,0,0,0
426500000.000003,-70.0529159120702,0,0,0
427316666.666669,-70.0445892611714,0,0,0
428133333.333336,-70.0378049719872,0,0,0
428950000.000003,-70.0294023470806,0,0,0
429766666.666669,-70.1005470925279,0,0,0
430583333.333336,-70.0149610497591,0,0,0
431400000.000003,-70.1138370913097,0,0,0
432216666.666669,-70.0934935629717,0,0,0
433033333.333336,-70.1395446774693,0,0,0
433850000.000003,-70.2222284012763,0,0,0
434666666.666669,-70.2461267024845,0,0,0
435483333.333336,-70.2476483336804,0,0,0
436300000.000003,-70.2406261641392,0,0,0
437116666.666669,-70.1482575670052,0,0,0
437933333.333336,-70.1370438522334,0,0,0
438750000.000003,-70.1157263430277,0,0,0
439566666.66667,-69.9928122134213,0,0,0
440383333.333336,-70.1142367065728,0,0,0
441200000.000003,-70.1228811631469,0,0,0
442016666.66667,-70.2044637991064,0,0,0
442833333.333336,-70.2246726273725,0,0,0
443650000.000003,-70.3546792464912,0,0,0
444466666.66667,-70.3961317161459,0,0,0
445283333.333336,-70.356384099046,0,0,0
446100000.000003,-70.4465264899256,0,0,0
446916666.66667,-70.4149305716549,0,0,0
447733333.333336,-70.3065946328715,0,0,0
448550000.000003,-70.2583840607107,0,0,0
449366666.66667,-70.2383920228773,0,0,0
450183333.333336,-70.1406218579332,0,0,0
451000000.000003,-70.1722014759047,0,0,0
451816666.66667,-70.2688364131654,0,0,0
452633333.333337,-70.2677839961698,0,0,0
453450000.000003,-70.406519036828,0,0,0
454266666.66667,-70.4355508402318,0,0,0
455083333.333337,-70.459269924811,0,0,0
455900000.000003,-70.4837771394862,0,0,0
456716666.66667,-70.6072798974384,0,0,0
457533333.333337,-70.5302845265622,0,0,0
458350000.000003,-70.5455550947352,0,0,0
459166666.66667,-70.5131273021084,0,0,0
459983333.333337,-70.4287101879637,0,0,0
460800000.000003,-70.4266636555628,0,0,0
461616666.66667,-70.2890128330673,0,0,0
462433333.333337,-70.3488208891136,0,0,0
463250000.000003,-70.3507520670963,0,0,0
464066666.66667,-70.4754590276285,0,0,0
464883333.333337,-70.5183707970441,0,0,0
465700000.000004,-70.6518740483152,0,0,0
466516666.66667,-70.6441756093404,0,0,0
467333333.333337,-70.7377214677458,0,0,0
468150000.000004,-70.6220180873915,0,0,0
468966666.66667,-70.6103644376177,0,0,0
469783333.333337,-70.5897994239261,0,0,0
470600000.000004,-70.6448366068188,0,0,0
471416666.66667,-70.44139459826,0,0,0
472233333.333337,-70.4095479005502,0,0,0
473050000.000004,-70.5241486723374,0,0,0
473866666.66667,-70.5527021847892,0,0,0
474683333.333337,-70.6687297267524,0,0,0
475500000.000004,-70.6344368008332,0,0,0
476316666.66667,-70.670500490606,0,0,0
477133333.333337,-70.7014117374424,0,0,0
477950000.000004,-70.7978112197664,0,0,0
478766666.666671,-70.8626814365602,0,0,0
479583333.333337,-70.8019823667989,0,0,0
480400000.000004,-70.7974424659616,0,0,0
481216666.666671,-70.7690876526413,0,0,0
482033333.333337,-70.6559674968437,0,0,0
482850000.000004,-70.6113795997551,0,0,0
483666666.666671,-70.4925092386739,0,0,0
484483333.333337,-70.6036898304762,0,0,0
485300000.000004,-70.6413626258352,0,0,0
486116666.666671,-70.7303321388397,0,0,0
486933333.333337,-70.7062853609647,0,0,0
487750000.000004,-70.7913946613675,0,0,0
488566666.666671,-70.7609670667048,0,0,0
489383333.333337,-70.8001993326368,0,0,0
490200000.000004,-70.8750446595972,0,0,0
491016666.666671,-70.7521868147247,0,0,0
491833333.333337,-70.7601610362849,0,0,0
492650000.000004,-70.7947222346685,0,0,0
493466666.666671,-70.6829925882685,0,0,0
494283333.333338,-70.6152961703743,0,0,0
495100000.000004,-70.6959414745173,0,0,0
495916666.666671,-70.6888180332845,0,0,0
496733333.333338,-70.7080870861732,0,0,0
497550000.000004,-70.7465695870333,0,0,0
498366666.666671,-70.7392553873566,0,0,0
499183333.333338,-70.8062468962876,0,0,0
500000000.000004,-70.7916032478456,0,0,0
END
