1.000000000000000000e+01 6.204556484590284526e-06
1.122500038146972656e+01 7.085508514137472957e-06
1.244999980926513672e+01 7.219142389658372849e-06
1.367500019073486328e+01 6.789471626689191908e-06
1.489999961853027344e+01 6.043005669198464602e-06
1.612500000000000000e+01 5.130588760948739946e-06
1.735000038146972656e+01 3.939273028663592413e-06
1.857500076293945312e+01 3.080860551563091576e-06
1.979999923706054688e+01 2.495857643225463107e-06
2.102499961853027344e+01 2.229836354672443122e-06
2.225000000000000000e+01 2.521575879654847085e-06
2.347500038146972656e+01 2.825703177222749218e-06
2.470000076293945312e+01 3.560594450391363353e-06
2.592499923706054688e+01 5.811426490254234523e-06
2.714999961853027344e+01 1.935156251420266926e-05
2.837500000000000000e+01 1.429823751095682383e-04
2.960000038146972656e+01 6.183619843795895576e-04
3.082500076293945312e+01 1.346566830761730671e-03
3.204999923706054688e+01 2.969220513477921486e-03
3.327500152587890625e+01 4.899918567389249802e-03
3.450000000000000000e+01 6.577056832611560822e-03
3.572499847412109375e+01 7.521564606577157974e-03
3.695000076293945312e+01 8.258074522018432617e-03
3.817499923706054688e+01 8.327923715114593506e-03
3.940000152587890625e+01 8.414955809712409973e-03
4.062500000000000000e+01 8.849946781992912292e-03
4.184999847412109375e+01 9.879533201456069946e-03
4.307500076293945312e+01 1.052681542932987213e-02
4.429999923706054688e+01 1.153998076915740967e-02
4.552500152587890625e+01 1.204265374690294266e-02
4.675000000000000000e+01 1.200456824153661728e-02
4.797499847412109375e+01 1.197620853781700134e-02
4.920000076293945312e+01 1.194697245955467224e-02
5.042499923706054688e+01 1.221824344247579575e-02
5.165000152587890625e+01 1.273362897336483002e-02
5.287500000000000000e+01 1.341453380882740021e-02
5.409999847412109375e+01 1.382859330624341965e-02
5.532500076293945312e+01 1.425183378159999847e-02
5.654999923706054688e+01 1.399423182010650635e-02
5.777500152587890625e+01 1.385201141238212585e-02
5.900000000000000000e+01 1.395605597645044327e-02
6.022499847412109375e+01 1.402235683053731918e-02
6.145000076293945312e+01 1.425398793071508408e-02
6.267499923706054688e+01 1.462794374674558640e-02
6.390000152587890625e+01 1.499013882130384445e-02
6.512500000000000000e+01 1.537232846021652222e-02
6.634999847412109375e+01 1.553610060364007950e-02
6.757499694824218750e+01 1.560140680521726608e-02
6.880000305175781250e+01 1.542994379997253418e-02
7.002500152587890625e+01 1.549122296273708344e-02
7.125000000000000000e+01 1.579951122403144836e-02
7.247499847412109375e+01 1.578849554061889648e-02
7.369999694824218750e+01 1.599575206637382507e-02
7.492500305175781250e+01 1.647151075303554535e-02
7.615000152587890625e+01 1.681435294449329376e-02
7.737500000000000000e+01 1.693819090723991394e-02
7.859999847412109375e+01 1.700791157782077789e-02
7.982499694824218750e+01 1.712203398346900940e-02
8.105000305175781250e+01 1.729610189795494080e-02
8.227500152587890625e+01 1.719538122415542603e-02
8.350000000000000000e+01 1.727804541587829590e-02
8.472499847412109375e+01 1.742671616375446320e-02
8.594999694824218750e+01 1.764594763517379761e-02
8.717500305175781250e+01 1.807004585862159729e-02
8.840000152587890625e+01 1.809984631836414337e-02
8.962500000000000000e+01 1.831399649381637573e-02
9.084999847412109375e+01 1.828394085168838501e-02
9.207499694824218750e+01 1.809891499578952789e-02
9.330000305175781250e+01 1.821091771125793457e-02
9.452500152587890625e+01 1.822022907435894012e-02
9.575000000000000000e+01 1.818022876977920532e-02
9.697499847412109375e+01 1.816820353269577026e-02
9.819999694824218750e+01 1.809687539935112000e-02
9.942500305175781250e+01 1.827645115554332733e-02
1.006500015258789062e+02 1.830891519784927368e-02
1.018750000000000000e+02 1.824576221406459808e-02
1.030999984741210938e+02 1.821311935782432556e-02
1.043249969482421875e+02 1.823133789002895355e-02
1.055500030517578125e+02 1.767821423709392548e-02
1.067750015258789062e+02 1.770898140966892242e-02
1.080000000000000000e+02 1.747615821659564972e-02
1.092249984741210938e+02 1.776081882417201996e-02
1.104499969482421875e+02 1.762768998742103577e-02
1.116750030517578125e+02 1.765348017215728760e-02
1.129000015258789062e+02 1.748078688979148865e-02
1.141250000000000000e+02 1.741907373070716858e-02
1.153499984741210938e+02 1.717517152428627014e-02
1.165749969482421875e+02 1.723400875926017761e-02
1.178000030517578125e+02 1.717873662710189819e-02
1.190250015258789062e+02 1.688541285693645477e-02
1.202500000000000000e+02 1.672339253127574921e-02
1.214749984741210938e+02 1.682042144238948822e-02
1.226999969482421875e+02 1.647036336362361908e-02
1.239250030517578125e+02 1.652976311743259430e-02
1.251500015258789062e+02 1.650686934590339661e-02
1.263750000000000000e+02 1.647646352648735046e-02
1.275999984741210938e+02 1.635642349720001221e-02
1.288249969482421875e+02 1.622656174004077911e-02
1.300500030517578125e+02 1.607110723853111267e-02
1.312749938964843750e+02 1.580034010112285614e-02
1.325000000000000000e+02 1.581250503659248352e-02
1.337250061035156250e+02 1.572924852371215820e-02
1.349499969482421875e+02 1.577316224575042725e-02
1.361750030517578125e+02 1.571282371878623962e-02
1.373999938964843750e+02 1.603090763092041016e-02
1.386250000000000000e+02 1.601165719330310822e-02
1.398500061035156250e+02 1.592224463820457458e-02
1.410749969482421875e+02 1.570010930299758911e-02
1.423000030517578125e+02 1.562318205833435059e-02
1.435249938964843750e+02 1.540426351130008698e-02
1.447500000000000000e+02 1.551975496113300323e-02
1.459750061035156250e+02 1.556740142405033112e-02
1.471999969482421875e+02 1.551257073879241943e-02
1.484250030517578125e+02 1.562197878956794739e-02
1.496499938964843750e+02 1.552757620811462402e-02
1.508750000000000000e+02 1.573639735579490662e-02
1.521000061035156250e+02 1.595334894955158234e-02
1.533249969482421875e+02 1.565845683217048645e-02
1.545500030517578125e+02 1.548678986728191376e-02
1.557749938964843750e+02 1.541402935981750488e-02
1.570000000000000000e+02 1.553241163492202759e-02
1.582250061035156250e+02 1.543936319649219513e-02
1.594499969482421875e+02 1.538541540503501892e-02
1.606750030517578125e+02 1.546981744468212128e-02
1.618999938964843750e+02 1.559321768581867218e-02
1.631250000000000000e+02 1.559305563569068909e-02
1.643500061035156250e+02 1.565918326377868652e-02
1.655749969482421875e+02 1.550606824457645416e-02
1.668000030517578125e+02 1.528994925320148468e-02
1.680249938964843750e+02 1.504354551434516907e-02
1.692500000000000000e+02 1.514757610857486725e-02
1.704750061035156250e+02 1.525828242301940918e-02
1.716999969482421875e+02 1.496213488280773163e-02
1.729250030517578125e+02 1.527789700776338577e-02
1.741499938964843750e+02 1.535168290138244629e-02
1.753750000000000000e+02 1.527001056820154190e-02
1.766000061035156250e+02 1.525849569588899612e-02
1.778249969482421875e+02 1.512630935758352280e-02
1.790500030517578125e+02 1.493107806891202927e-02
1.802749938964843750e+02 1.485078223049640656e-02
1.815000000000000000e+02 1.471939682960510254e-02
1.827250061035156250e+02 1.469795592129230499e-02
1.839499969482421875e+02 1.466369442641735077e-02
1.851750030517578125e+02 1.465747505426406860e-02
1.863999938964843750e+02 1.462528854608535767e-02
1.876250000000000000e+02 1.474909391254186630e-02
1.888500061035156250e+02 1.481359824538230896e-02
1.900749969482421875e+02 1.461851596832275391e-02
1.913000030517578125e+02 1.462928019464015961e-02
1.925249938964843750e+02 1.448652055114507675e-02
1.937500000000000000e+02 1.436322741210460663e-02
1.949750061035156250e+02 1.412365678697824478e-02
1.961999969482421875e+02 1.425891555845737457e-02
1.974250030517578125e+02 1.418276503682136536e-02
1.986499938964843750e+02 1.429979316890239716e-02
1.998750000000000000e+02 1.445647329092025757e-02
2.011000061035156250e+02 1.438937056809663773e-02
2.023249969482421875e+02 1.431383378803730011e-02
2.035500030517578125e+02 1.420306786894798279e-02
2.047749938964843750e+02 1.407027989625930786e-02
2.060000000000000000e+02 1.398802921175956726e-02
2.072250061035156250e+02 1.386326830834150314e-02
2.084499969482421875e+02 1.372689381241798401e-02
2.096750030517578125e+02 1.384113170206546783e-02
2.108999938964843750e+02 1.379748620092868805e-02
2.121250000000000000e+02 1.379401143640279770e-02
2.133500061035156250e+02 1.379196718335151672e-02
2.145749969482421875e+02 1.375323347747325897e-02
2.158000030517578125e+02 1.368854288011789322e-02
2.170249938964843750e+02 1.343681663274765015e-02
2.182500000000000000e+02 1.352188270539045334e-02
2.194750061035156250e+02 1.312677003443241119e-02
2.206999969482421875e+02 1.317739766091108322e-02
2.219250030517578125e+02 1.310835871845483780e-02
2.231499938964843750e+02 1.316588278859853745e-02
2.243750000000000000e+02 1.308782771229743958e-02
2.256000061035156250e+02 1.322400197386741638e-02
2.268249969482421875e+02 1.329983212053775787e-02
2.280500030517578125e+02 1.311266981065273285e-02
2.292749938964843750e+02 1.307366043329238892e-02
2.305000000000000000e+02 1.284847408533096313e-02
2.317250061035156250e+02 1.265476085245609283e-02
2.329499969482421875e+02 1.256905589252710342e-02
2.341750030517578125e+02 1.243603322654962540e-02
2.353999938964843750e+02 1.234584208577871323e-02
2.366250000000000000e+02 1.243976876139640808e-02
2.378500061035156250e+02 1.253136433660984039e-02
2.390749969482421875e+02 1.240499783307313919e-02
2.403000030517578125e+02 1.233784668147563934e-02
2.415249938964843750e+02 1.230152975767850876e-02
2.427500000000000000e+02 1.213459484279155731e-02
2.439750061035156250e+02 1.183256600052118301e-02
2.451999969482421875e+02 1.183722261339426041e-02
2.464250030517578125e+02 1.166582666337490082e-02
2.476499938964843750e+02 1.167425327003002167e-02
2.488750000000000000e+02 1.161343324929475784e-02
2.501000061035156250e+02 1.165861822664737701e-02
2.513249969482421875e+02 1.164794154465198517e-02
2.525500030517578125e+02 1.164358761161565781e-02
2.537749938964843750e+02 1.153241470456123352e-02
2.550000000000000000e+02 1.143701188266277313e-02
2.562250061035156250e+02 1.123391371220350266e-02
2.574500122070312500e+02 1.103021670132875443e-02
2.586749877929687500e+02 1.101525966078042984e-02
2.598999938964843750e+02 1.087539643049240112e-02
2.611250000000000000e+02 1.084831636399030685e-02
2.623500061035156250e+02 1.087658759206533432e-02
2.635750122070312500e+02 1.089313905686140060e-02
2.647999877929687500e+02 1.076868642121553421e-02
2.660249938964843750e+02 1.069464720785617828e-02
2.672500000000000000e+02 1.052757911384105682e-02
2.684750061035156250e+02 1.046083215624094009e-02
2.697000122070312500e+02 1.031641848385334015e-02
2.709249877929687500e+02 1.006365194916725159e-02
2.721499938964843750e+02 9.830914437770843506e-03
2.733750000000000000e+02 9.950946085155010223e-03
2.746000061035156250e+02 9.915683418512344360e-03
2.758250122070312500e+02 9.870331734418869019e-03
2.770499877929687500e+02 9.838695637881755829e-03
2.782749938964843750e+02 9.782047942280769348e-03
2.795000000000000000e+02 9.588915854692459106e-03
2.807250061035156250e+02 9.502996690571308136e-03
2.819500122070312500e+02 9.348964318633079529e-03
2.831749877929687500e+02 8.988131769001483917e-03
2.843999938964843750e+02 9.072705172002315521e-03
2.856250000000000000e+02 8.848346769809722900e-03
2.868500061035156250e+02 8.842617273330688477e-03
2.880750122070312500e+02 8.802392520010471344e-03
2.892999877929687500e+02 8.696526288986206055e-03
2.905249938964843750e+02 8.724270388484001160e-03
2.917500000000000000e+02 8.594448678195476532e-03
2.929750061035156250e+02 8.266247808933258057e-03
2.942000122070312500e+02 8.196236565709114075e-03
2.954249877929687500e+02 8.186294697225093842e-03
2.966499938964843750e+02 7.986774668097496033e-03
2.978750000000000000e+02 7.793697528541088104e-03
2.991000061035156250e+02 7.778604980558156967e-03
3.003250122070312500e+02 7.756439037621021271e-03
3.015499877929687500e+02 7.688846439123153687e-03
3.027749938964843750e+02 7.679350208491086960e-03
3.040000000000000000e+02 7.666948251426219940e-03
3.052250061035156250e+02 7.569039240479469299e-03
3.064500122070312500e+02 7.423731498420238495e-03
3.076749877929687500e+02 7.187748327851295471e-03
3.088999938964843750e+02 7.064120844006538391e-03
3.101250000000000000e+02 7.005326449871063232e-03
3.113500061035156250e+02 6.906061433255672455e-03
3.125750122070312500e+02 6.864082068204879761e-03
3.137999877929687500e+02 6.987221073359251022e-03
3.150249938964843750e+02 7.016801275312900543e-03
3.162500000000000000e+02 6.833173334598541260e-03
3.174750061035156250e+02 6.871500983834266663e-03
3.187000122070312500e+02 6.798014976084232330e-03
3.199249877929687500e+02 6.578181870281696320e-03
3.211499938964843750e+02 6.467775907367467880e-03
3.223750000000000000e+02 6.424470804631710052e-03
3.236000061035156250e+02 6.387530826032161713e-03
3.248250122070312500e+02 6.311307195574045181e-03
3.260499877929687500e+02 6.295549683272838593e-03
3.272749938964843750e+02 6.284742150455713272e-03
3.285000000000000000e+02 6.277507171034812927e-03
3.297250061035156250e+02 6.236503832042217255e-03
3.309500122070312500e+02 6.112356204539537430e-03
3.321749877929687500e+02 6.036180071532726288e-03
3.333999938964843750e+02 5.965107586234807968e-03
3.346250000000000000e+02 5.762736313045024872e-03
3.358500061035156250e+02 5.726307164877653122e-03
3.370750122070312500e+02 5.699474364519119263e-03
3.382999877929687500e+02 5.594655405730009079e-03
3.395249938964843750e+02 5.637744441628456116e-03
3.407500000000000000e+02 5.639493931084871292e-03
3.419750061035156250e+02 5.654050037264823914e-03
3.432000122070312500e+02 5.455158185213804245e-03
3.444249877929687500e+02 5.348927341401576996e-03
3.456499938964843750e+02 5.277525633573532104e-03
3.468750000000000000e+02 5.106286611407995224e-03
3.481000061035156250e+02 5.019447300583124161e-03
3.493250122070312500e+02 4.925651475787162781e-03
3.505499877929687500e+02 4.901597276329994202e-03
3.517749938964843750e+02 4.889552947133779526e-03
3.530000000000000000e+02 4.849826917052268982e-03
3.542250061035156250e+02 4.801853559911251068e-03
3.554500122070312500e+02 4.734518006443977356e-03
3.566749877929687500e+02 4.583122674375772476e-03
3.578999938964843750e+02 4.487625323235988617e-03
3.591250000000000000e+02 4.270286299288272858e-03
3.603500061035156250e+02 4.173889756202697754e-03
3.615750122070312500e+02 4.080211278051137924e-03
3.627999877929687500e+02 4.002596717327833176e-03
3.640249938964843750e+02 3.936044406145811081e-03
3.652500000000000000e+02 3.911387175321578979e-03
3.664750061035156250e+02 3.861572127789258957e-03
3.677000122070312500e+02 3.756231395527720451e-03
3.689249877929687500e+02 3.656641580164432526e-03
3.701499938964843750e+02 3.494823817163705826e-03
3.713750000000000000e+02 3.404359798878431320e-03
3.726000061035156250e+02 3.236264921724796295e-03
3.738250122070312500e+02 3.082406939938664436e-03
3.750499877929687500e+02 2.991504035890102386e-03
3.762749938964843750e+02 2.918654587119817734e-03
3.775000000000000000e+02 2.813607454299926758e-03
3.787250061035156250e+02 2.759894356131553650e-03
3.799500122070312500e+02 2.606832422316074371e-03
3.811749877929687500e+02 2.479810733348131180e-03
3.823999938964843750e+02 2.307267393916845322e-03
3.836250000000000000e+02 2.113675465807318687e-03
3.848500061035156250e+02 1.903211232274770737e-03
3.860750122070312500e+02 1.721941633149981499e-03
3.872999877929687500e+02 1.515950774773955345e-03
3.885249938964843750e+02 1.306293183006346226e-03
3.897500000000000000e+02 1.125007052905857563e-03
3.909750061035156250e+02 9.854732779785990715e-04
3.922000122070312500e+02 8.056141668930649757e-04
3.934249877929687500e+02 6.457662093453109264e-04
3.946499938964843750e+02 5.358902271836996078e-04
3.958750000000000000e+02 4.033947479911148548e-04
3.971000061035156250e+02 3.004570316988974810e-04
3.983250122070312500e+02 2.423456608084961772e-04
3.995499877929687500e+02 1.798781158868223429e-04
4.007749938964843750e+02 1.307431230088695884e-04
4.020000000000000000e+02 1.068801866495050490e-04
4.032250061035156250e+02 7.908213592600077391e-05
4.044500122070312500e+02 5.863457045052200556e-05
4.056749877929687500e+02 4.683986480813473463e-05
4.068999938964843750e+02 3.394603845663368702e-05
4.081250000000000000e+02 2.444099845888558775e-05
4.093500061035156250e+02 1.945879193954169750e-05
4.105750122070312500e+02 1.389738827128894627e-05
4.117999877929687500e+02 1.026781228574691340e-05
4.130249938964843750e+02 8.214128683903254569e-06
4.142500000000000000e+02 6.206530542840482667e-06
4.154750061035156250e+02 4.753451776196015999e-06
4.167000122070312500e+02 4.051241376146208495e-06
4.179249877929687500e+02 3.173005552525864914e-06
4.191499938964843750e+02 2.564237547630909830e-06
4.203750000000000000e+02 2.231089183624135330e-06
4.216000061035156250e+02 1.990291366382734850e-06
4.228250122070312500e+02 1.621315277589019388e-06
4.240499877929687500e+02 1.476095803809585050e-06
4.252749938964843750e+02 1.407103809469845146e-06
4.265000000000000000e+02 1.334992703050374985e-06
4.277250061035156250e+02 1.298541974392719567e-06
4.289500122070312500e+02 1.243821770913200453e-06
4.301749877929687500e+02 1.241485279024345800e-06
4.313999938964843750e+02 1.157412953034508973e-06
4.326250000000000000e+02 1.153357061411952600e-06
4.338500061035156250e+02 1.100091594707919285e-06
4.350750122070312500e+02 1.098409029509639367e-06
4.362999877929687500e+02 1.077609795174794272e-06
4.375249938964843750e+02 1.123360107158077881e-06
4.387500000000000000e+02 1.030581643135519698e-06
4.399750061035156250e+02 1.073972271115053445e-06
4.412000122070312500e+02 1.015039742924273014e-06
4.424249877929687500e+02 1.090652858692919835e-06
4.436499938964843750e+02 1.088847511709900573e-06
4.448750000000000000e+02 9.903637874231208116e-07
4.461000061035156250e+02 1.021783646137919277e-06
4.473250122070312500e+02 9.926002348947804421e-07
4.485499877929687500e+02 1.017082013277104124e-06
4.497749938964843750e+02 1.014720055536599830e-06
4.510000000000000000e+02 9.683685675554443151e-07
4.522250061035156250e+02 1.045666522259125486e-06
4.534500122070312500e+02 9.722198228701017797e-07
4.546749877929687500e+02 9.194409358315169811e-07
4.558999938964843750e+02 9.867007975117303431e-07
4.571250000000000000e+02 1.005908870865823701e-06
4.583500061035156250e+02 1.055080247169826180e-06
4.595750122070312500e+02 9.850091373664326966e-07
4.607999877929687500e+02 9.372743079438805580e-07
4.620249938964843750e+02 9.482159839535597712e-07
4.632500000000000000e+02 9.399159353051800281e-07
4.644750061035156250e+02 9.231962394551374018e-07
4.657000122070312500e+02 9.160112313111312687e-07
4.669249877929687500e+02 9.547934496367815882e-07
4.681499938964843750e+02 9.346867955173365772e-07
4.693750000000000000e+02 9.245313776773400605e-07
4.706000061035156250e+02 8.615529623057227582e-07
4.718250122070312500e+02 8.661913852847646922e-07
4.730499877929687500e+02 8.922929737309459597e-07
4.742749938964843750e+02 8.128681656671687961e-07
4.755000000000000000e+02 8.863798939273692667e-07
4.767250061035156250e+02 8.210067790059838444e-07
4.779500122070312500e+02 8.355341378774028271e-07
4.791749877929687500e+02 8.307943062391132116e-07
4.803999938964843750e+02 8.652464202896226197e-07
4.816250000000000000e+02 8.512365639035124332e-07
4.828500061035156250e+02 7.743874448351562023e-07
4.840750122070312500e+02 8.236693247454240918e-07
4.852999877929687500e+02 8.614201760792639107e-07
4.865249938964843750e+02 8.142433216562494636e-07
4.877500000000000000e+02 7.427288437611423433e-07
4.889750061035156250e+02 8.043330126383807510e-07
4.902000122070312500e+02 8.203837751352693886e-07
4.914249877929687500e+02 7.882085810706485063e-07
4.926499938964843750e+02 7.992916835064534098e-07
4.938750000000000000e+02 7.813641786924563348e-07
4.951000061035156250e+02 8.659167178848292679e-07
4.963250122070312500e+02 7.898438525444362313e-07
4.975499877929687500e+02 7.449893928423989564e-07
4.987749938964843750e+02 7.363496479229070246e-07
5.000000000000000000e+02 7.683165677008219063e-07
