! FILETYPE CSV
! VERSION 3.0,1
! TIMESTAMP Wednesday, 09 August 2023 16:17:44
! TIMEZONE (UTC+10:00) Canberra, Melbourne, Sydney
! NAME Keysight Technologies
! MODEL N9914A
! SERIAL MY61272638
! FIRMWARE_VERSION A.12.45
! CORRECTION 
! Application SA
! SA Frequency Scan
!  CenterFreq 255000000
!  SpanFreq 490000000
!  Num TracePoints 401
!  ResolutionBW 1000000
!  VideoBW 10000
!  RF Attenuation 0
!  Preamp ON
!  External Gain 0
!  Detector Sample
!  TraceAvgCount 100 / 100
! Missing Trace TIMESTAMP... measurement incomplete... try using Single Sweep
! CHECKSUM 0070829653
! DATA Freq,SA Average,SA Blank,SA Blank,SA Blank
! FREQ UNIT Hz
! DATA UNIT dBm
BEGIN
10000000,-81.1412915458333,0,0,0
11225000,-79.0492133700202,0,0,0
12450000,-77.3802219705713,0,0,0
13675000,-75.1807264137022,0,0,0
14900000,-73.0556175640903,0,0,0
16125000,-71.5048626911784,0,0,0
17350000,-69.875953194409,0,0,0
18575000,-69.2966592782436,0,0,0
19800000,-69.0781557952818,0,0,0
21025000,-69.0491824676592,0,0,0
22250000,-69.0385172692237,0,0,0
23475000,-68.6912968574542,0,0,0
24700000,-68.084708854998,0,0,0
25925000,-67.2130947140569,0,0,0
27150000,-66.454664803716,0,0,0
28375000,-65.6065047104709,0,0,0
29600000,-65.0720669242328,0,0,0
30825000,-64.9354096584167,0,0,0
32050000,-65.1801374197285,0,0,0
33275000,-65.4464579604912,0,0,0
34500000,-65.6072472458893,0,0,0
35725000,-65.5894652605887,0,0,0
36950000,-65.2438767823245,0,0,0
38175000,-64.7502988797841,0,0,0
39400000,-64.450675983589,0,0,0
40625000,-63.8585150268161,0,0,0
41850000,-63.710562263301,0,0,0
43075000,-63.6286615314775,0,0,0
44300000,-63.7646084199481,0,0,0
45525000,-64.0195867215682,0,0,0
46750000,-64.2659157367993,0,0,0
47975000,-64.3299716056327,0,0,0
49200000,-64.136272280339,0,0,0
50425000,-63.9164172136208,0,0,0
51650000,-63.6038527326714,0,0,0
52875000,-63.195900781745,0,0,0
54100000,-63.1008749670899,0,0,0
55325000,-63.0473829603821,0,0,0
56550000,-63.0945568316098,0,0,0
57775000,-63.1645726965238,0,0,0
59000000,-63.2479230019049,0,0,0
60225000,-63.3084029608309,0,0,0
61450000,-63.4063957365939,0,0,0
62675000,-63.3531131979847,0,0,0
63900000,-62.987469101653,0,0,0
65125000,-62.7894450243482,0,0,0
66350000,-62.5889143252638,0,0,0
67575000,-62.5565587775371,0,0,0
68800000,-62.5466503567293,0,0,0
70025000,-62.5652131591194,0,0,0
71250000,-62.7747357160524,0,0,0
72475000,-62.7868441832962,0,0,0
73700000,-62.7685832832803,0,0,0
74925000,-62.7453351120613,0,0,0
76150000,-62.7138337450448,0,0,0
77375000,-62.4176355655569,0,0,0
78600000,-62.2536300283004,0,0,0
79825000,-62.1590201338954,0,0,0
81050000,-61.9836503838318,0,0,0
82275000,-62.0700395477382,0,0,0
83500000,-62.1601961878139,0,0,0
84725000,-62.2671445555846,0,0,0
85950000,-62.2649721063928,0,0,0
87175000,-62.3838793648858,0,0,0
88400000,-62.3380309399018,0,0,0
89625000,-62.27052743485,0,0,0
90850000,-62.0044479025575,0,0,0
92075000,-61.8926722564621,0,0,0
93300000,-61.8191754591285,0,0,0
94525000,-61.8252460530995,0,0,0
95750000,-61.8904025878783,0,0,0
96975000,-62.0340760680088,0,0,0
98200000,-62.1959768194438,0,0,0
99425000,-62.1960579772637,0,0,0
100650000,-62.3526551999563,0,0,0
101875000,-62.2310337700252,0,0,0
103100000,-62.1886064007817,0,0,0
104325000,-62.0070297829878,0,0,0
105550000,-61.9399435702088,0,0,0
106775000,-61.9309101215991,0,0,0
108000000,-61.7946541606621,0,0,0
109225000,-61.9009209949426,0,0,0
110450000,-61.9838761583641,0,0,0
111675000,-62.2671401017868,0,0,0
112900000,-62.262961802622,0,0,0
114125000,-62.2762167635011,0,0,0
115350000,-62.2378270052614,0,0,0
116575000,-62.1651768328238,0,0,0
117800000,-62.188358285481,0,0,0
119025000,-62.0334260557379,0,0,0
120250000,-62.0558592676499,0,0,0
121475000,-62.0649569929039,0,0,0
122700000,-62.2690867011394,0,0,0
123925000,-62.3800385161576,0,0,0
125150000,-62.4102300089834,0,0,0
126375000,-62.3759175849803,0,0,0
127600000,-62.4620900680647,0,0,0
128825000,-62.3602174462745,0,0,0
130050000,-62.316306303811,0,0,0
131275000,-62.1747665258533,0,0,0
132500000,-62.1129334484164,0,0,0
133725000,-62.1148007849567,0,0,0
134950000,-62.1961503111317,0,0,0
136175000,-62.3795631933081,0,0,0
137400000,-62.4696327154043,0,0,0
138625000,-62.5828940699193,0,0,0
139850000,-62.4539679729239,0,0,0
141075000,-62.6116010675245,0,0,0
142300000,-62.3572308085869,0,0,0
143525000,-62.1872138868488,0,0,0
144750000,-62.1676160150897,0,0,0
145975000,-62.2274366046189,0,0,0
147200000,-62.2436831663473,0,0,0
148425000,-62.4303131847513,0,0,0
149650000,-62.5129674548983,0,0,0
150875000,-62.6302455577756,0,0,0
152100000,-62.5171724057987,0,0,0
153325000,-62.4468179973642,0,0,0
154550000,-62.5110220320528,0,0,0
155775000,-62.353322891809,0,0,0
157000000,-62.2220302766278,0,0,0
158225000,-62.1157411317414,0,0,0
159450000,-62.1915629225264,0,0,0
160675000,-62.3953510926595,0,0,0
161900000,-62.4136382938355,0,0,0
163125000,-62.5834069060561,0,0,0
164350000,-62.5808201403456,0,0,0
165575000,-62.4742605680371,0,0,0
166800000,-62.4799295699963,0,0,0
168025000,-62.3402639551576,0,0,0
169250000,-62.2487365358345,0,0,0
170475000,-62.3217685525418,0,0,0
171700000,-62.2076886652193,0,0,0
172925000,-62.3793358545493,0,0,0
174150000,-62.5716724997885,0,0,0
175375000,-62.6596685942385,0,0,0
176600000,-62.6638852164943,0,0,0
177825000,-62.7034353095246,0,0,0
179050000,-62.6792622640295,0,0,0
180275000,-62.6227787494862,0,0,0
181500000,-62.4612832637042,0,0,0
182725000,-62.3691165733494,0,0,0
183950000,-62.3188178510241,0,0,0
185175000,-62.3659101136911,0,0,0
186400000,-62.4639998434026,0,0,0
187625000,-62.6783452367626,0,0,0
188850000,-62.7880124259861,0,0,0
190075000,-62.7422800368528,0,0,0
191300000,-62.7840219486485,0,0,0
192525000,-62.678609921533,0,0,0
193750000,-62.6767125659002,0,0,0
194975000,-62.5411897983389,0,0,0
196200000,-62.4034560495815,0,0,0
197425000,-62.5203986352907,0,0,0
198650000,-62.5933950593907,0,0,0
199875000,-62.721404948979,0,0,0
201100000,-62.7508114816105,0,0,0
202325000,-62.9155206990007,0,0,0
203550000,-62.9123219303232,0,0,0
204775000,-62.8082014893322,0,0,0
206000000,-62.7882188392979,0,0,0
207225000,-62.6436761601015,0,0,0
208450000,-62.6779166945934,0,0,0
209675000,-62.7249042514685,0,0,0
210900000,-62.7665643031357,0,0,0
212125000,-62.9428199441973,0,0,0
213350000,-63.0247385395509,0,0,0
214575000,-63.0260887877985,0,0,0
215800000,-63.184327780284,0,0,0
217025000,-63.0958774468505,0,0,0
218250000,-63.0469440137703,0,0,0
219475000,-62.8442105041677,0,0,0
220700000,-62.9086260928292,0,0,0
221925000,-62.8882119222735,0,0,0
223150000,-63.0377009146173,0,0,0
224375000,-63.0032092166035,0,0,0
225600000,-63.234550518251,0,0,0
226825000,-63.3026823065856,0,0,0
228050000,-63.3284419569429,0,0,0
229275000,-63.3458427395691,0,0,0
230500000,-63.1452854334598,0,0,0
231725000,-63.1833800477416,0,0,0
232950000,-63.1345899906604,0,0,0
234175000,-63.0748826671834,0,0,0
235400000,-63.1983002370119,0,0,0
236625000,-63.2479119603987,0,0,0
237850000,-63.3395367260905,0,0,0
239075000,-63.3687966207307,0,0,0
240300000,-63.5929349702146,0,0,0
241525000,-63.5078484354059,0,0,0
242750000,-63.5653599961736,0,0,0
243975000,-63.3666275232117,0,0,0
245200000,-63.2104836110089,0,0,0
246425000,-63.2688315449922,0,0,0
247650000,-63.343894743896,0,0,0
248875000,-63.3504842729794,0,0,0
250100000,-63.520003570653,0,0,0
251325000,-63.6760175169228,0,0,0
252550000,-63.72170827559,0,0,0
253775000,-63.8255232787305,0,0,0
255000000,-63.7100127383507,0,0,0
256225000,-63.6706947995422,0,0,0
257450000,-63.5552541377635,0,0,0
258675000,-63.5484530710423,0,0,0
259900000,-63.4835767099541,0,0,0
261125000,-63.5780145430789,0,0,0
262350000,-63.6886647266715,0,0,0
263575000,-63.7718296153333,0,0,0
264800000,-63.8962114226557,0,0,0
266025000,-63.9425993501731,0,0,0
267250000,-63.9072225673722,0,0,0
268475000,-63.8808922175214,0,0,0
269700000,-63.8708234499555,0,0,0
270925000,-63.7333037057633,0,0,0
272150000,-63.7285886475168,0,0,0
273375000,-63.9044974897239,0,0,0
274600000,-63.9006632874256,0,0,0
275825000,-64.0326867169553,0,0,0
277050000,-64.1462790662321,0,0,0
278275000,-64.2315624209043,0,0,0
279500000,-64.3550798351378,0,0,0
280725000,-64.272377902243,0,0,0
281950000,-64.2031748778601,0,0,0
283175000,-64.1225853560473,0,0,0
284400000,-64.1769967536296,0,0,0
285625000,-64.0989070159637,0,0,0
286850000,-64.2281858877673,0,0,0
288075000,-64.415873886594,0,0,0
289300000,-64.5540262135097,0,0,0
290525000,-64.6042747820185,0,0,0
291750000,-64.5350480844331,0,0,0
292975000,-64.6462131683277,0,0,0
294200000,-64.6597998195621,0,0,0
295425000,-64.5033041199653,0,0,0
296650000,-64.3985279548332,0,0,0
297875000,-64.6035492446912,0,0,0
299100000,-64.5841010620671,0,0,0
300325000,-64.7148215733665,0,0,0
301550000,-64.930066003579,0,0,0
302775000,-64.9231038880208,0,0,0
304000000,-65.0260420764851,0,0,0
305225000,-65.0974154135151,0,0,0
306450000,-65.1124348386206,0,0,0
307675000,-64.9454177316702,0,0,0
308900000,-64.9216764892434,0,0,0
310125000,-64.8296171593916,0,0,0
311350000,-64.9828527719305,0,0,0
312575000,-65.0236601557505,0,0,0
313800000,-65.2300720066901,0,0,0
315025000,-65.2079994183721,0,0,0
316250000,-65.3762351888504,0,0,0
317475000,-65.2631186979906,0,0,0
318700000,-65.4313208873945,0,0,0
319925000,-65.2882581869374,0,0,0
321150000,-65.3118257680825,0,0,0
322375000,-65.263092752188,0,0,0
323600000,-65.362970640737,0,0,0
324825000,-65.3368515813106,0,0,0
326050000,-65.3921247692743,0,0,0
327275000,-65.6376875440784,0,0,0
328500000,-65.6828077328211,0,0,0
329725000,-65.7653538304456,0,0,0
330950000,-65.5726572985231,0,0,0
332175000,-65.7151761110233,0,0,0
333400000,-65.6779172060969,0,0,0
334625000,-65.4324150218748,0,0,0
335850000,-65.662497262455,0,0,0
337075000,-65.6805613646232,0,0,0
338300000,-65.8245875298187,0,0,0
339525000,-66.0296250700671,0,0,0
340750000,-66.0668494498165,0,0,0
341975000,-66.0762904380707,0,0,0
343200000,-66.1882787374382,0,0,0
344425000,-65.9928100306318,0,0,0
345650000,-66.007697476681,0,0,0
346875000,-66.0971304105024,0,0,0
348100000,-66.0575240337366,0,0,0
349325000,-66.0401483284496,0,0,0
350550000,-66.1499313211488,0,0,0
351775000,-66.3100667599128,0,0,0
353000000,-66.3551165201809,0,0,0
354225000,-66.5324155661489,0,0,0
355450000,-66.4169543521901,0,0,0
356675000,-66.4502594771574,0,0,0
357900000,-66.3377618318262,0,0,0
359125000,-66.3460949383007,0,0,0
360350000,-66.4120468020127,0,0,0
361575000,-66.3478761851585,0,0,0
362800000,-66.4589025472611,0,0,0
364025000,-66.5652708090697,0,0,0
365250000,-66.5773587797556,0,0,0
366475000,-66.8199262815616,0,0,0
367700000,-66.7338340068605,0,0,0
368925000,-66.7143022912618,0,0,0
370150000,-66.686937111058,0,0,0
371375000,-66.7485175349619,0,0,0
372600000,-66.6291298868915,0,0,0
373825000,-66.7285115525081,0,0,0
375050000,-66.8317251322833,0,0,0
376275000,-66.8447471342933,0,0,0
377500000,-66.9555628160378,0,0,0
378725000,-66.8763949547912,0,0,0
379950000,-67.1547376096177,0,0,0
381175000,-67.1348593307007,0,0,0
382400000,-67.0775182304117,0,0,0
383625000,-67.0772659911828,0,0,0
384850000,-66.9944705696477,0,0,0
386075000,-66.96594367828,0,0,0
387300000,-67.011065973291,0,0,0
388525000,-67.0408495745227,0,0,0
389750000,-67.1785481629974,0,0,0
390975000,-67.3400647459877,0,0,0
392200000,-67.3048962643692,0,0,0
393425000,-67.2900140187385,0,0,0
394650000,-67.3382228916804,0,0,0
395875000,-67.1568968069947,0,0,0
397100000,-67.2503015203725,0,0,0
398325000,-67.1652134471673,0,0,0
399550000,-67.2226438082703,0,0,0
400775000,-67.3787759486668,0,0,0
402000000,-67.4673841713107,0,0,0
403225000,-67.5684339834189,0,0,0
404450000,-67.6388496527159,0,0,0
405675000,-67.6774271535782,0,0,0
406900000,-67.630747815197,0,0,0
408125000,-67.5609016284062,0,0,0
409350000,-67.5327312994215,0,0,0
410575000,-67.5005713000281,0,0,0
411800000,-67.6031293922852,0,0,0
413025000,-67.6543456421435,0,0,0
414250000,-67.7328704328665,0,0,0
415475000,-67.8510217789798,0,0,0
416700000,-67.9994763734695,0,0,0
417925000,-68.0207905386872,0,0,0
419150000,-68.0996941578498,0,0,0
420375000,-68.1246135339902,0,0,0
421600000,-68.0028944850441,0,0,0
422825000,-68.0919342607376,0,0,0
424050000,-68.0288476140057,0,0,0
425275000,-68.1541276861952,0,0,0
426500000,-68.3787163760161,0,0,0
427725000,-68.4629875145463,0,0,0
428950000,-68.714896090297,0,0,0
430175000,-68.740940762291,0,0,0
431400000,-68.9120273379341,0,0,0
432625000,-68.9645115452676,0,0,0
433850000,-68.9335579953479,0,0,0
435075000,-68.9573814879425,0,0,0
436300000,-69.1023540453677,0,0,0
437525000,-69.2605574425907,0,0,0
438750000,-69.3773003668828,0,0,0
439975000,-69.5873606501603,0,0,0
441200000,-69.810950878306,0,0,0
442425000,-69.9908765798284,0,0,0
443650000,-70.1405568985064,0,0,0
444875000,-70.3249635036013,0,0,0
446100000,-70.3503347966742,0,0,0
447325000,-70.5022194727609,0,0,0
448550000,-70.6151716785138,0,0,0
449775000,-70.6758093898842,0,0,0
451000000,-70.9421903261981,0,0,0
452225000,-71.164330422891,0,0,0
453450000,-71.3972129551956,0,0,0
454675000,-71.5994892558951,0,0,0
455900000,-71.8036489787088,0,0,0
457125000,-71.9070029685472,0,0,0
458350000,-72.0945762595915,0,0,0
459575000,-72.0461319107702,0,0,0
460800000,-72.2357244385155,0,0,0
462025000,-72.323620627044,0,0,0
463250000,-72.6120856059576,0,0,0
464475000,-72.708488493304,0,0,0
465700000,-72.9580720445753,0,0,0
466925000,-73.1140079713198,0,0,0
468150000,-73.3049095680194,0,0,0
469375000,-73.3779059768961,0,0,0
470600000,-73.5189444065236,0,0,0
471825000,-73.6322857571522,0,0,0
473050000,-73.5701529686472,0,0,0
474275000,-73.7353788858993,0,0,0
475500000,-73.8250121033022,0,0,0
476725000,-73.8940830920247,0,0,0
477950000,-74.0677476516555,0,0,0
479175000,-74.1725072241756,0,0,0
480400000,-74.3672329103688,0,0,0
481625000,-74.4572215915711,0,0,0
482850000,-74.4881016831783,0,0,0
484075000,-74.4792455638721,0,0,0
485300000,-74.5166982681757,0,0,0
486525000,-74.5201091525567,0,0,0
487750000,-74.5409617251152,0,0,0
488975000,-74.6339208021249,0,0,0
490200000,-74.8082278731652,0,0,0
491425000,-74.9830957159823,0,0,0
492650000,-75.0792916139366,0,0,0
493875000,-75.1726586225322,0,0,0
495100000,-75.1262774584377,0,0,0
496325000,-75.0630304968382,0,0,0
497550000,-75.0750597329761,0,0,0
498775000,-75.1175294060952,0,0,0
500000000,-75.0664553103722,0,0,0
END
