! FILETYPE CSV
! VERSION 3.0,1
! TIMESTAMP Wednesday, 09 August 2023 16:09:24
! TIMEZONE (UTC+10:00) Canberra, Melbourne, Sydney
! NAME Keysight Technologies
! MODEL N9914A
! SERIAL MY61272638
! FIRMWARE_VERSION A.12.45
! CORRECTION 
! Application SA
! SA Frequency Scan
!  CenterFreq 255000000
!  SpanFreq 490000000
!  Num TracePoints 401
!  ResolutionBW 1000000
!  VideoBW 10000
!  RF Attenuation 0
!  Preamp ON
!  External Gain 0
!  Detector Sample
!  TraceAvgCount 100 / 100
! Missing Trace TIMESTAMP... measurement incomplete... try using Single Sweep
! CHECKSUM 0453019161
! DATA Freq,SA Average,SA Blank,SA Blank,SA Blank
! FREQ UNIT Hz
! DATA UNIT dBm
BEGIN
10000000,-80.3910450801038,0,0,0
11225000,-78.3349922493526,0,0,0
12450000,-76.7205582440749,0,0,0
13675000,-74.5344611706454,0,0,0
14900000,-72.2917868118912,0,0,0
16125000,-70.8003834962409,0,0,0
17350000,-69.2941860974956,0,0,0
18575000,-68.5963715850561,0,0,0
19800000,-68.4165586289306,0,0,0
21025000,-68.4150504904327,0,0,0
22250000,-68.2978804175058,0,0,0
23475000,-68.167456018811,0,0,0
24700000,-67.5704837002926,0,0,0
25925000,-66.5559784551328,0,0,0
27150000,-65.9455480010599,0,0,0
28375000,-65.0896680485268,0,0,0
29600000,-64.4730874973642,0,0,0
30825000,-64.4100656018849,0,0,0
32050000,-64.502130427491,0,0,0
33275000,-64.7999844212483,0,0,0
34500000,-65.0764679501153,0,0,0
35725000,-65.0635772272215,0,0,0
36950000,-64.8356799651489,0,0,0
38175000,-64.2990288531624,0,0,0
39400000,-63.9872433052895,0,0,0
40625000,-63.3370102842874,0,0,0
41850000,-63.0914356279604,0,0,0
43075000,-63.0750574510009,0,0,0
44300000,-63.2486824113883,0,0,0
45525000,-63.5137590804242,0,0,0
46750000,-63.6018999546069,0,0,0
47975000,-63.7088604191082,0,0,0
49200000,-63.5108856543577,0,0,0
50425000,-63.3950562660181,0,0,0
51650000,-62.9940898572736,0,0,0
52875000,-62.620456346809,0,0,0
54100000,-62.4496961393501,0,0,0
55325000,-62.3153015211811,0,0,0
56550000,-62.3910129785899,0,0,0
57775000,-62.5203014170231,0,0,0
59000000,-62.7211577576183,0,0,0
60225000,-62.7726058945632,0,0,0
61450000,-62.8056136396646,0,0,0
62675000,-62.6649593282031,0,0,0
63900000,-62.3018258400045,0,0,0
65125000,-62.1708462082391,0,0,0
66350000,-61.9425222898887,0,0,0
67575000,-61.9021765292489,0,0,0
68800000,-61.8357300008387,0,0,0
70025000,-61.8930273265301,0,0,0
71250000,-62.1451217718422,0,0,0
72475000,-62.1565933645543,0,0,0
73700000,-62.1380078355967,0,0,0
74925000,-62.0261708884998,0,0,0
76150000,-62.0616772932601,0,0,0
77375000,-61.8706795734798,0,0,0
78600000,-61.7000119756568,0,0,0
79825000,-61.5450111900976,0,0,0
81050000,-61.341587861397,0,0,0
82275000,-61.3792548781858,0,0,0
83500000,-61.5348981756991,0,0,0
84725000,-61.630217142298,0,0,0
85950000,-61.6696708863057,0,0,0
87175000,-61.824182589658,0,0,0
88400000,-61.6922996346515,0,0,0
89625000,-61.6035139720414,0,0,0
90850000,-61.4970379185234,0,0,0
92075000,-61.268569319826,0,0,0
93300000,-61.2657025161067,0,0,0
94525000,-61.1909784226371,0,0,0
95750000,-61.369435238759,0,0,0
96975000,-61.4287508373099,0,0,0
98200000,-61.6375501956289,0,0,0
99425000,-61.5322827043395,0,0,0
100650000,-61.6877728989114,0,0,0
101875000,-61.5372975851715,0,0,0
103100000,-61.4219884253086,0,0,0
104325000,-61.4085428104076,0,0,0
105550000,-61.3212812457816,0,0,0
106775000,-61.250322041199,0,0,0
108000000,-61.1560813361479,0,0,0
109225000,-61.412302518677,0,0,0
110450000,-61.4182382521131,0,0,0
111675000,-61.5815125318738,0,0,0
112900000,-61.6762555306125,0,0,0
114125000,-61.6278223644992,0,0,0
115350000,-61.6471352703707,0,0,0
116575000,-61.5095962102152,0,0,0
117800000,-61.5313880415948,0,0,0
119025000,-61.3930552996921,0,0,0
120250000,-61.3550218228392,0,0,0
121475000,-61.5619717381619,0,0,0
122700000,-61.6466733606791,0,0,0
123925000,-61.79146779511,0,0,0
125150000,-61.8504985593181,0,0,0
126375000,-61.8460478812462,0,0,0
127600000,-61.9452807738965,0,0,0
128825000,-61.7816986714451,0,0,0
130050000,-61.7258881393292,0,0,0
131275000,-61.6320456338244,0,0,0
132500000,-61.4867034804847,0,0,0
133725000,-61.511302089852,0,0,0
134950000,-61.731132800806,0,0,0
136175000,-61.826926955367,0,0,0
137400000,-62.0148634593356,0,0,0
138625000,-61.9866547323004,0,0,0
139850000,-61.8111311737071,0,0,0
141075000,-61.9348071585092,0,0,0
142300000,-61.8385504998976,0,0,0
143525000,-61.6253995779011,0,0,0
144750000,-61.6375800926533,0,0,0
145975000,-61.5586633053388,0,0,0
147200000,-61.6301610349152,0,0,0
148425000,-61.7422206278162,0,0,0
149650000,-61.852546467715,0,0,0
150875000,-61.8387426063625,0,0,0
152100000,-61.8420144962454,0,0,0
153325000,-61.902298570319,0,0,0
154550000,-61.7037352114687,0,0,0
155775000,-61.5685587563879,0,0,0
157000000,-61.5904546139052,0,0,0
158225000,-61.4680705504951,0,0,0
159450000,-61.5347921122499,0,0,0
160675000,-61.7922281448163,0,0,0
161900000,-61.798856066083,0,0,0
163125000,-61.8895201871667,0,0,0
164350000,-62.0109983813825,0,0,0
165575000,-61.9829695468229,0,0,0
166800000,-61.7821645887247,0,0,0
168025000,-61.6906572157035,0,0,0
169250000,-61.6676883110643,0,0,0
170475000,-61.6011501385839,0,0,0
171700000,-61.6884839086324,0,0,0
172925000,-61.8089809138585,0,0,0
174150000,-61.8740819340537,0,0,0
175375000,-61.9731898606625,0,0,0
176600000,-62.0659216046248,0,0,0
177825000,-61.9135152569967,0,0,0
179050000,-61.9557257890545,0,0,0
180275000,-61.8000294852252,0,0,0
181500000,-61.7850605460417,0,0,0
182725000,-61.6562831755645,0,0,0
183950000,-61.7514472199224,0,0,0
185175000,-61.8189835122527,0,0,0
186400000,-61.9591955795605,0,0,0
187625000,-62.0534827491275,0,0,0
188850000,-62.2103463485,0,0,0
190075000,-62.1546023447342,0,0,0
191300000,-62.1164973596626,0,0,0
192525000,-61.988391381584,0,0,0
193750000,-61.9125840996184,0,0,0
194975000,-61.8220365456053,0,0,0
196200000,-61.7999701391323,0,0,0
197425000,-61.8623596799993,0,0,0
198650000,-62.0411391874685,0,0,0
199875000,-62.1876837088938,0,0,0
201100000,-62.202746625585,0,0,0
202325000,-62.3349241345416,0,0,0
203550000,-62.1812949864209,0,0,0
204775000,-62.0999137288299,0,0,0
206000000,-62.0404809226853,0,0,0
207225000,-62.0844940749087,0,0,0
208450000,-62.0628682845828,0,0,0
209675000,-61.981119375606,0,0,0
210900000,-62.0937839526063,0,0,0
212125000,-62.2540768676709,0,0,0
213350000,-62.3737154725865,0,0,0
214575000,-62.5499833689972,0,0,0
215800000,-62.467353047561,0,0,0
217025000,-62.381644327353,0,0,0
218250000,-62.2517254142113,0,0,0
219475000,-62.2346929691635,0,0,0
220700000,-62.1845523654009,0,0,0
221925000,-62.1423173951023,0,0,0
223150000,-62.2920296158311,0,0,0
224375000,-62.4506632097682,0,0,0
225600000,-62.5957765151844,0,0,0
226825000,-62.6199846743698,0,0,0
228050000,-62.5336550406369,0,0,0
229275000,-62.4914840350911,0,0,0
230500000,-62.5334554115468,0,0,0
231725000,-62.4333400789237,0,0,0
232950000,-62.349205998689,0,0,0
234175000,-62.3656001261415,0,0,0
235400000,-62.4540328581726,0,0,0
236625000,-62.5264446287831,0,0,0
237850000,-62.6932941529598,0,0,0
239075000,-62.7369892167196,0,0,0
240300000,-62.7149308822518,0,0,0
241525000,-62.7610017344202,0,0,0
242750000,-62.7378508783001,0,0,0
243975000,-62.681688152503,0,0,0
245200000,-62.5568946620034,0,0,0
246425000,-62.4246452726684,0,0,0
247650000,-62.6106089888832,0,0,0
248875000,-62.6226909277518,0,0,0
250100000,-62.6643595722116,0,0,0
251325000,-62.9081978704932,0,0,0
252550000,-62.914658825,0,0,0
253775000,-62.8902736159246,0,0,0
255000000,-62.8512378577589,0,0,0
256225000,-62.9695009989707,0,0,0
257450000,-62.7104941393816,0,0,0
258675000,-62.8463801826463,0,0,0
259900000,-62.6919440587508,0,0,0
261125000,-62.9089818191833,0,0,0
262350000,-63.0732908804661,0,0,0
263575000,-63.0711604607732,0,0,0
264800000,-63.3611927559447,0,0,0
266025000,-63.2550688592382,0,0,0
267250000,-63.3885476893584,0,0,0
268475000,-63.2911292258891,0,0,0
269700000,-63.2575476315985,0,0,0
270925000,-63.1947817005375,0,0,0
272150000,-63.1456099099616,0,0,0
273375000,-63.1716782747375,0,0,0
274600000,-63.3531926085719,0,0,0
275825000,-63.4347712413245,0,0,0
277050000,-63.5872041297388,0,0,0
278275000,-63.7011869014975,0,0,0
279500000,-63.6359169208642,0,0,0
280725000,-63.7231238223247,0,0,0
281950000,-63.5831062287965,0,0,0
283175000,-63.8187608427851,0,0,0
284400000,-63.7414366430275,0,0,0
285625000,-63.7760892874689,0,0,0
286850000,-63.9491682962697,0,0,0
288075000,-63.9689787642805,0,0,0
289300000,-64.0690503368587,0,0,0
290525000,-64.2117652169908,0,0,0
291750000,-64.1710862329722,0,0,0
292975000,-64.2421837711175,0,0,0
294200000,-64.1726267055702,0,0,0
295425000,-64.0669596735492,0,0,0
296650000,-64.1554813962821,0,0,0
297875000,-64.0577553183163,0,0,0
299100000,-64.162543566488,0,0,0
300325000,-64.266662421527,0,0,0
301550000,-64.3686847818657,0,0,0
302775000,-64.464657936462,0,0,0
304000000,-64.5455395467005,0,0,0
305225000,-64.5459973920187,0,0,0
306450000,-64.5835934982894,0,0,0
307675000,-64.4980180667711,0,0,0
308900000,-64.3821723155318,0,0,0
310125000,-64.343086061662,0,0,0
311350000,-64.6148133123818,0,0,0
312575000,-64.5848734137497,0,0,0
313800000,-64.7728031442007,0,0,0
315025000,-64.7684613839243,0,0,0
316250000,-64.7369552469541,0,0,0
317475000,-64.8381165437992,0,0,0
318700000,-64.8651748928458,0,0,0
319925000,-64.662038734691,0,0,0
321150000,-64.6895214943883,0,0,0
322375000,-64.6168334683041,0,0,0
323600000,-64.7205299594663,0,0,0
324825000,-64.7235698290706,0,0,0
326050000,-64.7518871686467,0,0,0
327275000,-64.9637124661113,0,0,0
328500000,-65.1018511258842,0,0,0
329725000,-65.2404437763317,0,0,0
330950000,-65.1582012536553,0,0,0
332175000,-65.0912839676045,0,0,0
333400000,-65.0174992092446,0,0,0
334625000,-64.9178071531758,0,0,0
335850000,-65.0816186723375,0,0,0
337075000,-65.1132160573935,0,0,0
338300000,-65.2182302357354,0,0,0
339525000,-65.4959912057848,0,0,0
340750000,-65.3698301211136,0,0,0
341975000,-65.4036686991329,0,0,0
343200000,-65.3828807529636,0,0,0
344425000,-65.384601842005,0,0,0
345650000,-65.4210871421495,0,0,0
346875000,-65.3942634452197,0,0,0
348100000,-65.4501432414354,0,0,0
349325000,-65.5265958709956,0,0,0
350550000,-65.5560322395737,0,0,0
351775000,-65.832600289334,0,0,0
353000000,-65.8642047106349,0,0,0
354225000,-65.8822370977125,0,0,0
355450000,-65.83095493732,0,0,0
356675000,-65.8454012020391,0,0,0
357900000,-65.7723544628052,0,0,0
359125000,-65.867730760416,0,0,0
360350000,-65.8268194938797,0,0,0
361575000,-65.8566695775557,0,0,0
362800000,-65.9553262221194,0,0,0
364025000,-66.049239010548,0,0,0
365250000,-66.1718668626677,0,0,0
366475000,-66.2758949310175,0,0,0
367700000,-66.2741534710762,0,0,0
368925000,-66.28593593522,0,0,0
370150000,-66.1750380884488,0,0,0
371375000,-66.2114568770027,0,0,0
372600000,-66.1980508903579,0,0,0
373825000,-66.3737665968454,0,0,0
375050000,-66.3264579430326,0,0,0
376275000,-66.3762706845766,0,0,0
377500000,-66.4078167606559,0,0,0
378725000,-66.5673148330298,0,0,0
379950000,-66.569396146757,0,0,0
381175000,-66.5161207123506,0,0,0
382400000,-66.5196082075112,0,0,0
383625000,-66.5619073179234,0,0,0
384850000,-66.4868552546306,0,0,0
386075000,-66.4762408720679,0,0,0
387300000,-66.6231101894267,0,0,0
388525000,-66.7776600917498,0,0,0
389750000,-66.7168314876278,0,0,0
390975000,-66.8491568235069,0,0,0
392200000,-66.7892391538875,0,0,0
393425000,-66.9396370779046,0,0,0
394650000,-66.9216129849854,0,0,0
395875000,-66.7801410520646,0,0,0
397100000,-66.8377655533018,0,0,0
398325000,-66.8736994254678,0,0,0
399550000,-66.7839306406151,0,0,0
400775000,-66.7892726845206,0,0,0
402000000,-67.0760325318929,0,0,0
403225000,-67.077618349738,0,0,0
404450000,-67.1188591607712,0,0,0
405675000,-67.1111129323513,0,0,0
406900000,-67.1457256442798,0,0,0
408125000,-67.1082777893705,0,0,0
409350000,-67.0807387464695,0,0,0
410575000,-67.071880569041,0,0,0
411800000,-67.0736958811293,0,0,0
413025000,-67.0636931955539,0,0,0
414250000,-67.3115261817708,0,0,0
415475000,-67.2954609291343,0,0,0
416700000,-67.5424570613396,0,0,0
417925000,-67.5681144347742,0,0,0
419150000,-67.6239828310093,0,0,0
420375000,-67.5140512375335,0,0,0
421600000,-67.5011264746834,0,0,0
422825000,-67.5435459470257,0,0,0
424050000,-67.593739077162,0,0,0
425275000,-67.7138742914194,0,0,0
426500000,-67.8001656472519,0,0,0
427725000,-67.931776397762,0,0,0
428950000,-68.0776651037553,0,0,0
430175000,-68.3181199030042,0,0,0
431400000,-68.3912765574111,0,0,0
432625000,-68.3833220775667,0,0,0
433850000,-68.3733486974545,0,0,0
435075000,-68.4341844348734,0,0,0
436300000,-68.5264691498788,0,0,0
437525000,-68.6776216460507,0,0,0
438750000,-68.9331354050459,0,0,0
439975000,-69.0797866225112,0,0,0
441200000,-69.3963311985953,0,0,0
442425000,-69.5639900621116,0,0,0
443650000,-69.646723266659,0,0,0
444875000,-69.861113767633,0,0,0
446100000,-69.9762153289036,0,0,0
447325000,-70.0380629857613,0,0,0
448550000,-70.2537902591634,0,0,0
449775000,-70.2800652171773,0,0,0
451000000,-70.6351385143737,0,0,0
452225000,-70.8159340007773,0,0,0
453450000,-71.1164767644808,0,0,0
454675000,-71.4151031297055,0,0,0
455900000,-71.6199846242308,0,0,0
457125000,-71.8604299426717,0,0,0
458350000,-71.7895295386535,0,0,0
459575000,-72.1344490243275,0,0,0
460800000,-72.0765076541425,0,0,0
462025000,-72.1952589050847,0,0,0
463250000,-72.5104836149709,0,0,0
464475000,-72.6579706770046,0,0,0
465700000,-72.9191494102975,0,0,0
466925000,-73.1531892940406,0,0,0
468150000,-73.2673973598549,0,0,0
469375000,-73.4362515078095,0,0,0
470600000,-73.4977590901047,0,0,0
471825000,-73.668784009797,0,0,0
473050000,-73.5746220236916,0,0,0
474275000,-73.7041697188399,0,0,0
475500000,-73.8066608031298,0,0,0
476725000,-73.8820891336301,0,0,0
477950000,-74.0004639935875,0,0,0
479175000,-74.3578919105931,0,0,0
480400000,-74.3325713086238,0,0,0
481625000,-74.4508671681663,0,0,0
482850000,-74.5624134441819,0,0,0
484075000,-74.4833380691182,0,0,0
485300000,-74.4944474655854,0,0,0
486525000,-74.4519233494368,0,0,0
487750000,-74.622478705487,0,0,0
488975000,-74.7038653965737,0,0,0
490200000,-74.7997997067589,0,0,0
491425000,-74.9555856936143,0,0,0
492650000,-75.0064978599001,0,0,0
493875000,-75.0721870408047,0,0,0
495100000,-75.122159759751,0,0,0
496325000,-75.1506227419567,0,0,0
497550000,-75.0642641079214,0,0,0
498775000,-75.0029405781471,0,0,0
500000000,-75.1258886671079,0,0,0
END
