! FILETYPE CSV
! VERSION 3.0,1
! TIMESTAMP Wednesday, 09 August 2023 16:00:05
! TIMEZONE (UTC+10:00) Canberra, Melbourne, Sydney
! NAME Keysight Technologies
! MODEL N9914A
! SERIAL MY61272638
! FIRMWARE_VERSION A.12.45
! CORRECTION 
! Application SA
! SA Frequency Scan
!  CenterFreq 255000000
!  SpanFreq 490000000
!  Num TracePoints 401
!  ResolutionBW 1000000
!  VideoBW 10000
!  RF Attenuation 0
!  Preamp ON
!  External Gain 0
!  Detector Sample
!  TraceAvgCount 100 / 100
! Trace TIMESTAMP: 2023-08-09 16:00:05Z
! Trace GPS Info...
! GPS Latitude: 
! GPS Longitude: 
! GPS Elevation (m): 
! GPS Seconds Since Last Read: 
! CHECKSUM 1957795934
! DATA Freq,SA Average,SA Blank,SA Blank,SA Blank
! FREQ UNIT Hz
! DATA UNIT dBm
BEGIN
10000000,-80.2940289173961,0,0,0
11225000,-78.2718721999825,0,0,0
12450000,-76.6685932631691,0,0,0
13675000,-74.4851193062653,0,0,0
14900000,-72.3927035908729,0,0,0
16125000,-70.8097776416369,0,0,0
17350000,-69.3158700514151,0,0,0
18575000,-68.6422893324698,0,0,0
19800000,-68.5186603515556,0,0,0
21025000,-68.4767299613679,0,0,0
22250000,-68.4017212653719,0,0,0
23475000,-68.2948921678517,0,0,0
24700000,-67.5299310518794,0,0,0
25925000,-66.6914256025245,0,0,0
27150000,-65.9876848673427,0,0,0
28375000,-65.0800603461517,0,0,0
29600000,-64.5742793457722,0,0,0
30825000,-64.4760541339304,0,0,0
32050000,-64.6247438242477,0,0,0
33275000,-64.939727664447,0,0,0
34500000,-65.0921713619351,0,0,0
35725000,-65.1539463673111,0,0,0
36950000,-64.8507757346359,0,0,0
38175000,-64.3748025096277,0,0,0
39400000,-63.9541061570766,0,0,0
40625000,-63.5227085967594,0,0,0
41850000,-63.1058979033427,0,0,0
43075000,-63.1884996947666,0,0,0
44300000,-63.2531175373433,0,0,0
45525000,-63.5321880229419,0,0,0
46750000,-63.71850060811,0,0,0
47975000,-63.6920650387342,0,0,0
49200000,-63.6237902588257,0,0,0
50425000,-63.4170236990327,0,0,0
51650000,-63.0377175491836,0,0,0
52875000,-62.5952694134519,0,0,0
54100000,-62.4461394326565,0,0,0
55325000,-62.5033487782115,0,0,0
56550000,-62.3481379994377,0,0,0
57775000,-62.6603380879164,0,0,0
59000000,-62.766398602862,0,0,0
60225000,-62.8420621948085,0,0,0
61450000,-62.8119667466451,0,0,0
62675000,-62.7197473523532,0,0,0
63900000,-62.4422782275659,0,0,0
65125000,-62.2038269144523,0,0,0
66350000,-62.0268179564645,0,0,0
67575000,-61.8661521966286,0,0,0
68800000,-61.8752684528076,0,0,0
70025000,-62.0129282093327,0,0,0
71250000,-62.2782798754744,0,0,0
72475000,-62.1883565843053,0,0,0
73700000,-62.37939335767,0,0,0
74925000,-62.1313233378458,0,0,0
76150000,-62.1234172402867,0,0,0
77375000,-61.8600915686775,0,0,0
78600000,-61.6236368425209,0,0,0
79825000,-61.5684835018457,0,0,0
81050000,-61.4896559177944,0,0,0
82275000,-61.6026326474966,0,0,0
83500000,-61.64028435319,0,0,0
84725000,-61.6464761508786,0,0,0
85950000,-61.696640020973,0,0,0
87175000,-61.8109582765794,0,0,0
88400000,-61.6466579231447,0,0,0
89625000,-61.5970178703867,0,0,0
90850000,-61.4035797596408,0,0,0
92075000,-61.2257190000028,0,0,0
93300000,-61.2371714629138,0,0,0
94525000,-61.2893773292143,0,0,0
95750000,-61.3546726241823,0,0,0
96975000,-61.4644472912185,0,0,0
98200000,-61.7264267490969,0,0,0
99425000,-61.6288635831203,0,0,0
100650000,-61.6966931512618,0,0,0
101875000,-61.6149880922656,0,0,0
103100000,-61.4912262423115,0,0,0
104325000,-61.3945418992804,0,0,0
105550000,-61.2899534817358,0,0,0
106775000,-61.2498078480141,0,0,0
108000000,-61.260935541878,0,0,0
109225000,-61.4030894003524,0,0,0
110450000,-61.4610995231291,0,0,0
111675000,-61.6098084089849,0,0,0
112900000,-61.7653282336985,0,0,0
114125000,-61.6961717051672,0,0,0
115350000,-61.5161407172125,0,0,0
116575000,-61.528207469073,0,0,0
117800000,-61.3937308279851,0,0,0
119025000,-61.3243468800895,0,0,0
120250000,-61.4575459361806,0,0,0
121475000,-61.559260981291,0,0,0
122700000,-61.661843327435,0,0,0
123925000,-61.8112451258186,0,0,0
125150000,-61.7897313642235,0,0,0
126375000,-61.8427535207166,0,0,0
127600000,-61.9016514871686,0,0,0
128825000,-61.7413334672006,0,0,0
130050000,-61.6993486225465,0,0,0
131275000,-61.601482280461,0,0,0
132500000,-61.6086506757883,0,0,0
133725000,-61.7551805829524,0,0,0
134950000,-61.6996867123494,0,0,0
136175000,-61.828084780604,0,0,0
137400000,-61.9745250712789,0,0,0
138625000,-61.9912818913668,0,0,0
139850000,-61.8138979489529,0,0,0
141075000,-61.8925297771642,0,0,0
142300000,-61.6562581473995,0,0,0
143525000,-61.6197200596352,0,0,0
144750000,-61.628862142785,0,0,0
145975000,-61.7022042065905,0,0,0
147200000,-61.682732013049,0,0,0
148425000,-61.8756796250359,0,0,0
149650000,-61.9504123099124,0,0,0
150875000,-62.0418217480954,0,0,0
152100000,-61.9181177231336,0,0,0
153325000,-61.9185494756416,0,0,0
154550000,-61.7743331121887,0,0,0
155775000,-61.6812041087845,0,0,0
157000000,-61.5762922681468,0,0,0
158225000,-61.6144153388922,0,0,0
159450000,-61.5841383109887,0,0,0
160675000,-61.819034095149,0,0,0
161900000,-61.9084502869758,0,0,0
163125000,-61.8872514947682,0,0,0
164350000,-61.9751799721795,0,0,0
165575000,-61.8876639516347,0,0,0
166800000,-61.8204767227543,0,0,0
168025000,-61.6753148240709,0,0,0
169250000,-61.6408741973525,0,0,0
170475000,-61.6361228924589,0,0,0
171700000,-61.7278152695941,0,0,0
172925000,-61.9548507502814,0,0,0
174150000,-62.0097853451593,0,0,0
175375000,-62.0369772301971,0,0,0
176600000,-61.9514907160763,0,0,0
177825000,-62.0786800839472,0,0,0
179050000,-61.9293440900447,0,0,0
180275000,-61.8354586740723,0,0,0
181500000,-61.7435751580368,0,0,0
182725000,-61.8132521617831,0,0,0
183950000,-61.7577142773753,0,0,0
185175000,-61.8965174658182,0,0,0
186400000,-62.0856413834121,0,0,0
187625000,-62.1377946876444,0,0,0
188850000,-62.1214028010288,0,0,0
190075000,-62.2415870008493,0,0,0
191300000,-62.1666754208478,0,0,0
192525000,-61.97976371747,0,0,0
193750000,-61.9453840868798,0,0,0
194975000,-61.8681384198007,0,0,0
196200000,-61.9026129042467,0,0,0
197425000,-61.9745338611635,0,0,0
198650000,-62.1580542931271,0,0,0
199875000,-62.1347838205372,0,0,0
201100000,-62.224810927249,0,0,0
202325000,-62.3049209285442,0,0,0
203550000,-62.2142033455785,0,0,0
204775000,-62.1887098738239,0,0,0
206000000,-62.1105032329756,0,0,0
207225000,-62.0361727939357,0,0,0
208450000,-62.0551169665979,0,0,0
209675000,-62.1319718778558,0,0,0
210900000,-62.1351949844018,0,0,0
212125000,-62.4136661422254,0,0,0
213350000,-62.4071383774809,0,0,0
214575000,-62.566988090977,0,0,0
215800000,-62.4516038821969,0,0,0
217025000,-62.4749526345338,0,0,0
218250000,-62.3306625019835,0,0,0
219475000,-62.2869695323037,0,0,0
220700000,-62.3520534489988,0,0,0
221925000,-62.2332273656449,0,0,0
223150000,-62.4204321904035,0,0,0
224375000,-62.5932997737401,0,0,0
225600000,-62.6509378640118,0,0,0
226825000,-62.710688142464,0,0,0
228050000,-62.7090890823691,0,0,0
229275000,-62.5937464665026,0,0,0
230500000,-62.5180449254317,0,0,0
231725000,-62.4564866329324,0,0,0
232950000,-62.4780954194626,0,0,0
234175000,-62.3266109134675,0,0,0
235400000,-62.5514458699129,0,0,0
236625000,-62.6609910334348,0,0,0
237850000,-62.736643779759,0,0,0
239075000,-62.8071198491657,0,0,0
240300000,-62.8287215422082,0,0,0
241525000,-62.7643234553326,0,0,0
242750000,-62.6570807300928,0,0,0
243975000,-62.6633957949938,0,0,0
245200000,-62.7035219791597,0,0,0
246425000,-62.651784814677,0,0,0
247650000,-62.6790689140995,0,0,0
248875000,-62.8511414960484,0,0,0
250100000,-62.8923739420969,0,0,0
251325000,-63.0062293376961,0,0,0
252550000,-63.0229276348655,0,0,0
253775000,-63.0043782055697,0,0,0
255000000,-63.0252681794502,0,0,0
256225000,-62.965697538592,0,0,0
257450000,-62.8350306907068,0,0,0
258675000,-62.8480898358958,0,0,0
259900000,-63.0297943052689,0,0,0
261125000,-63.023565766832,0,0,0
262350000,-63.1728592348725,0,0,0
263575000,-63.2646760489653,0,0,0
264800000,-63.3342640358082,0,0,0
266025000,-63.2125516215772,0,0,0
267250000,-63.2724768600572,0,0,0
268475000,-63.2792407321056,0,0,0
269700000,-63.2095411849502,0,0,0
270925000,-63.1388935292877,0,0,0
272150000,-63.2862892365458,0,0,0
273375000,-63.3433852747754,0,0,0
274600000,-63.5210661685771,0,0,0
275825000,-63.6203966302124,0,0,0
277050000,-63.6941581435461,0,0,0
278275000,-63.7359743606141,0,0,0
279500000,-63.6679653482887,0,0,0
280725000,-63.6803561076566,0,0,0
281950000,-63.6450241138056,0,0,0
283175000,-63.6595386622889,0,0,0
284400000,-63.6768895012935,0,0,0
285625000,-63.6945649705105,0,0,0
286850000,-63.8422248262314,0,0,0
288075000,-64.0404980690192,0,0,0
289300000,-64.1424749272026,0,0,0
290525000,-64.152260306445,0,0,0
291750000,-64.1109921595669,0,0,0
292975000,-64.1524588609046,0,0,0
294200000,-64.1021307475479,0,0,0
295425000,-63.9040855953781,0,0,0
296650000,-64.0270576768749,0,0,0
297875000,-64.1177846398247,0,0,0
299100000,-64.2213162081621,0,0,0
300325000,-64.413519139534,0,0,0
301550000,-64.530326670473,0,0,0
302775000,-64.5568222279798,0,0,0
304000000,-64.4707262373827,0,0,0
305225000,-64.4823614862684,0,0,0
306450000,-64.4468968437695,0,0,0
307675000,-64.4229427752732,0,0,0
308900000,-64.3622731443138,0,0,0
310125000,-64.5329515724059,0,0,0
311350000,-64.5656578013026,0,0,0
312575000,-64.6797539434137,0,0,0
313800000,-64.8818616062912,0,0,0
315025000,-64.7581356528135,0,0,0
316250000,-64.8391992072218,0,0,0
317475000,-64.8757616722882,0,0,0
318700000,-64.9108983804106,0,0,0
319925000,-64.6528209882064,0,0,0
321150000,-64.7981139728624,0,0,0
322375000,-64.667113247533,0,0,0
323600000,-64.8558009338566,0,0,0
324825000,-64.8252005368767,0,0,0
326050000,-65.0615858265928,0,0,0
327275000,-65.0987896526023,0,0,0
328500000,-65.1897620539306,0,0,0
329725000,-65.14075877241,0,0,0
330950000,-65.0817921802111,0,0,0
332175000,-65.0976193210048,0,0,0
333400000,-65.0484828468029,0,0,0
334625000,-65.1341401896823,0,0,0
335850000,-65.1988257149269,0,0,0
337075000,-65.2915529053923,0,0,0
338300000,-65.364434217329,0,0,0
339525000,-65.53499092547,0,0,0
340750000,-65.4767630377532,0,0,0
341975000,-65.615680663868,0,0,0
343200000,-65.5014374361642,0,0,0
344425000,-65.4417455105748,0,0,0
345650000,-65.5322350485344,0,0,0
346875000,-65.5519643534304,0,0,0
348100000,-65.6308666860846,0,0,0
349325000,-65.6692693995071,0,0,0
350550000,-65.7253899179372,0,0,0
351775000,-65.7741748019409,0,0,0
353000000,-65.894674238864,0,0,0
354225000,-65.9783693806389,0,0,0
355450000,-65.9655923255658,0,0,0
356675000,-65.930044822527,0,0,0
357900000,-65.9626934911059,0,0,0
359125000,-65.9875374488256,0,0,0
360350000,-65.9366032714689,0,0,0
361575000,-66.0599071840326,0,0,0
362800000,-66.1101824008021,0,0,0
364025000,-66.3415681393593,0,0,0
365250000,-66.4121324024317,0,0,0
366475000,-66.5102244944887,0,0,0
367700000,-66.3711962574194,0,0,0
368925000,-66.4317793340797,0,0,0
370150000,-66.2866971111131,0,0,0
371375000,-66.260460100484,0,0,0
372600000,-66.3947327505489,0,0,0
373825000,-66.4829791265976,0,0,0
375050000,-66.6152184109698,0,0,0
376275000,-66.6686963084919,0,0,0
377500000,-66.8299089880036,0,0,0
378725000,-66.828605150753,0,0,0
379950000,-66.7510674772194,0,0,0
381175000,-66.7471793395661,0,0,0
382400000,-66.7825488915038,0,0,0
383625000,-66.7967184077113,0,0,0
384850000,-66.6709197710379,0,0,0
386075000,-66.7321184513317,0,0,0
387300000,-66.81061646003,0,0,0
388525000,-66.934672799902,0,0,0
389750000,-67.0903038401123,0,0,0
390975000,-67.069972517033,0,0,0
392200000,-67.1869544396268,0,0,0
393425000,-67.0639886081981,0,0,0
394650000,-67.0435421709319,0,0,0
395875000,-66.9711563679896,0,0,0
397100000,-67.0184447923979,0,0,0
398325000,-66.9777832705462,0,0,0
399550000,-67.133577222344,0,0,0
400775000,-67.1923363810489,0,0,0
402000000,-67.2507423706608,0,0,0
403225000,-67.2615456191551,0,0,0
404450000,-67.3242414868987,0,0,0
405675000,-67.2717804043642,0,0,0
406900000,-67.2869206743008,0,0,0
408125000,-67.2278656644478,0,0,0
409350000,-67.105279206405,0,0,0
410575000,-67.1392207693943,0,0,0
411800000,-67.1576271809937,0,0,0
413025000,-67.2280417581622,0,0,0
414250000,-67.4566295217614,0,0,0
415475000,-67.5752175343138,0,0,0
416700000,-67.5089089557207,0,0,0
417925000,-67.4901314329154,0,0,0
419150000,-67.5176325023065,0,0,0
420375000,-67.527831456166,0,0,0
421600000,-67.5152044897283,0,0,0
422825000,-67.4994114938724,0,0,0
424050000,-67.6001936508748,0,0,0
425275000,-67.712597458536,0,0,0
426500000,-67.8605834050028,0,0,0
427725000,-67.9803905761326,0,0,0
428950000,-68.0298222952629,0,0,0
430175000,-68.1105639802202,0,0,0
431400000,-68.1761812673556,0,0,0
432625000,-68.2006303062358,0,0,0
433850000,-68.2325723893166,0,0,0
435075000,-68.3679344389665,0,0,0
436300000,-68.3517763509696,0,0,0
437525000,-68.6142276111046,0,0,0
438750000,-68.6974875955177,0,0,0
439975000,-68.9867862008443,0,0,0
441200000,-69.1231768720277,0,0,0
442425000,-69.2754791756526,0,0,0
443650000,-69.451674014065,0,0,0
444875000,-69.4676612677756,0,0,0
446100000,-69.6456022687986,0,0,0
447325000,-69.7791755481007,0,0,0
448550000,-69.8299156749456,0,0,0
449775000,-70.0565415979405,0,0,0
451000000,-70.2704345426476,0,0,0
452225000,-70.5523790529232,0,0,0
453450000,-70.8513837010007,0,0,0
454675000,-71.0250087184733,0,0,0
455900000,-71.2528141439803,0,0,0
457125000,-71.3575522113289,0,0,0
458350000,-71.4060498866675,0,0,0
459575000,-71.5006352025982,0,0,0
460800000,-71.7187149072728,0,0,0
462025000,-71.9154529524507,0,0,0
463250000,-72.2491904457905,0,0,0
464475000,-72.4626641617254,0,0,0
465700000,-72.5610707692275,0,0,0
466925000,-72.737893080773,0,0,0
468150000,-73.0014215225357,0,0,0
469375000,-73.1096871978078,0,0,0
470600000,-73.1622095877607,0,0,0
471825000,-73.2412325290139,0,0,0
473050000,-73.344183396179,0,0,0
474275000,-73.3961693225112,0,0,0
475500000,-73.6626854468346,0,0,0
476725000,-73.7337667350748,0,0,0
477950000,-73.9546865681115,0,0,0
479175000,-74.1161670539215,0,0,0
480400000,-74.2684774391471,0,0,0
481625000,-74.2987123097851,0,0,0
482850000,-74.2494663688571,0,0,0
484075000,-74.2907712352141,0,0,0
485300000,-74.4051775520782,0,0,0
486525000,-74.3343257658769,0,0,0
487750000,-74.4125345669,0,0,0
488975000,-74.6751407945039,0,0,0
490200000,-74.8931953233123,0,0,0
491425000,-74.9214261657194,0,0,0
492650000,-74.9040465110659,0,0,0
493875000,-74.9911206842451,0,0,0
495100000,-75.0061427060955,0,0,0
496325000,-74.96605573461,0,0,0
497550000,-74.9952869815231,0,0,0
498775000,-75.0475674317144,0,0,0
500000000,-74.969836955706,0,0,0
END
