! FILETYPE CSV
! VERSION 3.0,1
! TIMESTAMP Wednesday, 09 August 2023 16:13:22
! TIMEZONE (UTC+10:00) Canberra, Melbourne, Sydney
! NAME Keysight Technologies
! MODEL N9914A
! SERIAL MY61272638
! FIRMWARE_VERSION A.12.45
! CORRECTION 
! Application SA
! SA Frequency Scan
!  CenterFreq 255000000
!  SpanFreq 490000000
!  Num TracePoints 401
!  ResolutionBW 1000000
!  VideoBW 10000
!  RF Attenuation 0
!  Preamp ON
!  External Gain 0
!  Detector Sample
!  TraceAvgCount 100 / 100
! Trace TIMESTAMP: 2023-08-09 16:13:22Z
! Trace GPS Info...
! GPS Latitude: 
! GPS Longitude: 
! GPS Elevation (m): 
! GPS Seconds Since Last Read: 
! CHECKSUM 0754204883
! DATA Freq,SA Average,SA Blank,SA Blank,SA Blank
! FREQ UNIT Hz
! DATA UNIT dBm
BEGIN
10000000,-81.1661472173881,0,0,0
11225000,-79.1802864047316,0,0,0
12450000,-77.459531820855,0,0,0
13675000,-75.1624715249059,0,0,0
14900000,-73.109673006051,0,0,0
16125000,-71.5229482362409,0,0,0
17350000,-69.949430783723,0,0,0
18575000,-69.1988974352632,0,0,0
19800000,-68.9455284928804,0,0,0
21025000,-68.9658318622444,0,0,0
22250000,-68.8032888679715,0,0,0
23475000,-68.6514337882161,0,0,0
24700000,-68.1881206823583,0,0,0
25925000,-67.4182236600726,0,0,0
27150000,-66.682066354456,0,0,0
28375000,-65.7439558985614,0,0,0
29600000,-65.166767813892,0,0,0
30825000,-65.0209200203358,0,0,0
32050000,-65.012390785245,0,0,0
33275000,-65.378979305016,0,0,0
34500000,-65.6514385543214,0,0,0
35725000,-65.6110416947769,0,0,0
36950000,-65.4691901598811,0,0,0
38175000,-65.0949327001753,0,0,0
39400000,-64.8674957708019,0,0,0
40625000,-64.193176186314,0,0,0
41850000,-63.8344108587784,0,0,0
43075000,-63.7581903241519,0,0,0
44300000,-63.7179176769321,0,0,0
45525000,-64.1967685248234,0,0,0
46750000,-64.2729784923783,0,0,0
47975000,-64.3440494732792,0,0,0
49200000,-64.2756340062672,0,0,0
50425000,-64.2903254243265,0,0,0
51650000,-63.9587831397848,0,0,0
52875000,-63.5986331329811,0,0,0
54100000,-63.370837738971,0,0,0
55325000,-63.1533288217068,0,0,0
56550000,-63.2237283828738,0,0,0
57775000,-63.3025112124112,0,0,0
59000000,-63.4158838350452,0,0,0
60225000,-63.6462223655526,0,0,0
61450000,-63.6624285496536,0,0,0
62675000,-63.5006364059292,0,0,0
63900000,-63.4414209596191,0,0,0
65125000,-63.1063570568999,0,0,0
66350000,-62.8992284484618,0,0,0
67575000,-62.8063612142302,0,0,0
68800000,-62.7490246634869,0,0,0
70025000,-62.7329023035132,0,0,0
71250000,-62.77853102658,0,0,0
72475000,-62.8516086743655,0,0,0
73700000,-62.8916616831504,0,0,0
74925000,-62.8889100241154,0,0,0
76150000,-62.8736907367981,0,0,0
77375000,-62.8957193186012,0,0,0
78600000,-62.5817031731248,0,0,0
79825000,-62.3657024321011,0,0,0
81050000,-62.2072417436029,0,0,0
82275000,-62.2125178329423,0,0,0
83500000,-62.1591457399374,0,0,0
84725000,-62.2710415636133,0,0,0
85950000,-62.3009530881692,0,0,0
87175000,-62.4377537595734,0,0,0
88400000,-62.3753856956122,0,0,0
89625000,-62.5009579101189,0,0,0
90850000,-62.2375265925478,0,0,0
92075000,-62.1698472033788,0,0,0
93300000,-62.047437853547,0,0,0
94525000,-62.0203998659515,0,0,0
95750000,-61.9394867661708,0,0,0
96975000,-61.8872781013647,0,0,0
98200000,-62.1280519097425,0,0,0
99425000,-62.1534576036497,0,0,0
100650000,-62.2748867855125,0,0,0
101875000,-62.3483839224278,0,0,0
103100000,-62.3712334520498,0,0,0
104325000,-62.1929843659176,0,0,0
105550000,-62.1881599837659,0,0,0
106775000,-62.0580937929762,0,0,0
108000000,-61.9382681024562,0,0,0
109225000,-62.0052317579211,0,0,0
110450000,-62.0955216248937,0,0,0
111675000,-62.1132465976641,0,0,0
112900000,-62.3096142986346,0,0,0
114125000,-62.4195171479584,0,0,0
115350000,-62.4311546440664,0,0,0
116575000,-62.4987143364182,0,0,0
117800000,-62.4365239601502,0,0,0
119025000,-62.4057588149481,0,0,0
120250000,-62.1422803762451,0,0,0
121475000,-62.2832680411644,0,0,0
122700000,-62.2924520866758,0,0,0
123925000,-62.3607833840729,0,0,0
125150000,-62.553400478518,0,0,0
126375000,-62.6396954885986,0,0,0
127600000,-62.736769279844,0,0,0
128825000,-62.7625896379717,0,0,0
130050000,-62.683723368231,0,0,0
131275000,-62.6076711060084,0,0,0
132500000,-62.4256556980852,0,0,0
133725000,-62.2882988878927,0,0,0
134950000,-62.3677401787673,0,0,0
136175000,-62.4141529492335,0,0,0
137400000,-62.3754314157521,0,0,0
138625000,-62.5255588522335,0,0,0
139850000,-62.7503866648455,0,0,0
141075000,-62.7082761174337,0,0,0
142300000,-62.6705312478367,0,0,0
143525000,-62.5542421406616,0,0,0
144750000,-62.4536817193771,0,0,0
145975000,-62.3334832510931,0,0,0
147200000,-62.4288372218213,0,0,0
148425000,-62.2633082171059,0,0,0
149650000,-62.3185546626964,0,0,0
150875000,-62.352326046092,0,0,0
152100000,-62.4366624240299,0,0,0
153325000,-62.5577234000948,0,0,0
154550000,-62.5778407249606,0,0,0
155775000,-62.5244515416739,0,0,0
157000000,-62.3661104153334,0,0,0
158225000,-62.2204321654371,0,0,0
159450000,-62.2412959375428,0,0,0
160675000,-62.211511396687,0,0,0
161900000,-62.1253564083892,0,0,0
163125000,-62.2336423694413,0,0,0
164350000,-62.4308218880542,0,0,0
165575000,-62.5545425432211,0,0,0
166800000,-62.4717822779515,0,0,0
168025000,-62.589784656275,0,0,0
169250000,-62.4591471979676,0,0,0
170475000,-62.3248611581523,0,0,0
171700000,-62.2977046966277,0,0,0
172925000,-62.2393017956384,0,0,0
174150000,-62.3032774241523,0,0,0
175375000,-62.456290095599,0,0,0
176600000,-62.4943898664627,0,0,0
177825000,-62.6620962643807,0,0,0
179050000,-62.7148289452294,0,0,0
180275000,-62.7450645223145,0,0,0
181500000,-62.7015646080521,0,0,0
182725000,-62.6493639466068,0,0,0
183950000,-62.4841632557487,0,0,0
185175000,-62.3722117543775,0,0,0
186400000,-62.2937311210903,0,0,0
187625000,-62.3619215606408,0,0,0
188850000,-62.5062589897076,0,0,0
190075000,-62.7474020312088,0,0,0
191300000,-62.784764101436,0,0,0
192525000,-62.793344038106,0,0,0
193750000,-62.8703572572402,0,0,0
194975000,-62.6421443899221,0,0,0
196200000,-62.550599873109,0,0,0
197425000,-62.4395585951648,0,0,0
198650000,-62.3117958166064,0,0,0
199875000,-62.4095152966379,0,0,0
201100000,-62.5321333570546,0,0,0
202325000,-62.696980208695,0,0,0
203550000,-62.7807049251644,0,0,0
204775000,-62.9704766279833,0,0,0
206000000,-62.9164939934536,0,0,0
207225000,-62.715997775753,0,0,0
208450000,-62.6999745948307,0,0,0
209675000,-62.6426066738505,0,0,0
210900000,-62.5647793908176,0,0,0
212125000,-62.3828536625812,0,0,0
213350000,-62.5596539845243,0,0,0
214575000,-62.6761789639609,0,0,0
215800000,-62.7438286174076,0,0,0
217025000,-62.915875304531,0,0,0
218250000,-63.0109370836723,0,0,0
219475000,-62.8842599154822,0,0,0
220700000,-62.8387419967007,0,0,0
221925000,-62.7180308256061,0,0,0
223150000,-62.5027215968296,0,0,0
224375000,-62.5511467878788,0,0,0
225600000,-62.5847360357873,0,0,0
226825000,-62.7454358034129,0,0,0
228050000,-62.9346557074117,0,0,0
229275000,-63.0289850232161,0,0,0
230500000,-63.0968642718092,0,0,0
231725000,-63.1911713597704,0,0,0
232950000,-63.0551838834498,0,0,0
234175000,-62.9581054661302,0,0,0
235400000,-62.9140585941415,0,0,0
236625000,-62.7339128544786,0,0,0
237850000,-62.8539609298849,0,0,0
239075000,-62.9951520415125,0,0,0
240300000,-63.0886976945893,0,0,0
241525000,-63.2613540680498,0,0,0
242750000,-63.3040365125151,0,0,0
243975000,-63.3986596094253,0,0,0
245200000,-63.3890943298646,0,0,0
246425000,-63.4976551685091,0,0,0
247650000,-63.2094219042849,0,0,0
248875000,-63.1386631408797,0,0,0
250100000,-63.128477153571,0,0,0
251325000,-63.2651811397004,0,0,0
252550000,-63.3518610685519,0,0,0
253775000,-63.3576992362557,0,0,0
255000000,-63.420548904501,0,0,0
256225000,-63.5146168519779,0,0,0
257450000,-63.6968212465866,0,0,0
258675000,-63.6201172653366,0,0,0
259900000,-63.4992057625277,0,0,0
261125000,-63.3832634341439,0,0,0
262350000,-63.2926462088654,0,0,0
263575000,-63.4010434363655,0,0,0
264800000,-63.4602023185182,0,0,0
266025000,-63.5610985284727,0,0,0
267250000,-63.7112643010875,0,0,0
268475000,-63.7728884667249,0,0,0
269700000,-63.8609697105199,0,0,0
270925000,-63.8403622837351,0,0,0
272150000,-63.6939654633756,0,0,0
273375000,-63.6895417449265,0,0,0
274600000,-63.5810435107439,0,0,0
275825000,-63.6310264806691,0,0,0
277050000,-63.5970629755996,0,0,0
278275000,-63.8435570554544,0,0,0
279500000,-63.9607514108954,0,0,0
280725000,-64.0026613501788,0,0,0
281950000,-64.1139642447066,0,0,0
283175000,-64.1402236864475,0,0,0
284400000,-64.1775938683334,0,0,0
285625000,-64.1943579297298,0,0,0
286850000,-63.9803975102386,0,0,0
288075000,-64.0244518394417,0,0,0
289300000,-64.0296015322494,0,0,0
290525000,-64.0732398707893,0,0,0
291750000,-64.2030816708209,0,0,0
292975000,-64.4112694548439,0,0,0
294200000,-64.515575553864,0,0,0
295425000,-64.6405641158127,0,0,0
296650000,-64.5890203372925,0,0,0
297875000,-64.6186763402451,0,0,0
299100000,-64.6089444314797,0,0,0
300325000,-64.4236152862603,0,0,0
301550000,-64.3721952733631,0,0,0
302775000,-64.6136285143604,0,0,0
304000000,-64.6930511011482,0,0,0
305225000,-64.8032772617003,0,0,0
306450000,-64.9435749005041,0,0,0
307675000,-65.0590150366443,0,0,0
308900000,-65.0404527282847,0,0,0
310125000,-65.06611380842,0,0,0
311350000,-64.9250247567752,0,0,0
312575000,-64.8221449921957,0,0,0
313800000,-64.8911324940204,0,0,0
315025000,-64.8626357546361,0,0,0
316250000,-64.933311670957,0,0,0
317475000,-65.1424320732696,0,0,0
318700000,-65.3713751005752,0,0,0
319925000,-65.2301366868696,0,0,0
321150000,-65.3385234708447,0,0,0
322375000,-65.4338134304129,0,0,0
323600000,-65.3362658094042,0,0,0
324825000,-65.2173551980318,0,0,0
326050000,-65.0352867478948,0,0,0
327275000,-65.161046546388,0,0,0
328500000,-65.2378472265451,0,0,0
329725000,-65.2408492291884,0,0,0
330950000,-65.3297285260697,0,0,0
332175000,-65.6220939472173,0,0,0
333400000,-65.6560827931043,0,0,0
334625000,-65.6950540838006,0,0,0
335850000,-65.5547596158924,0,0,0
337075000,-65.5312100637831,0,0,0
338300000,-65.5121764258837,0,0,0
339525000,-65.3292537714456,0,0,0
340750000,-65.5658935970181,0,0,0
341975000,-65.6221373077648,0,0,0
343200000,-65.6953427852641,0,0,0
344425000,-65.7909685372726,0,0,0
345650000,-66.0068973765861,0,0,0
346875000,-65.9983216817149,0,0,0
348100000,-66.0333773322068,0,0,0
349325000,-65.805289098457,0,0,0
350550000,-65.8617524740601,0,0,0
351775000,-65.7252038880145,0,0,0
353000000,-65.7573643700976,0,0,0
354225000,-65.9507052345294,0,0,0
355450000,-66.0852423909217,0,0,0
356675000,-66.1624965028622,0,0,0
357900000,-66.3038815668926,0,0,0
359125000,-66.3926644490081,0,0,0
360350000,-66.3002395900041,0,0,0
361575000,-66.4680338638793,0,0,0
362800000,-66.389612193409,0,0,0
364025000,-66.2917101580729,0,0,0
365250000,-66.2789060427912,0,0,0
366475000,-66.2660214109297,0,0,0
367700000,-66.3915986149127,0,0,0
368925000,-66.5479004184262,0,0,0
370150000,-66.5462103190459,0,0,0
371375000,-66.7178818429869,0,0,0
372600000,-66.803901891146,0,0,0
373825000,-66.8070447267908,0,0,0
375050000,-66.7192203390004,0,0,0
376275000,-66.6894898848559,0,0,0
377500000,-66.594910226523,0,0,0
378725000,-66.7192748086663,0,0,0
379950000,-66.6363579482032,0,0,0
381175000,-66.7636855329614,0,0,0
382400000,-66.9059041826648,0,0,0
383625000,-67.1420953743643,0,0,0
384850000,-67.1909455352839,0,0,0
386075000,-67.2303616767846,0,0,0
387300000,-67.0764261568738,0,0,0
388525000,-67.0353897171003,0,0,0
389750000,-66.9881513511581,0,0,0
390975000,-66.9564655039958,0,0,0
392200000,-67.1226087551271,0,0,0
393425000,-67.1381732356544,0,0,0
394650000,-67.3396707076988,0,0,0
395875000,-67.4009331761843,0,0,0
397100000,-67.4230171376089,0,0,0
398325000,-67.4807510101902,0,0,0
399550000,-67.4627194384936,0,0,0
400775000,-67.4080036316494,0,0,0
402000000,-67.4217325991091,0,0,0
403225000,-67.3815759068147,0,0,0
404450000,-67.2972518553806,0,0,0
405675000,-67.3157057815625,0,0,0
406900000,-67.5223103861047,0,0,0
408125000,-67.6734026528913,0,0,0
409350000,-67.6797674920805,0,0,0
410575000,-67.7875787137472,0,0,0
411800000,-67.7297884767749,0,0,0
413025000,-67.7422756738195,0,0,0
414250000,-67.7029760380029,0,0,0
415475000,-67.6531855147407,0,0,0
416700000,-67.4416597807115,0,0,0
417925000,-67.5487363141288,0,0,0
419150000,-67.6470693376798,0,0,0
420375000,-67.8628571239618,0,0,0
421600000,-67.9713022972554,0,0,0
422825000,-67.9600583318469,0,0,0
424050000,-68.0462953079744,0,0,0
425275000,-68.1270635771143,0,0,0
426500000,-67.9601149539021,0,0,0
427725000,-67.9753229338643,0,0,0
428950000,-67.8260634648755,0,0,0
430175000,-67.8462606016616,0,0,0
431400000,-67.9490030157313,0,0,0
432625000,-68.1135973288519,0,0,0
433850000,-68.1655403431916,0,0,0
435075000,-68.3518002518116,0,0,0
436300000,-68.3791177720421,0,0,0
437525000,-68.461955918186,0,0,0
438750000,-68.2925826263996,0,0,0
439975000,-68.333515449007,0,0,0
441200000,-68.1671680768792,0,0,0
442425000,-68.2609517598507,0,0,0
443650000,-68.4302483096341,0,0,0
444875000,-68.3906522711316,0,0,0
446100000,-68.5435164989835,0,0,0
447325000,-68.7434488994451,0,0,0
448550000,-68.8580495585075,0,0,0
449775000,-69.0048393664005,0,0,0
451000000,-69.0329112618068,0,0,0
452225000,-68.9406670238245,0,0,0
453450000,-69.0419252716227,0,0,0
454675000,-69.0287267485884,0,0,0
455900000,-69.0037184250794,0,0,0
457125000,-69.2382096680363,0,0,0
458350000,-69.3232781653488,0,0,0
459575000,-69.5863719802661,0,0,0
460800000,-69.9554320362398,0,0,0
462025000,-69.9790745911135,0,0,0
463250000,-70.1952597771452,0,0,0
464475000,-70.4370839932141,0,0,0
465700000,-70.3845016918596,0,0,0
466925000,-70.56771717975,0,0,0
468150000,-70.5597030801711,0,0,0
469375000,-70.7556109874344,0,0,0
470600000,-71.0617646465413,0,0,0
471825000,-71.3970095949516,0,0,0
473050000,-71.5319280039472,0,0,0
474275000,-71.8847444103095,0,0,0
475500000,-72.0654713240055,0,0,0
476725000,-72.2176185188411,0,0,0
477950000,-72.2244658573333,0,0,0
479175000,-72.321642563254,0,0,0
480400000,-72.4492192406287,0,0,0
481625000,-72.6047532514273,0,0,0
482850000,-72.8551902051543,0,0,0
484075000,-72.9951210856452,0,0,0
485300000,-73.184193759628,0,0,0
486525000,-73.4813079576182,0,0,0
487750000,-73.7148310766424,0,0,0
488975000,-73.7262667772878,0,0,0
490200000,-73.9066699957335,0,0,0
491425000,-73.8829581061757,0,0,0
492650000,-73.9079889798343,0,0,0
493875000,-73.8749428258537,0,0,0
495100000,-74.0131576229999,0,0,0
496325000,-74.2544752954515,0,0,0
497550000,-74.3965653499511,0,0,0
498775000,-74.4931717021767,0,0,0
500000000,-74.7415264761222,0,0,0
END
