! FILETYPE CSV
! VERSION 3.0,1
! TIMESTAMP Wednesday, 09 August 2023 15:38:08
! TIMEZONE (UTC+10:00) Canberra, Melbourne, Sydney
! NAME Keysight Technologies
! MODEL N9914A
! SERIAL MY61272638
! FIRMWARE_VERSION A.12.45
! CORRECTION 
! Application SA
! SA Frequency Scan
!  CenterFreq 255000000
!  SpanFreq 490000000
!  Num TracePoints 401
!  ResolutionBW 1000000
!  VideoBW 10000
!  RF Attenuation 0
!  Preamp ON
!  External Gain 0
!  Detector Sample
!  TraceAvgCount 100 / 100
! Trace TIMESTAMP: 2023-08-09 15:38:08Z
! Trace GPS Info...
! GPS Latitude: 
! GPS Longitude: 
! GPS Elevation (m): 
! GPS Seconds Since Last Read: 
! CHECKSUM 0337811983
! DATA Freq,SA Average,SA Blank,SA Blank,SA Blank
! FREQ UNIT Hz
! DATA UNIT dBm
BEGIN
10000000,-81.2935745049361,0,0,0
11225000,-79.2112291699971,0,0,0
12450000,-77.6895277061986,0,0,0
13675000,-75.3261780046389,0,0,0
14900000,-73.1976589119502,0,0,0
16125000,-71.6586217913514,0,0,0
17350000,-70.2073989086292,0,0,0
18575000,-69.6080921804769,0,0,0
19800000,-69.3605842503714,0,0,0
21025000,-69.3968495599396,0,0,0
22250000,-69.3241521625525,0,0,0
23475000,-69.0411398455458,0,0,0
24700000,-68.4489928396994,0,0,0
25925000,-67.6492664843201,0,0,0
27150000,-66.7759828561722,0,0,0
28375000,-65.8561815995377,0,0,0
29600000,-65.2915846010459,0,0,0
30825000,-65.2963281258365,0,0,0
32050000,-65.4565727753889,0,0,0
33275000,-65.7235570909982,0,0,0
34500000,-66.0145403790608,0,0,0
35725000,-65.8989801390663,0,0,0
36950000,-65.6824788101579,0,0,0
38175000,-65.1856959429052,0,0,0
39400000,-64.7038805771026,0,0,0
40625000,-64.2443299515734,0,0,0
41850000,-64.0207719903499,0,0,0
43075000,-63.8636418438398,0,0,0
44300000,-64.0831747619081,0,0,0
45525000,-64.4135261946167,0,0,0
46750000,-64.5554089643455,0,0,0
47975000,-64.707813039142,0,0,0
49200000,-64.4738356418592,0,0,0
50425000,-64.3122717390576,0,0,0
51650000,-63.8743996758865,0,0,0
52875000,-63.4457165736814,0,0,0
54100000,-63.2604126534298,0,0,0
55325000,-63.2454343310659,0,0,0
56550000,-63.346795760929,0,0,0
57775000,-63.5527808113851,0,0,0
59000000,-63.7881579388909,0,0,0
60225000,-63.878980434714,0,0,0
61450000,-63.8077443395947,0,0,0
62675000,-63.5816688383632,0,0,0
63900000,-63.3901063831286,0,0,0
65125000,-63.0461822127263,0,0,0
66350000,-62.7844312689232,0,0,0
67575000,-62.8179357876521,0,0,0
68800000,-62.8083992362521,0,0,0
70025000,-62.9147884846818,0,0,0
71250000,-63.0808723228455,0,0,0
72475000,-63.1068841922212,0,0,0
73700000,-63.1404045169896,0,0,0
74925000,-63.0499340444456,0,0,0
76150000,-62.9392806505784,0,0,0
77375000,-62.700081302768,0,0,0
78600000,-62.4909612231404,0,0,0
79825000,-62.4044412863032,0,0,0
81050000,-62.2594901626336,0,0,0
82275000,-62.4105015486264,0,0,0
83500000,-62.5380862766067,0,0,0
84725000,-62.6689791220098,0,0,0
85950000,-62.6898370214204,0,0,0
87175000,-62.6529082171488,0,0,0
88400000,-62.5503088297034,0,0,0
89625000,-62.4683942978534,0,0,0
90850000,-62.3191431893577,0,0,0
92075000,-62.1014936385252,0,0,0
93300000,-62.1339085362316,0,0,0
94525000,-62.2035489466454,0,0,0
95750000,-62.1839420349045,0,0,0
96975000,-62.3059827456499,0,0,0
98200000,-62.5002716405221,0,0,0
99425000,-62.5002766055231,0,0,0
100650000,-62.5666748005579,0,0,0
101875000,-62.5601554219976,0,0,0
103100000,-62.4317214987778,0,0,0
104325000,-62.2808072178686,0,0,0
105550000,-62.1982579785737,0,0,0
106775000,-62.2935508511291,0,0,0
108000000,-62.3469429639038,0,0,0
109225000,-62.4954019423915,0,0,0
110450000,-62.4346838606224,0,0,0
111675000,-62.6013143830652,0,0,0
112900000,-62.6752185928436,0,0,0
114125000,-62.6782960387475,0,0,0
115350000,-62.5385041646332,0,0,0
116575000,-62.5648292137272,0,0,0
117800000,-62.4658427289967,0,0,0
119025000,-62.428153454355,0,0,0
120250000,-62.5426586186447,0,0,0
121475000,-62.6357139780297,0,0,0
122700000,-62.6385972533076,0,0,0
123925000,-62.9029867725044,0,0,0
125150000,-62.9445902605513,0,0,0
126375000,-62.9744702564902,0,0,0
127600000,-62.906725716299,0,0,0
128825000,-62.8751492841687,0,0,0
130050000,-62.6799424328048,0,0,0
131275000,-62.7240528385962,0,0,0
132500000,-62.7401767457111,0,0,0
133725000,-62.6775870043509,0,0,0
134950000,-62.8831193896555,0,0,0
136175000,-62.999780674039,0,0,0
137400000,-62.8602907014592,0,0,0
138625000,-62.9919377031926,0,0,0
139850000,-62.9201462832287,0,0,0
141075000,-62.9441452908348,0,0,0
142300000,-62.7146536987122,0,0,0
143525000,-62.6105811774026,0,0,0
144750000,-62.5624304285586,0,0,0
145975000,-62.6594608617624,0,0,0
147200000,-62.8418202995954,0,0,0
148425000,-62.8747541815887,0,0,0
149650000,-62.9290853457457,0,0,0
150875000,-63.015323866294,0,0,0
152100000,-63.0040901255575,0,0,0
153325000,-62.7428183832994,0,0,0
154550000,-62.7423199348507,0,0,0
155775000,-62.6629389297468,0,0,0
157000000,-62.5847627234456,0,0,0
158225000,-62.6300291557631,0,0,0
159450000,-62.6913407854063,0,0,0
160675000,-62.8403557013396,0,0,0
161900000,-62.8294161667957,0,0,0
163125000,-62.8599430153333,0,0,0
164350000,-63.0983773380245,0,0,0
165575000,-62.8840350107111,0,0,0
166800000,-62.8451935519796,0,0,0
168025000,-62.7220135410848,0,0,0
169250000,-62.6413956803984,0,0,0
170475000,-62.6630972442958,0,0,0
171700000,-62.7381372601159,0,0,0
172925000,-62.8059355889801,0,0,0
174150000,-62.9320876599207,0,0,0
175375000,-63.0400416874036,0,0,0
176600000,-63.1275373346744,0,0,0
177825000,-63.0112065241188,0,0,0
179050000,-63.0836638485602,0,0,0
180275000,-62.897240081196,0,0,0
181500000,-62.7531274586604,0,0,0
182725000,-62.8032405653182,0,0,0
183950000,-62.7468206977567,0,0,0
185175000,-62.8531839095645,0,0,0
186400000,-63.0111254946502,0,0,0
187625000,-63.1216129187451,0,0,0
188850000,-63.1610131227925,0,0,0
190075000,-63.1120912853674,0,0,0
191300000,-63.1415688442536,0,0,0
192525000,-63.0492860185009,0,0,0
193750000,-62.7460994443885,0,0,0
194975000,-62.7474588281756,0,0,0
196200000,-62.8649111659733,0,0,0
197425000,-62.8193188929286,0,0,0
198650000,-63.0783417082872,0,0,0
199875000,-63.2102054159168,0,0,0
201100000,-63.2200512842227,0,0,0
202325000,-63.2763775937655,0,0,0
203550000,-63.1079343814954,0,0,0
204775000,-63.0230238541609,0,0,0
206000000,-62.9470258011825,0,0,0
207225000,-62.8500574926074,0,0,0
208450000,-62.81115545267,0,0,0
209675000,-62.9449353376529,0,0,0
210900000,-63.1364426611753,0,0,0
212125000,-63.2862398105532,0,0,0
213350000,-63.2459102685545,0,0,0
214575000,-63.3413583635278,0,0,0
215800000,-63.2914961434283,0,0,0
217025000,-63.3007433998658,0,0,0
218250000,-63.2028082960229,0,0,0
219475000,-63.032321746398,0,0,0
220700000,-63.1020057717108,0,0,0
221925000,-63.1212694206446,0,0,0
223150000,-63.2531887724499,0,0,0
224375000,-63.3367424126895,0,0,0
225600000,-63.4105378806447,0,0,0
226825000,-63.5741447182573,0,0,0
228050000,-63.6255718099982,0,0,0
229275000,-63.5313495688128,0,0,0
230500000,-63.5299733559103,0,0,0
231725000,-63.4170466621323,0,0,0
232950000,-63.302722067604,0,0,0
234175000,-63.3551958356386,0,0,0
235400000,-63.4201387600451,0,0,0
236625000,-63.5659398401847,0,0,0
237850000,-63.7202560639416,0,0,0
239075000,-63.7691982915263,0,0,0
240300000,-63.8378733880476,0,0,0
241525000,-63.769159026009,0,0,0
242750000,-63.7496250620902,0,0,0
243975000,-63.6258593349191,0,0,0
245200000,-63.6363438041327,0,0,0
246425000,-63.6616647567115,0,0,0
247650000,-63.788251425902,0,0,0
248875000,-63.8088757220377,0,0,0
250100000,-64.0103989121552,0,0,0
251325000,-64.0708797015263,0,0,0
252550000,-64.1248251798311,0,0,0
253775000,-64.0744857737239,0,0,0
255000000,-64.0101372963403,0,0,0
256225000,-63.9174090967444,0,0,0
257450000,-63.8489778901859,0,0,0
258675000,-63.7955346745369,0,0,0
259900000,-63.9493593856874,0,0,0
261125000,-64.0451325858922,0,0,0
262350000,-64.10283752853,0,0,0
263575000,-64.2052803747039,0,0,0
264800000,-64.2534514723187,0,0,0
266025000,-64.2696405943502,0,0,0
267250000,-64.2360560482014,0,0,0
268475000,-64.1392346980974,0,0,0
269700000,-64.1556706225148,0,0,0
270925000,-64.0736446117254,0,0,0
272150000,-64.1448393960373,0,0,0
273375000,-64.1545645396717,0,0,0
274600000,-64.3490326637055,0,0,0
275825000,-64.5676122487233,0,0,0
277050000,-64.5607343989714,0,0,0
278275000,-64.5937417993429,0,0,0
279500000,-64.7023109563396,0,0,0
280725000,-64.607540839572,0,0,0
281950000,-64.4596023638961,0,0,0
283175000,-64.4656880152419,0,0,0
284400000,-64.4218182778711,0,0,0
285625000,-64.4651413525382,0,0,0
286850000,-64.610940193867,0,0,0
288075000,-64.7952430907641,0,0,0
289300000,-64.9604978841639,0,0,0
290525000,-65.0292960822402,0,0,0
291750000,-65.0685258749531,0,0,0
292975000,-64.9854104592463,0,0,0
294200000,-65.0662338764296,0,0,0
295425000,-64.9845905701155,0,0,0
296650000,-64.9413173243249,0,0,0
297875000,-64.9576685108399,0,0,0
299100000,-64.9591446706964,0,0,0
300325000,-65.1773594628484,0,0,0
301550000,-65.3612335411812,0,0,0
302775000,-65.4095114154125,0,0,0
304000000,-65.4012884516226,0,0,0
305225000,-65.446181028304,0,0,0
306450000,-65.4132476625417,0,0,0
307675000,-65.3434282821598,0,0,0
308900000,-65.2204968168525,0,0,0
310125000,-65.294069673535,0,0,0
311350000,-65.4574550713391,0,0,0
312575000,-65.4533342018739,0,0,0
313800000,-65.6795107177935,0,0,0
315025000,-65.8683210517944,0,0,0
316250000,-65.8367858723252,0,0,0
317475000,-65.9412249011887,0,0,0
318700000,-65.9426628696181,0,0,0
319925000,-65.772372219,0,0,0
321150000,-65.6376524799568,0,0,0
322375000,-65.6946040930082,0,0,0
323600000,-65.6917110148225,0,0,0
324825000,-65.8395210591398,0,0,0
326050000,-65.9538693099842,0,0,0
327275000,-66.0585103518762,0,0,0
328500000,-66.1191199637156,0,0,0
329725000,-66.2566338113316,0,0,0
330950000,-66.1515097472618,0,0,0
332175000,-66.1943606346758,0,0,0
333400000,-66.0209031420914,0,0,0
334625000,-65.9613406007752,0,0,0
335850000,-65.9978926393426,0,0,0
337075000,-66.0686890230234,0,0,0
338300000,-66.0863787165043,0,0,0
339525000,-66.3810908058655,0,0,0
340750000,-66.4857123700323,0,0,0
341975000,-66.5566516884866,0,0,0
343200000,-66.4876302698987,0,0,0
344425000,-66.4173660590945,0,0,0
345650000,-66.3605321861278,0,0,0
346875000,-66.4212829557213,0,0,0
348100000,-66.2431786560683,0,0,0
349325000,-66.4010008488572,0,0,0
350550000,-66.5911294561462,0,0,0
351775000,-66.6385631130433,0,0,0
353000000,-66.6104749346089,0,0,0
354225000,-66.7386952765847,0,0,0
355450000,-66.7717486879019,0,0,0
356675000,-66.7468611822033,0,0,0
357900000,-66.8075644621665,0,0,0
359125000,-66.6210634486432,0,0,0
360350000,-66.6970574061503,0,0,0
361575000,-66.7815493922903,0,0,0
362800000,-66.7818051508971,0,0,0
364025000,-66.8882821341676,0,0,0
365250000,-67.0209850658213,0,0,0
366475000,-67.2016795078669,0,0,0
367700000,-67.1158716672415,0,0,0
368925000,-67.115864913017,0,0,0
370150000,-67.0554236322939,0,0,0
371375000,-67.0798751445388,0,0,0
372600000,-67.0195684858052,0,0,0
373825000,-67.0722819430927,0,0,0
375050000,-67.1170189535331,0,0,0
376275000,-67.1676016283937,0,0,0
377500000,-67.3801823145557,0,0,0
378725000,-67.4870185004776,0,0,0
379950000,-67.5458365391958,0,0,0
381175000,-67.5235771208844,0,0,0
382400000,-67.4828456223491,0,0,0
383625000,-67.4221965287926,0,0,0
384850000,-67.4335649500985,0,0,0
386075000,-67.4104580324693,0,0,0
387300000,-67.5301972958658,0,0,0
388525000,-67.5723164001719,0,0,0
389750000,-67.7220575422645,0,0,0
390975000,-67.8286276243572,0,0,0
392200000,-67.9576084649265,0,0,0
393425000,-67.9090310898313,0,0,0
394650000,-67.8165688108857,0,0,0
395875000,-67.7622156628222,0,0,0
397100000,-67.6134809198738,0,0,0
398325000,-67.6294854691571,0,0,0
399550000,-67.7446564086409,0,0,0
400775000,-67.764969356874,0,0,0
402000000,-68.0085691268195,0,0,0
403225000,-68.0881667166062,0,0,0
404450000,-68.2216366476436,0,0,0
405675000,-68.1666835096612,0,0,0
406900000,-68.1561033064497,0,0,0
408125000,-68.1906521426555,0,0,0
409350000,-68.1612354471803,0,0,0
410575000,-68.1113174999408,0,0,0
411800000,-68.1371004342422,0,0,0
413025000,-68.1597900379708,0,0,0
414250000,-68.3882839647695,0,0,0
415475000,-68.4985477725487,0,0,0
416700000,-68.6629880093219,0,0,0
417925000,-68.703615289428,0,0,0
419150000,-68.8323033035533,0,0,0
420375000,-68.859772812477,0,0,0
421600000,-68.8070372535197,0,0,0
422825000,-68.8194999126363,0,0,0
424050000,-68.8390762422059,0,0,0
425275000,-69.053842981658,0,0,0
426500000,-69.2125311213031,0,0,0
427725000,-69.4208177125534,0,0,0
428950000,-69.6432046776732,0,0,0
430175000,-69.9067266493606,0,0,0
431400000,-69.9094022418632,0,0,0
432625000,-70.0107010022626,0,0,0
433850000,-70.0608632872552,0,0,0
435075000,-70.1550303385443,0,0,0
436300000,-70.2806429126402,0,0,0
437525000,-70.4641970382759,0,0,0
438750000,-70.5862499735241,0,0,0
439975000,-70.8315842864004,0,0,0
441200000,-71.1030975847108,0,0,0
442425000,-71.3668118193835,0,0,0
443650000,-71.6130801552277,0,0,0
444875000,-71.8019345260575,0,0,0
446100000,-71.8429434612839,0,0,0
447325000,-71.8962796197603,0,0,0
448550000,-72.135647835774,0,0,0
449775000,-72.169675973704,0,0,0
451000000,-72.3802823048848,0,0,0
452225000,-72.5684425171793,0,0,0
453450000,-72.8065305422634,0,0,0
454675000,-72.8737580559032,0,0,0
455900000,-73.1237417988692,0,0,0
457125000,-73.287322623047,0,0,0
458350000,-73.3773510428911,0,0,0
459575000,-73.537155416692,0,0,0
460800000,-73.5931016670793,0,0,0
462025000,-73.614093374567,0,0,0
463250000,-73.7025005754294,0,0,0
464475000,-73.8303993495581,0,0,0
465700000,-74.0527456051551,0,0,0
466925000,-74.2137602384239,0,0,0
468150000,-74.4853198351457,0,0,0
469375000,-74.513458962353,0,0,0
470600000,-74.5169677351574,0,0,0
471825000,-74.5604192783328,0,0,0
473050000,-74.4669750867058,0,0,0
474275000,-74.4113945005439,0,0,0
475500000,-74.540391416691,0,0,0
476725000,-74.5565083738413,0,0,0
477950000,-74.6334736952881,0,0,0
479175000,-75.0048699424047,0,0,0
480400000,-74.9383910364364,0,0,0
481625000,-75.1284711053497,0,0,0
482850000,-75.1250721230942,0,0,0
484075000,-75.0993401627515,0,0,0
485300000,-75.0270444303534,0,0,0
486525000,-75.1188449774592,0,0,0
487750000,-75.0225262578344,0,0,0
488975000,-75.1589878687721,0,0,0
490200000,-75.1760598096142,0,0,0
491425000,-75.3112893009982,0,0,0
492650000,-75.4398327216387,0,0,0
493875000,-75.5197504537876,0,0,0
495100000,-75.6438922452317,0,0,0
496325000,-75.5497726183799,0,0,0
497550000,-75.5501324638382,0,0,0
498775000,-75.5469900007662,0,0,0
500000000,-75.5088116638707,0,0,0
END
